1069_I0_Cu_edge     30 scans
***************************
Energy_(eV)	theta_(deg)	source_(ustep)	detect_(ustep)	ROI_counts	total_counts	real_time	live_time	cnts_per_live	ICR_(cnts/sec)	OCR_(cnts/sec)
8.92000000E+3	7.92723267E+1	-5.42588000E+5	5.54368000E+5	1.16680000E+4	1.19940000E+4	1.05032864E+0	1.01707808E+0	1.14720789E+4	1.17926006E+4	1.14192830E+4
8.92100000E+3	7.92380699E+1	-5.45805000E+5	5.57580000E+5	1.16880000E+4	1.20390000E+4	1.05048064E+0	1.01935776E+0	1.14660431E+4	1.18103085E+4	1.14604682E+4
8.92200000E+3	7.92039294E+1	-5.49011000E+5	5.60779000E+5	1.16090000E+4	1.19300000E+4	1.05078432E+0	1.02051168E+0	1.13756660E+4	1.16901284E+4	1.13534241E+4
8.92300000E+3	7.91699042E+1	-5.52203000E+5	5.63967000E+5	1.14310000E+4	1.17350000E+4	1.05032096E+0	1.01681920E+0	1.12419199E+4	1.15407591E+4	1.11727752E+4
8.92400000E+3	7.91359931E+1	-5.55384000E+5	5.67142000E+5	1.14840000E+4	1.18240000E+4	1.05073568E+0	1.01992032E+0	1.12597031E+4	1.15927262E+4	1.12530679E+4
8.92500000E+3	7.91021951E+1	-5.58552000E+5	5.70305000E+5	1.13400000E+4	1.16410000E+4	1.05070944E+0	1.01628256E+0	1.11583141E+4	1.14542394E+4	1.10791809E+4
8.92600000E+3	7.90685091E+1	-5.61709000E+5	5.73456000E+5	1.12440000E+4	1.15730000E+4	1.04988256E+0	1.02220544E+0	1.09997458E+4	1.13212664E+4	1.10231377E+4
8.92700000E+3	7.90349341E+1	-5.64854000E+5	5.76595000E+5	1.11030000E+4	1.14250000E+4	1.05070368E+0	1.01838240E+0	1.09025843E+4	1.12184852E+4	1.08736652E+4
8.92800000E+3	7.90014690E+1	-5.67986000E+5	5.79722000E+5	1.13080000E+4	1.16680000E+4	1.05032768E+0	1.02092160E+0	1.10762668E+4	1.14287910E+4	1.11089141E+4
8.92900000E+3	7.89681128E+1	-5.71108000E+5	5.82838000E+5	1.10990000E+4	1.14440000E+4	1.05074944E+0	1.01772192E+0	1.09057295E+4	1.12444886E+4	1.08912739E+4
8.93000000E+3	7.89348645E+1	-5.74217000E+5	5.85942000E+5	1.09800000E+4	1.13210000E+4	1.05051200E+0	1.02269952E+0	1.07362913E+4	1.10694079E+4	1.07766499E+4
8.93100000E+3	7.89017231E+1	-5.77316000E+5	5.89035000E+5	1.09620000E+4	1.12910000E+4	1.05007392E+0	1.02110432E+0	1.07354359E+4	1.10573796E+4	1.07525764E+4
8.93200000E+3	7.88686878E+1	-5.80403000E+5	5.92117000E+5	1.09050000E+4	1.12020000E+4	1.05105664E+0	1.01809376E+0	1.07111942E+4	1.10028895E+4	1.06578462E+4
8.93300000E+3	7.88357574E+1	-5.83478000E+5	5.95187000E+5	1.10170000E+4	1.13160000E+4	1.05024416E+0	1.02007520E+0	1.08001841E+4	1.10929614E+4	1.07746374E+4
8.93400000E+3	7.88029311E+1	-5.86543000E+5	5.98246000E+5	1.09610000E+4	1.12630000E+4	1.04984160E+0	1.01800832E+0	1.07671026E+4	1.10634175E+4	1.07282851E+4
8.93500000E+3	7.87702079E+1	-5.89596000E+5	6.01294000E+5	1.10450000E+4	1.13450000E+4	1.05048544E+0	1.02094432E+0	1.08184156E+4	1.11120717E+4	1.07997689E+4
8.93600000E+3	7.87375870E+1	-5.92639000E+5	6.04331000E+5	1.09860000E+4	1.13070000E+4	1.05062784E+0	1.02402528E+0	1.07282508E+4	1.10414821E+4	1.07621363E+4
8.93700000E+3	7.87050674E+1	-5.95671000E+5	6.07357000E+5	1.08910000E+4	1.11810000E+4	1.05077440E+0	1.02292096E+0	1.06469614E+4	1.09301940E+4	1.06407236E+4
8.93800000E+3	7.86726483E+1	-5.98691000E+5	6.10373000E+5	1.08790000E+4	1.11860000E+4	1.05071744E+0	1.01850112E+0	1.06813825E+4	1.09826784E+4	1.06460591E+4
8.93900000E+3	7.86403288E+1	-6.01702000E+5	6.13377000E+5	1.07840000E+4	1.10890000E+4	1.05103904E+0	1.01895104E+0	1.05834329E+4	1.08825155E+4	1.05505120E+4
8.94000000E+3	7.86081080E+1	-6.04701000E+5	6.16371000E+5	1.06970000E+4	1.10050000E+4	1.05059456E+0	1.01852064E+0	1.05024872E+4	1.08057804E+4	1.04759728E+4
8.94100000E+3	7.85759850E+1	-6.07690000E+5	6.19355000E+5	1.07810000E+4	1.10800000E+4	1.05065568E+0	1.02158432E+0	1.05532160E+4	1.08455907E+4	1.05457956E+4
8.94200000E+3	7.85439592E+1	-6.10669000E+5	6.22328000E+5	1.09020000E+4	1.12380000E+4	1.05018656E+0	1.01712800E+0	1.07184150E+4	1.10485036E+4	1.07009558E+4
8.94300000E+3	7.85120295E+1	-6.13638000E+5	6.25291000E+5	1.07010000E+4	1.10170000E+4	1.05091936E+0	1.01808032E+0	1.05109585E+4	1.08211195E+4	1.04832021E+4
8.94400000E+3	7.84801952E+1	-6.16596000E+5	6.28244000E+5	1.05940000E+4	1.09150000E+4	1.05060256E+0	1.01957184E+0	1.03906361E+4	1.07052121E+4	1.03892760E+4
8.94500000E+3	7.84484556E+1	-6.19544000E+5	6.31186000E+5	1.08270000E+4	1.11220000E+4	1.05041824E+0	1.01947776E+0	1.06201434E+4	1.09092318E+4	1.05881634E+4
8.94600000E+3	7.84168098E+1	-6.22481000E+5	6.34119000E+5	1.07130000E+4	1.10370000E+4	1.05038080E+0	1.01865440E+0	1.05168151E+4	1.08345498E+4	1.05076178E+4
8.94700000E+3	7.83852570E+1	-6.25409000E+5	6.37041000E+5	1.05130000E+4	1.08240000E+4	1.05081984E+0	1.02165408E+0	1.02901757E+4	1.05943037E+4	1.03005288E+4
8.94800000E+3	7.83537965E+1	-6.28327000E+5	6.39954000E+5	1.03820000E+4	1.06980000E+4	1.05094656E+0	1.01970784E+0	1.01813476E+4	1.04909217E+4	1.01793948E+4
8.94900000E+3	7.83224276E+1	-6.31235000E+5	6.42856000E+5	1.04010000E+4	1.06580000E+4	1.05085600E+0	1.02324960E+0	1.01646754E+4	1.04156616E+4	1.01422079E+4
8.95000000E+3	7.82911494E+1	-6.34134000E+5	6.45749000E+5	1.03930000E+4	1.07400000E+4	1.05081440E+0	1.02168640E+0	1.01723973E+4	1.05119937E+4	1.02206441E+4
8.95100000E+3	7.82599613E+1	-6.37022000E+5	6.48632000E+5	1.02600000E+4	1.05640000E+4	1.05030560E+0	1.02336064E+0	1.00257911E+4	1.03227124E+4	1.00580250E+4
8.95200000E+3	7.82288625E+1	-6.39901000E+5	6.51506000E+5	1.06960000E+4	1.09750000E+4	1.05059808E+0	1.01676928E+0	1.05195940E+4	1.07939144E+4	1.04464307E+4
8.95300000E+3	7.81978523E+1	-6.42771000E+5	6.54370000E+5	1.07910000E+4	1.10830000E+4	1.05071360E+0	1.01911296E+0	1.05886201E+4	1.08749400E+4	1.05480694E+4
8.95400000E+3	7.81669300E+1	-6.45631000E+5	6.57225000E+5	1.04100000E+4	1.06880000E+4	1.05031168E+0	1.02337920E+0	1.01721825E+4	1.04437161E+4	1.01760270E+4
8.95500000E+3	7.81360949E+1	-6.48481000E+5	6.60070000E+5	1.05430000E+4	1.08550000E+4	1.05042976E+0	1.01999136E+0	1.03363621E+4	1.06422311E+4	1.03338656E+4
8.95600000E+3	7.81053463E+1	-6.51323000E+5	6.62906000E+5	1.05050000E+4	1.07650000E+4	1.05089632E+0	1.02215648E+0	1.02772914E+4	1.05314024E+4	1.02436366E+4
8.95700000E+3	7.80746835E+1	-6.54155000E+5	6.65732000E+5	1.05550000E+4	1.08270000E+4	1.05122848E+0	1.01818176E+0	1.03665184E+4	1.06335542E+4	1.02993785E+4
8.95800000E+3	7.80441059E+1	-6.56978000E+5	6.68550000E+5	1.05750000E+4	1.08740000E+4	1.05112992E+0	1.02080960E+0	1.03594245E+4	1.06522016E+4	1.03450580E+4
8.95900000E+3	7.80136129E+1	-6.59791000E+5	6.71358000E+5	1.04300000E+4	1.07070000E+4	1.05072608E+0	1.01950528E+0	1.02304522E+4	1.05019593E+4	1.01900964E+4
8.96000000E+3	7.79832037E+1	-6.62596000E+5	6.74157000E+5	1.06230000E+4	1.09440000E+4	1.05051808E+0	1.02061280E+0	1.04084526E+4	1.07229297E+4	1.04177169E+4
8.96100000E+3	7.79528777E+1	-6.65392000E+5	6.76947000E+5	1.03410000E+4	1.06130000E+4	1.04992512E+0	1.01517216E+0	1.01864496E+4	1.04543093E+4	1.01083399E+4
8.96200000E+3	7.79226342E+1	-6.68178000E+5	6.79729000E+5	1.03410000E+4	1.06280000E+4	1.05109376E+0	1.01800672E+0	1.01580862E+4	1.04397293E+4	1.01113720E+4
8.96300000E+3	7.78924728E+1	-6.70956000E+5	6.82501000E+5	1.05140000E+4	1.08110000E+4	1.05040928E+0	1.02248832E+0	1.02827580E+4	1.05732221E+4	1.02921787E+4
8.96400000E+3	7.78623926E+1	-6.73726000E+5	6.85265000E+5	1.06820000E+4	1.09660000E+4	1.05036384E+0	1.02176544E+0	1.04544542E+4	1.07321240E+4	1.04401918E+4
8.96500000E+3	7.78323932E+1	-6.76486000E+5	6.88020000E+5	1.06040000E+4	1.09140000E+4	1.05064800E+0	1.02096544E+0	1.03862477E+4	1.06896983E+4	1.03878749E+4
8.96600000E+3	7.78024739E+1	-6.79238000E+5	6.90766000E+5	1.05120000E+4	1.08210000E+4	1.04979872E+0	1.01948448E+0	1.03110937E+4	1.06138942E+4	1.03076902E+4
8.96700000E+3	7.77726341E+1	-6.81981000E+5	6.93504000E+5	1.05020000E+4	1.08130000E+4	1.05034272E+0	1.01899360E+0	1.03062473E+4	1.06112233E+4	1.02947350E+4
8.96800000E+3	7.77428733E+1	-6.84716000E+5	6.96233000E+5	1.04680000E+4	1.07860000E+4	1.04998912E+0	1.01561600E+0	1.03070452E+4	1.06200838E+4	1.02724874E+4
8.96900000E+3	7.77131908E+1	-6.87442000E+5	6.98954000E+5	1.06510000E+4	1.09410000E+4	1.05041120E+0	1.01905216E+0	1.04518693E+4	1.07362305E+4	1.04159209E+4
8.97000000E+3	7.76835861E+1	-6.90159000E+5	7.01666000E+5	5.02080000E+4	5.16040000E+4	5.04958784E+0	4.90720928E+0	1.02314772E+4	1.05160283E+4	1.02194479E+4
8.97050000E+3	7.76688127E+1	-6.91515000E+5	7.03019000E+5	5.05060000E+4	5.19410000E+4	5.04902080E+0	4.90325824E+0	1.03004977E+4	1.05929020E+4	1.02873413E+4
8.97100000E+3	7.76540586E+1	-6.92869000E+5	7.04370000E+5	5.06050000E+4	5.20050000E+4	5.04965024E+0	4.90640128E+0	1.03140769E+4	1.05993701E+4	1.02987331E+4
8.97150000E+3	7.76393237E+1	-6.94220000E+5	7.05719000E+5	5.02290000E+4	5.16460000E+4	5.04942816E+0	4.90737760E+0	1.02354056E+4	1.05242681E+4	1.02280889E+4
8.97200000E+3	7.76246078E+1	-6.95570000E+5	7.07066000E+5	5.05190000E+4	5.19260000E+4	5.05129760E+0	4.90577696E+0	1.02978591E+4	1.05847584E+4	1.02797349E+4
8.97250000E+3	7.76099109E+1	-6.96917000E+5	7.08411000E+5	5.10700000E+4	5.24850000E+4	5.04965312E+0	4.90690400E+0	1.04077846E+4	1.06961730E+4	1.03937832E+4
8.97300000E+3	7.75952330E+1	-6.98263000E+5	7.09753000E+5	5.07960000E+4	5.22430000E+4	5.05071584E+0	4.89845440E+0	1.03698015E+4	1.06651170E+4	1.03436823E+4
8.97350000E+3	7.75805740E+1	-6.99606000E+5	7.11094000E+5	5.14790000E+4	5.28660000E+4	5.04986368E+0	4.90032736E+0	1.05052165E+4	1.07883915E+4	1.04687974E+4
8.97400000E+3	7.75659338E+1	-7.00947000E+5	7.12433000E+5	5.13070000E+4	5.27370000E+4	5.04955296E+0	4.89960672E+0	1.04716568E+4	1.07635041E+4	1.04438948E+4
8.97450000E+3	7.75513124E+1	-7.02287000E+5	7.13769000E+5	5.16530000E+4	5.30910000E+4	5.05065088E+0	4.90399136E+0	1.05328489E+4	1.08260093E+4	1.05117145E+4
8.97500000E+3	7.75367097E+1	-7.03624000E+5	7.15104000E+5	5.16620000E+4	5.30670000E+4	5.05007456E+0	4.90248896E+0	1.05379126E+4	1.08243116E+4	1.05081617E+4
8.97550000E+3	7.75221255E+1	-7.04959000E+5	7.16436000E+5	5.16950000E+4	5.30820000E+4	5.05012096E+0	4.90479200E+0	1.05396926E+4	1.08224469E+4	1.05110354E+4
8.97600000E+3	7.75075600E+1	-7.06292000E+5	7.17767000E+5	5.16810000E+4	5.31410000E+4	5.04998464E+0	4.89559232E+0	1.05566388E+4	1.08550486E+4	1.05230023E+4
8.97650000E+3	7.74930129E+1	-7.07624000E+5	7.19095000E+5	5.16900000E+4	5.30900000E+4	5.04986656E+0	4.90395872E+0	1.05404639E+4	1.08258495E+4	1.05131491E+4
8.97700000E+3	7.74784842E+1	-7.08953000E+5	7.20422000E+5	5.16490000E+4	5.30280000E+4	5.05010496E+0	4.90383360E+0	1.05323721E+4	1.08135336E+4	1.05003758E+4
8.97750000E+3	7.74639739E+1	-7.10280000E+5	7.21747000E+5	5.11420000E+4	5.25520000E+4	5.05066144E+0	4.90269696E+0	1.04314014E+4	1.07189939E+4	1.04049738E+4
8.97800000E+3	7.74494819E+1	-7.11605000E+5	7.23069000E+5	5.12290000E+4	5.26210000E+4	5.04960800E+0	4.90420224E+0	1.04459395E+4	1.07297850E+4	1.04208089E+4
8.97850000E+3	7.74350081E+1	-7.12929000E+5	7.24390000E+5	5.06820000E+4	5.20180000E+4	5.05051296E+0	4.90617056E+0	1.03302564E+4	1.06025112E+4	1.02995479E+4
8.97900000E+3	7.74205525E+1	-7.14250000E+5	7.25708000E+5	5.07260000E+4	5.21120000E+4	5.05106112E+0	4.91426624E+0	1.03221921E+4	1.06043406E+4	1.03170401E+4
8.97950000E+3	7.74061150E+1	-7.15569000E+5	7.27025000E+5	5.04290000E+4	5.17790000E+4	5.05055776E+0	4.90857632E+0	1.02736510E+4	1.05485576E+4	1.02521350E+4
8.98000000E+3	7.73916955E+1	-7.16887000E+5	7.28340000E+5	5.03470000E+4	5.17280000E+4	5.05120288E+0	4.90571968E+0	1.02629182E+4	1.05443856E+4	1.02407290E+4
8.98050000E+3	7.73772940E+1	-7.18202000E+5	7.29652000E+5	4.99520000E+4	5.12890000E+4	5.04996288E+0	4.90687104E+0	1.01800108E+4	1.04524221E+4	1.01563123E+4
8.98100000E+3	7.73629105E+1	-7.19516000E+5	7.30963000E+5	4.98840000E+4	5.12450000E+4	5.05060704E+0	4.91503936E+0	1.01492575E+4	1.04263789E+4	1.01465031E+4
8.98150000E+3	7.73485447E+1	-7.20827000E+5	7.32272000E+5	4.99360000E+4	5.12740000E+4	5.04925824E+0	4.91565152E+0	1.01585720E+4	1.04309366E+4	1.01547589E+4
8.98200000E+3	7.73341968E+1	-7.22137000E+5	7.33579000E+5	4.95550000E+4	5.09030000E+4	5.04903456E+0	4.90307616E+0	1.01069203E+4	1.03819622E+4	1.00817294E+4
8.98250000E+3	7.73198666E+1	-7.23445000E+5	7.34884000E+5	4.95660000E+4	5.09280000E+4	5.04980736E+0	4.91550368E+0	1.00836055E+4	1.03608042E+4	1.00853352E+4
8.98300000E+3	7.73055540E+1	-7.24750000E+5	7.36187000E+5	4.94240000E+4	5.07760000E+4	5.05027424E+0	4.90841568E+0	1.00692368E+4	1.03448637E+4	1.00541075E+4
8.98350000E+3	7.72912591E+1	-7.26054000E+5	7.37488000E+5	4.89820000E+4	5.03680000E+4	5.04922176E+0	4.90154688E+0	9.99317179E+3	1.02758675E+4	9.97539866E+3
8.98400000E+3	7.72769817E+1	-7.27356000E+5	7.38787000E+5	4.90710000E+4	5.03980000E+4	5.05023424E+0	4.90752096E+0	9.99914221E+3	1.02695095E+4	9.97933910E+3
8.98450000E+3	7.72627218E+1	-7.28656000E+5	7.40085000E+5	4.96670000E+4	5.09980000E+4	5.05085536E+0	4.90682176E+0	1.01220306E+4	1.03933183E+4	1.00969037E+4
8.98500000E+3	7.72484794E+1	-7.29954000E+5	7.41380000E+5	4.90860000E+4	5.04820000E+4	5.05049600E+0	4.90748896E+0	1.00022640E+4	1.02865263E+4	9.99545391E+3
8.98550000E+3	7.72342543E+1	-7.31251000E+5	7.42674000E+5	4.93290000E+4	5.07660000E+4	5.05074464E+0	4.91295968E+0	1.00405872E+4	1.03327915E+4	1.00511912E+4
8.98600000E+3	7.72200465E+1	-7.32545000E+5	7.43966000E+5	4.89000000E+4	5.02640000E+4	5.04925984E+0	4.90209440E+0	9.97532810E+3	1.02536486E+4	9.95472635E+3
8.98650000E+3	7.72058559E+1	-7.33838000E+5	7.45255000E+5	4.88140000E+4	5.02350000E+4	5.05065984E+0	4.91307456E+0	9.93553006E+3	1.02244784E+4	9.94622516E+3
8.98700000E+3	7.71916826E+1	-7.35128000E+5	7.46543000E+5	4.81600000E+4	4.96440000E+4	5.05058272E+0	4.91079584E+0	9.80696440E+3	1.01088805E+4	9.82936084E+3
8.98750000E+3	7.71775264E+1	-7.36417000E+5	7.47830000E+5	4.88210000E+4	5.01980000E+4	5.04923168E+0	4.91410688E+0	9.93486735E+3	1.02150059E+4	9.94171058E+3
8.98800000E+3	7.71633873E+1	-7.37704000E+5	7.49114000E+5	4.84890000E+4	4.98640000E+4	5.05058880E+0	4.90945568E+0	9.87665500E+3	1.01565157E+4	9.87290828E+3
8.98850000E+3	7.71492652E+1	-7.38989000E+5	7.50396000E+5	4.86060000E+4	4.99960000E+4	5.05055616E+0	4.91423264E+0	9.89086264E+3	1.01736843E+4	9.89910782E+3
8.98900000E+3	7.71351600E+1	-7.40272000E+5	7.51677000E+5	4.89740000E+4	5.03790000E+4	5.05025024E+0	4.91723712E+0	9.95965800E+3	1.02452663E+4	9.97554529E+3
8.98950000E+3	7.71210718E+1	-7.41554000E+5	7.52956000E+5	4.86770000E+4	5.00150000E+4	5.04922432E+0	4.90839424E+0	9.91709256E+3	1.01895244E+4	9.90548188E+3
8.99000000E+3	7.71070004E+1	-7.42833000E+5	7.54232000E+5	4.84810000E+4	4.98320000E+4	5.05059040E+0	4.91850720E+0	9.85685250E+3	1.01314602E+4	9.86656926E+3
8.99050000E+3	7.70929459E+1	-7.44111000E+5	7.55507000E+5	4.82130000E+4	4.95830000E+4	5.04982656E+0	4.92041728E+0	9.79855920E+3	1.00766840E+4	9.81875306E+3
8.99100000E+3	7.70789080E+1	-7.45387000E+5	7.56781000E+5	4.79440000E+4	4.93190000E+4	5.05013664E+0	4.90611872E+0	9.77228696E+3	1.00524351E+4	9.76587437E+3
8.99150000E+3	7.70648869E+1	-7.46661000E+5	7.58052000E+5	4.85310000E+4	4.98420000E+4	5.04990016E+0	4.90830048E+0	9.88753647E+3	1.01547728E+4	9.87009612E+3
8.99200000E+3	7.70508824E+1	-7.47933000E+5	7.59322000E+5	4.80600000E+4	4.94070000E+4	5.05091424E+0	4.91166464E+0	9.78487000E+3	1.00588932E+4	9.78179348E+3
8.99250000E+3	7.70368944E+1	-7.49204000E+5	7.60590000E+5	4.82500000E+4	4.95930000E+4	5.05008512E+0	4.90994144E+0	9.82700111E+3	1.01002412E+4	9.82023052E+3
8.99300000E+3	7.70229230E+1	-7.50473000E+5	7.61856000E+5	4.79200000E+4	4.92590000E+4	5.04920256E+0	4.91078240E+0	9.75811920E+3	1.00308041E+4	9.75579795E+3
8.99350000E+3	7.70089681E+1	-7.51740000E+5	7.63120000E+5	4.79480000E+4	4.93250000E+4	5.04986400E+0	4.91001280E+0	9.76535132E+3	1.00458277E+4	9.76758978E+3
8.99400000E+3	7.69950295E+1	-7.53005000E+5	7.64382000E+5	4.76780000E+4	4.90450000E+4	5.04988480E+0	4.90919008E+0	9.71198899E+3	9.99035628E+3	9.71210274E+3
8.99450000E+3	7.69811073E+1	-7.54268000E+5	7.65643000E+5	4.76640000E+4	4.90800000E+4	5.05011328E+0	4.91789184E+0	9.69195776E+3	9.97990210E+3	9.71859388E+3
8.99500000E+3	7.69672015E+1	-7.55530000E+5	7.66902000E+5	4.78880000E+4	4.92320000E+4	5.05041984E+0	4.91331200E+0	9.74658235E+3	1.00204211E+4	9.74829847E+3
8.99550000E+3	7.69533119E+1	-7.56789000E+5	7.68159000E+5	4.74150000E+4	4.87650000E+4	5.04987840E+0	4.90487616E+0	9.66691073E+3	9.94210690E+3	9.65666817E+3
8.99600000E+3	7.69394385E+1	-7.58047000E+5	7.69414000E+5	4.77600000E+4	4.90450000E+4	5.05120864E+0	4.91198304E+0	9.72316061E+3	9.98491467E+3	9.70955735E+3
8.99650000E+3	7.69255812E+1	-7.59304000E+5	7.70668000E+5	4.73780000E+4	4.87390000E+4	5.05009696E+0	4.90930720E+0	9.65064887E+3	9.92783995E+3	9.65110183E+3
8.99700000E+3	7.69117400E+1	-7.60558000E+5	7.71920000E+5	4.74470000E+4	4.87640000E+4	5.04918112E+0	4.92166144E+0	9.64044370E+3	9.90798365E+3	9.65780368E+3
8.99750000E+3	7.68979149E+1	-7.61811000E+5	7.73170000E+5	4.69420000E+4	4.82940000E+4	5.05065920E+0	4.91318464E+0	9.55429186E+3	9.82945977E+3	9.56192015E+3
8.99800000E+3	7.68841058E+1	-7.63062000E+5	7.74418000E+5	4.65780000E+4	4.79340000E+4	5.05011296E+0	4.91381344E+0	9.47899235E+3	9.75511518E+3	9.49166888E+3
8.99850000E+3	7.68703126E+1	-7.64311000E+5	7.75665000E+5	4.65950000E+4	4.79310000E+4	5.05066656E+0	4.91637376E+0	9.47751377E+3	9.74923650E+3	9.49003452E+3
8.99900000E+3	7.68565354E+1	-7.65559000E+5	7.76910000E+5	4.67630000E+4	4.81240000E+4	5.05066624E+0	4.91031712E+0	9.52341750E+3	9.80037191E+3	9.52824790E+3
8.99950000E+3	7.68427739E+1	-7.66805000E+5	7.78153000E+5	4.73570000E+4	4.86590000E+4	5.04962304E+0	4.91522432E+0	9.63475864E+3	9.89947212E+3	9.63616484E+3
9.00000000E+3	7.68290283E+1	-7.68049000E+5	7.79394000E+5	4.73350000E+4	4.86220000E+4	5.05060704E+0	4.91005184E+0	9.64042775E+3	9.90262578E+3	9.62715959E+3
9.00050000E+3	7.68152984E+1	-7.69291000E+5	7.80634000E+5	4.74930000E+4	4.88460000E+4	5.04989280E+0	4.91435488E+0	9.66413724E+3	9.93920662E+3	9.67268058E+3
9.00100000E+3	7.68015842E+1	-7.70532000E+5	7.81872000E+5	4.67910000E+4	4.81510000E+4	5.05048832E+0	4.90774784E+0	9.53410842E+3	9.81141844E+3	9.53392958E+3
9.00150000E+3	7.67878856E+1	-7.71771000E+5	7.83108000E+5	4.70090000E+4	4.83200000E+4	5.04994336E+0	4.91026336E+0	9.57362091E+3	9.84072725E+3	9.56842415E+3
9.00200000E+3	7.67742026E+1	-7.73008000E+5	7.84343000E+5	4.65100000E+4	4.78140000E+4	5.04935904E+0	4.91001984E+0	9.47246682E+3	9.73803671E+3	9.46932068E+3
9.00250000E+3	7.67605352E+1	-7.74244000E+5	7.85576000E+5	4.67420000E+4	4.80770000E+4	5.04914208E+0	4.91855104E+0	9.50320524E+3	9.77442697E+3	9.52181563E+3
9.00300000E+3	7.67468833E+1	-7.75478000E+5	7.86807000E+5	4.68720000E+4	4.81890000E+4	5.04948608E+0	4.90552192E+0	9.55494660E+3	9.82356577E+3	9.54334743E+3
9.00350000E+3	7.67332468E+1	-7.76710000E+5	7.88036000E+5	4.68460000E+4	4.81960000E+4	5.05060384E+0	4.90938464E+0	9.54213276E+3	9.81726442E+3	9.54262134E+3
9.00400000E+3	7.67196257E+1	-7.77940000E+5	7.89264000E+5	4.64660000E+4	4.78040000E+4	5.05070816E+0	4.91047840E+0	9.46262181E+3	9.73514189E+3	9.46481137E+3
9.00450000E+3	7.67060200E+1	-7.79169000E+5	7.90490000E+5	4.63610000E+4	4.76590000E+4	5.04961536E+0	4.91040096E+0	9.44138786E+3	9.70591828E+3	9.43814461E+3
9.00500000E+3	7.66924295E+1	-7.80396000E+5	7.91715000E+5	4.64410000E+4	4.77790000E+4	5.05041216E+0	4.91195872E+0	9.45468043E+3	9.72713042E+3	9.46041600E+3
9.00550000E+3	7.66788544E+1	-7.81622000E+5	7.92938000E+5	4.68440000E+4	4.81450000E+4	5.05100768E+0	4.91747968E+0	9.52601801E+3	9.79035757E+3	9.53176139E+3
9.00600000E+3	7.66652944E+1	-7.82846000E+5	7.94159000E+5	4.66140000E+4	4.79410000E+4	5.05106464E+0	4.91246752E+0	9.48891770E+3	9.75887330E+3	9.49126638E+3
9.00650000E+3	7.66517496E+1	-7.84068000E+5	7.95378000E+5	4.64020000E+4	4.77420000E+4	5.05019552E+0	4.91713536E+0	9.43679533E+3	9.70907184E+3	9.45349538E+3
9.00700000E+3	7.66382199E+1	-7.85288000E+5	7.96596000E+5	4.64380000E+4	4.77670000E+4	5.05034528E+0	4.90984544E+0	9.45813887E+3	9.72873359E+3	9.45816520E+3
9.00750000E+3	7.66247053E+1	-7.86507000E+5	7.97812000E+5	4.61980000E+4	4.75300000E+4	5.05043936E+0	4.91195264E+0	9.40522098E+3	9.67612595E+3	9.41106241E+3
9.00800000E+3	7.66112057E+1	-7.87724000E+5	7.99027000E+5	4.62730000E+4	4.75250000E+4	5.04923424E+0	4.91897728E+0	9.40703674E+3	9.66172685E+3	9.41231833E+3
9.00850000E+3	7.65977211E+1	-7.88940000E+5	8.00240000E+5	4.61110000E+4	4.73640000E+4	5.05006624E+0	4.91645536E+0	9.37891156E+3	9.63375600E+3	9.37888688E+3
9.00900000E+3	7.65842514E+1	-7.90154000E+5	8.01451000E+5	4.63120000E+4	4.76150000E+4	5.05054368E+0	4.91805440E+0	9.41673195E+3	9.68176804E+3	9.42769789E+3
9.00950000E+3	7.65707966E+1	-7.91366000E+5	8.02661000E+5	4.61020000E+4	4.73050000E+4	5.04951520E+0	4.91242432E+0	9.38477562E+3	9.62944853E+3	9.36822608E+3
9.01000000E+3	7.65573566E+1	-7.92577000E+5	8.03869000E+5	4.64860000E+4	4.78350000E+4	5.05016928E+0	4.91857120E+0	9.45111865E+3	9.72535250E+3	9.47195972E+3
9.01050000E+3	7.65439315E+1	-7.93786000E+5	8.05075000E+5	4.61170000E+4	4.74370000E+4	5.05075232E+0	4.91525024E+0	9.38243177E+3	9.65106475E+3	9.39206617E+3
9.01100000E+3	7.65305210E+1	-7.94994000E+5	8.06280000E+5	4.62400000E+4	4.75150000E+4	5.04884992E+0	4.91607840E+0	9.40587115E+3	9.66517072E+3	9.41105415E+3
9.01150000E+3	7.65171253E+1	-7.96200000E+5	8.07483000E+5	4.61130000E+4	4.74250000E+4	5.04956448E+0	4.91668224E+0	9.37888555E+3	9.64572157E+3	9.39189908E+3
9.01200000E+3	7.65037443E+1	-7.97404000E+5	8.08685000E+5	4.61740000E+4	4.74930000E+4	5.05056416E+0	4.91080288E+0	9.40253582E+3	9.67090099E+3	9.40350394E+3
9.01250000E+3	7.64903779E+1	-7.98607000E+5	8.09885000E+5	4.59240000E+4	4.72330000E+4	5.05052480E+0	4.91744256E+0	9.33900080E+3	9.60494299E+3	9.35209743E+3
9.01300000E+3	7.64770260E+1	-7.99808000E+5	8.11084000E+5	4.61670000E+4	4.74500000E+4	5.05020864E+0	4.91921600E+0	9.38503209E+3	9.64598077E+3	9.39565142E+3
9.01350000E+3	7.64636887E+1	-8.01007000E+5	8.12280000E+5	4.56860000E+4	4.70260000E+4	5.05040960E+0	4.91452256E+0	9.29612174E+3	9.56871649E+3	9.31132398E+3
9.01400000E+3	7.64503658E+1	-8.02205000E+5	8.13476000E+5	4.58570000E+4	4.71150000E+4	5.04946304E+0	4.91485888E+0	9.33027806E+3	9.58632677E+3	9.33069509E+3
9.01450000E+3	7.64370574E+1	-8.03401000E+5	8.14669000E+5	4.54950000E+4	4.67380000E+4	5.04960256E+0	4.91450400E+0	9.25729229E+3	9.51029305E+3	9.25577794E+3
9.01500000E+3	7.64237634E+1	-8.04596000E+5	8.15861000E+5	4.60000000E+4	4.72930000E+4	5.04946080E+0	4.92012544E+0	9.34935513E+3	9.61215188E+3	9.36595052E+3
9.01550000E+3	7.64104838E+1	-8.05789000E+5	8.17052000E+5	4.57270000E+4	4.70100000E+4	5.04998880E+0	4.91185120E+0	9.30952469E+3	9.57071671E+3	9.30893154E+3
9.01600000E+3	7.63972184E+1	-8.06981000E+5	8.18241000E+5	4.61530000E+4	4.73940000E+4	5.04967296E+0	4.91174848E+0	9.39645020E+3	9.64894225E+3	9.38555831E+3
9.01650000E+3	7.63839674E+1	-8.08171000E+5	8.19428000E+5	4.58270000E+4	4.71240000E+4	5.05055264E+0	4.92063872E+0	9.31322184E+3	9.57691966E+3	9.33046408E+3
9.01700000E+3	7.63707305E+1	-8.09360000E+5	8.20614000E+5	4.55040000E+4	4.67730000E+4	5.04976960E+0	4.92087584E+0	9.24713435E+3	9.50479792E+3	9.26240278E+3
9.01750000E+3	7.63575079E+1	-8.10547000E+5	8.21798000E+5	4.56450000E+4	4.69500000E+4	5.04967520E+0	4.91921152E+0	9.27892607E+3	9.54415023E+3	9.29762770E+3
9.01800000E+3	7.63442994E+1	-8.11732000E+5	8.22981000E+5	4.55730000E+4	4.68690000E+4	5.05101856E+0	4.91374816E+0	9.27459009E+3	9.53815452E+3	9.27911855E+3
9.01850000E+3	7.63311050E+1	-8.12916000E+5	8.24162000E+5	4.52950000E+4	4.65300000E+4	5.05059648E+0	4.92011360E+0	9.20608825E+3	9.45685407E+3	9.21277322E+3
9.01900000E+3	7.63179247E+1	-8.14098000E+5	8.25342000E+5	4.55320000E+4	4.68600000E+4	5.05061152E+0	4.91614816E+0	9.26172249E+3	9.53172240E+3	9.27808441E+3
9.01950000E+3	7.63047584E+1	-8.15279000E+5	8.26520000E+5	4.53620000E+4	4.66700000E+4	5.05055200E+0	4.91398528E+0	9.23120388E+3	9.49720420E+3	9.24057410E+3
9.02000000E+3	7.62916060E+1	-8.16458000E+5	8.27697000E+5	4.51500000E+4	4.64210000E+4	5.05019968E+0	4.92207392E+0	9.17296260E+3	9.43091894E+3	9.19191377E+3
9.02050000E+3	7.62784677E+1	-8.17636000E+5	8.28872000E+5	4.54110000E+4	4.66950000E+4	5.05016096E+0	4.91896224E+0	9.23182529E+3	9.49282946E+3	9.24623995E+3
9.02100000E+3	7.62653432E+1	-8.18812000E+5	8.30045000E+5	4.50100000E+4	4.63340000E+4	5.05046880E+0	4.91408992E+0	9.15937655E+3	9.42891969E+3	9.17419785E+3
9.02150000E+3	7.62522325E+1	-8.19987000E+5	8.31217000E+5	4.50890000E+4	4.63740000E+4	5.05021984E+0	4.91011904E+0	9.18287309E+3	9.44434701E+3	9.18257056E+3
9.02200000E+3	7.62391357E+1	-8.21160000E+5	8.32388000E+5	4.45470000E+4	4.58920000E+4	5.05047008E+0	4.92203200E+0	9.05053035E+3	9.32372665E+3	9.08667892E+3
9.02250000E+3	7.62260527E+1	-8.22332000E+5	8.33557000E+5	4.47110000E+4	4.60450000E+4	5.05121280E+0	4.91744352E+0	9.09232609E+3	9.36339816E+3	9.11563259E+3
9.02300000E+3	7.62129834E+1	-8.23502000E+5	8.34724000E+5	4.44430000E+4	4.57290000E+4	5.05087424E+0	4.92261504E+0	9.02833141E+3	9.28976919E+3	9.05368018E+3
9.02350000E+3	7.61999278E+1	-8.24671000E+5	8.35890000E+5	4.45810000E+4	4.59100000E+4	5.04980736E+0	4.91691328E+0	9.06686725E+3	9.33712198E+3	9.09143592E+3
9.02400000E+3	7.61868859E+1	-8.25838000E+5	8.37055000E+5	4.46200000E+4	4.58920000E+4	5.05014720E+0	4.92751232E+0	9.05527924E+3	9.31329579E+3	9.08725987E+3
9.02450000E+3	7.61738576E+1	-8.27003000E+5	8.38218000E+5	4.45710000E+4	4.58750000E+4	5.05015520E+0	4.91749344E+0	9.06376400E+3	9.32893355E+3	9.08387924E+3
9.02500000E+3	7.61608428E+1	-8.28168000E+5	8.39379000E+5	4.47950000E+4	4.60930000E+4	5.04930272E+0	4.91951200E+0	9.10557795E+3	9.36928454E+3	9.12858716E+3
9.02550000E+3	7.61478417E+1	-8.29330000E+5	8.40540000E+5	4.48710000E+4	4.61000000E+4	5.05054208E+0	4.92265760E+0	9.11519826E+3	9.36489755E+3	9.12773308E+3
9.02600000E+3	7.61348540E+1	-8.30491000E+5	8.41698000E+5	4.41780000E+4	4.54570000E+4	5.05047328E+0	4.92264480E+0	8.97444398E+3	9.23412306E+3	9.00054262E+3
9.02650000E+3	7.61218798E+1	-8.31651000E+5	8.42855000E+5	4.44730000E+4	4.57480000E+4	5.04920224E+0	4.92827104E+0	9.02405725E+3	9.28294392E+3	9.06044120E+3
9.02700000E+3	7.61089190E+1	-8.32809000E+5	8.44011000E+5	4.41520000E+4	4.54570000E+4	5.05051008E+0	4.91587520E+0	8.98151361E+3	9.24683405E+3	9.00047704E+3
9.02750000E+3	7.60959716E+1	-8.33966000E+5	8.45165000E+5	4.41380000E+4	4.54460000E+4	5.05002592E+0	4.91619040E+0	8.97809003E+3	9.24400639E+3	8.99916173E+3
9.02800000E+3	7.60830375E+1	-8.35122000E+5	8.46318000E+5	4.37540000E+4	4.49830000E+4	5.04968128E+0	4.92089184E+0	8.89147769E+3	9.14137311E+3	8.90808697E+3
9.02850000E+3	7.60701168E+1	-8.36275000E+5	8.47469000E+5	4.44230000E+4	4.56920000E+4	5.05035648E+0	4.92565504E+0	9.01869896E+3	9.27641435E+3	9.04728214E+3
9.02900000E+3	7.60572094E+1	-8.37428000E+5	8.48619000E+5	4.41530000E+4	4.53700000E+4	5.05073472E+0	4.91812608E+0	8.97760637E+3	9.22492527E+3	8.98285151E+3
9.02950000E+3	7.60443152E+1	-8.38579000E+5	8.49767000E+5	4.40200000E+4	4.53240000E+4	5.04918336E+0	4.92516288E+0	8.93777548E+3	9.20232617E+3	8.97650110E+3
9.03000000E+3	7.60314341E+1	-8.39728000E+5	8.50914000E+5	4.46760000E+4	4.59110000E+4	5.05101088E+0	4.92290368E+0	9.07513185E+3	9.32592621E+3	9.08946765E+3
9.03050000E+3	7.60185663E+1	-8.40876000E+5	8.52059000E+5	4.41580000E+4	4.53900000E+4	5.04923424E+0	4.92462048E+0	8.96678235E+3	9.21696809E+3	8.98948194E+3
9.03100000E+3	7.60057116E+1	-8.42023000E+5	8.53203000E+5	4.40570000E+4	4.52860000E+4	5.05058912E+0	4.91696960E+0	8.96019369E+3	9.20999181E+3	8.96647875E+3
9.03150000E+3	7.59928700E+1	-8.43168000E+5	8.54346000E+5	4.41660000E+4	4.54120000E+4	5.04948960E+0	4.91923648E+0	8.97822257E+3	9.23159147E+3	8.99338420E+3
9.03200000E+3	7.59800414E+1	-8.44312000E+5	8.55487000E+5	4.47710000E+4	4.60190000E+4	5.04962368E+0	4.91693056E+0	9.10547738E+3	9.35930872E+3	9.11335238E+3
9.03250000E+3	7.59672258E+1	-8.45454000E+5	8.56626000E+5	4.39660000E+4	4.52090000E+4	5.04977088E+0	4.92558400E+0	8.92604816E+3	9.17818415E+3	8.95268341E+3
9.03300000E+3	7.59544233E+1	-8.46595000E+5	8.57765000E+5	4.37940000E+4	4.49760000E+4	5.05003104E+0	4.92061664E+0	8.90010403E+3	9.14027199E+3	8.90608387E+3
9.03350000E+3	7.59416337E+1	-8.47735000E+5	8.58901000E+5	4.43810000E+4	4.56550000E+4	5.05073664E+0	4.91696192E+0	9.02610204E+3	9.28492295E+3	9.03927551E+3
9.03400000E+3	7.59288569E+1	-8.48873000E+5	8.60037000E+5	4.44500000E+4	4.57790000E+4	5.04923136E+0	4.91548000E+0	9.04286051E+3	9.31317420E+3	9.06652849E+3
9.03450000E+3	7.59160931E+1	-8.50009000E+5	8.61171000E+5	4.42930000E+4	4.55410000E+4	5.05001024E+0	4.91688480E+0	9.00834610E+3	9.26207649E+3	9.01800152E+3
9.03500000E+3	7.59033421E+1	-8.51144000E+5	8.62303000E+5	4.42270000E+4	4.55570000E+4	5.05075008E+0	4.92191680E+0	8.98572686E+3	9.25607801E+3	9.01984839E+3
9.03550000E+3	7.58906039E+1	-8.52278000E+5	8.63434000E+5	4.36160000E+4	4.48430000E+4	5.05005120E+0	4.91142816E+0	8.88051267E+3	9.13027999E+3	8.87971195E+3
9.03600000E+3	7.58778785E+1	-8.53411000E+5	8.64564000E+5	4.39130000E+4	4.52220000E+4	5.04935008E+0	4.91691744E+0	8.93100210E+3	9.19736698E+3	8.95600410E+3
9.03650000E+3	7.58651658E+1	-8.54542000E+5	8.65693000E+5	4.37440000E+4	4.49720000E+4	5.05069376E+0	4.91251296E+0	8.90460755E+3	9.15461289E+3	8.90412330E+3
9.03700000E+3	7.58524659E+1	-8.55671000E+5	8.66820000E+5	4.34250000E+4	4.46000000E+4	5.05036192E+0	4.91829088E+0	8.82928665E+3	9.06799955E+3	8.83105027E+3
9.03750000E+3	7.58397785E+1	-8.56799000E+5	8.67945000E+5	4.34650000E+4	4.46510000E+4	5.05072384E+0	4.91792416E+0	8.83807854E+3	9.07905277E+3	8.84051503E+3
9.03800000E+3	7.58271039E+1	-8.57926000E+5	8.69069000E+5	4.44730000E+4	4.57320000E+4	5.04939232E+0	4.92297376E+0	9.03376743E+3	9.28964212E+3	9.05693143E+3
9.03850000E+3	7.58144418E+1	-8.59052000E+5	8.70192000E+5	4.41040000E+4	4.53320000E+4	5.05039680E+0	4.91794944E+0	8.96796532E+3	9.21760581E+3	8.97592839E+3
9.03900000E+3	7.58017922E+1	-8.60176000E+5	8.71314000E+5	4.37980000E+4	4.50220000E+4	5.04987616E+0	4.91486240E+0	8.91133799E+3	9.16011225E+3	8.91546616E+3
9.03950000E+3	7.57891552E+1	-8.61298000E+5	8.72434000E+5	4.38690000E+4	4.50990000E+4	5.05051232E+0	4.91714080E+0	8.92164813E+3	9.17174182E+3	8.92958915E+3
9.04000000E+3	7.57765307E+1	-8.62420000E+5	8.73552000E+5	4.33470000E+4	4.45340000E+4	5.05074176E+0	4.91520992E+0	8.81895193E+3	9.06029851E+3	8.81731875E+3
9.04050000E+3	7.57639187E+1	-8.63540000E+5	8.74670000E+5	4.33090000E+4	4.45880000E+4	5.05055776E+0	4.92359424E+0	8.79621632E+3	9.05595234E+3	8.82833186E+3
9.04100000E+3	7.57513191E+1	-8.64658000E+5	8.75785000E+5	4.32690000E+4	4.44910000E+4	5.05092096E+0	4.92390880E+0	8.78753075E+3	9.03584073E+3	8.80849262E+3
9.04150000E+3	7.57387319E+1	-8.65775000E+5	8.76900000E+5	4.33030000E+4	4.45200000E+4	5.05031552E+0	4.92368128E+0	8.79484222E+3	9.04198303E+3	8.81529081E+3
9.04200000E+3	7.57261570E+1	-8.66891000E+5	8.78013000E+5	4.35720000E+4	4.48750000E+4	5.04895808E+0	4.91422624E+0	8.86650265E+3	9.13147681E+3	8.88797239E+3
9.04250000E+3	7.57135945E+1	-8.68006000E+5	8.79125000E+5	4.33970000E+4	4.46650000E+4	5.05095296E+0	4.92496800E+0	8.81163086E+3	9.06901434E+3	8.84288576E+3
9.04300000E+3	7.57010442E+1	-8.69119000E+5	8.80236000E+5	4.30480000E+4	4.42510000E+4	5.05049984E+0	4.92403232E+0	8.74242840E+3	8.98672730E+3	8.76170704E+3
9.04350000E+3	7.56885062E+1	-8.70231000E+5	8.81345000E+5	4.32690000E+4	4.45560000E+4	5.05018016E+0	4.92455200E+0	8.78638300E+3	9.04780369E+3	8.82265555E+3
9.04400000E+3	7.56759805E+1	-8.71341000E+5	8.82452000E+5	4.32160000E+4	4.44040000E+4	5.05061760E+0	4.91716672E+0	8.78880104E+3	9.03020934E+3	8.79179608E+3
9.04450000E+3	7.56634669E+1	-8.72450000E+5	8.83559000E+5	4.32510000E+4	4.45270000E+4	5.04924736E+0	4.92251936E+0	8.78635447E+3	9.04551454E+3	8.81854202E+3
9.04500000E+3	7.56509656E+1	-8.73558000E+5	8.84664000E+5	4.34440000E+4	4.47370000E+4	5.05056064E+0	4.91964960E+0	8.83071022E+3	9.09345134E+3	8.85782850E+3
9.04550000E+3	7.56384763E+1	-8.74664000E+5	8.85768000E+5	4.32130000E+4	4.44660000E+4	5.05057440E+0	4.92050912E+0	8.78222130E+3	9.03663429E+3	8.80414711E+3
9.04600000E+3	7.56259991E+1	-8.75769000E+5	8.86870000E+5	4.35180000E+4	4.47940000E+4	5.05086688E+0	4.92148480E+0	8.84245340E+3	9.10183192E+3	8.86857664E+3
9.04650000E+3	7.56135341E+1	-8.76873000E+5	8.87971000E+5	4.29570000E+4	4.42520000E+4	5.05056768E+0	4.92278880E+0	8.72615132E+3	8.98924959E+3	8.76178735E+3
9.04700000E+3	7.56010810E+1	-8.77976000E+5	8.89071000E+5	4.30760000E+4	4.44190000E+4	5.04962592E+0	4.92805440E+0	8.74097494E+3	9.01336083E+3	8.79649319E+3
9.04750000E+3	7.55886400E+1	-8.79077000E+5	8.90170000E+5	4.32430000E+4	4.44420000E+4	5.05089056E+0	4.92740224E+0	8.77602394E+3	9.01964706E+3	8.79904236E+3
9.04800000E+3	7.55762109E+1	-8.80177000E+5	8.91267000E+5	4.30800000E+4	4.42610000E+4	5.04930624E+0	4.92531968E+0	8.74664038E+3	8.98630766E+3	8.76575868E+3
9.04850000E+3	7.55637938E+1	-8.81275000E+5	8.92363000E+5	4.34920000E+4	4.47000000E+4	5.05096096E+0	4.93000320E+0	8.82190097E+3	9.06690388E+3	8.84980113E+3
9.04900000E+3	7.55513885E+1	-8.82372000E+5	8.93457000E+5	4.31220000E+4	4.43540000E+4	5.05084128E+0	4.92102720E+0	8.76280464E+3	9.01311149E+3	8.78150738E+3
9.04950000E+3	7.55389952E+1	-8.83468000E+5	8.94550000E+5	4.26080000E+4	4.38480000E+4	5.05022336E+0	4.92152288E+0	8.65748286E+3	8.90941164E+3	8.68238826E+3
9.05000000E+3	7.55266137E+1	-8.84563000E+5	8.95642000E+5	4.31100000E+4	4.43710000E+4	5.05025504E+0	4.92606464E+0	8.75140770E+3	9.00738985E+3	8.78589292E+3
9.05050000E+3	7.55142440E+1	-8.85656000E+5	8.96733000E+5	4.28320000E+4	4.40610000E+4	5.05090624E+0	4.91464128E+0	8.71518338E+3	8.96518321E+3	8.72338505E+3
9.05100000E+3	7.55018862E+1	-8.86748000E+5	8.97822000E+5	4.27420000E+4	4.39350000E+4	5.05045728E+0	4.92087744E+0	8.68584933E+3	8.92847730E+3	8.69921228E+3
9.05150000E+3	7.54895400E+1	-8.87838000E+5	8.98910000E+5	4.26690000E+4	4.39310000E+4	5.05019264E+0	4.92341984E+0	8.66653696E+3	8.92289375E+3	8.69907410E+3
9.05200000E+3	7.54772056E+1	-8.88928000E+5	8.99997000E+5	4.26220000E+4	4.38380000E+4	5.04953600E+0	4.92005568E+0	8.66291009E+3	8.90987918E+3	8.68158975E+3
9.05250000E+3	7.54648829E+1	-8.90016000E+5	9.01082000E+5	4.21870000E+4	4.34520000E+4	5.04997728E+0	4.93289824E+0	8.55217317E+3	8.80851440E+3	8.60439515E+3
9.05300000E+3	7.54525719E+1	-8.91103000E+5	9.02166000E+5	4.24460000E+4	4.36820000E+4	5.04991712E+0	4.92246464E+0	8.62291618E+3	8.87400704E+3	8.65004295E+3
9.05350000E+3	7.54402725E+1	-8.92188000E+5	9.03249000E+5	4.26060000E+4	4.37800000E+4	5.04941600E+0	4.91891040E+0	8.66167434E+3	8.90039773E+3	8.67030960E+3
9.05400000E+3	7.54279847E+1	-8.93272000E+5	9.04331000E+5	4.26100000E+4	4.38340000E+4	5.05022496E+0	4.92611552E+0	8.64981745E+3	8.89825355E+3	8.67961335E+3
9.05450000E+3	7.54157084E+1	-8.94355000E+5	9.05411000E+5	4.21340000E+4	4.33330000E+4	5.05091040E+0	4.92341664E+0	8.55787821E+3	8.80124607E+3	8.57924544E+3
9.05500000E+3	7.54034438E+1	-8.95437000E+5	9.06490000E+5	4.27990000E+4	4.39780000E+4	5.05041024E+0	4.92438624E+0	8.69123540E+3	8.93079142E+3	8.70780747E+3
9.05550000E+3	7.53911906E+1	-8.96517000E+5	9.07568000E+5	4.26250000E+4	4.37950000E+4	5.04948480E+0	4.92114080E+0	8.66160952E+3	8.89926464E+3	8.67316206E+3
9.05600000E+3	7.53789489E+1	-8.97596000E+5	9.08644000E+5	4.19580000E+4	4.31560000E+4	5.05003168E+0	4.92057056E+0	8.52705992E+3	8.77053101E+3	8.54568896E+3
9.05650000E+3	7.53667187E+1	-8.98674000E+5	9.09720000E+5	4.29140000E+4	4.40850000E+4	5.05045152E+0	4.91951840E+0	8.72321161E+3	8.96122368E+3	8.72892252E+3
9.05700000E+3	7.53544999E+1	-8.99751000E+5	9.10794000E+5	4.24170000E+4	4.35910000E+4	5.04958816E+0	4.91984640E+0	8.62161063E+3	8.86028254E+3	8.63258520E+3
9.05750000E+3	7.53422925E+1	-9.00826000E+5	9.11866000E+5	4.22730000E+4	4.34760000E+4	5.05045792E+0	4.92340160E+0	8.58613687E+3	8.83060001E+3	8.60832833E+3
9.05800000E+3	7.53300965E+1	-9.01900000E+5	9.12938000E+5	4.22000000E+4	4.33490000E+4	5.05038048E+0	4.92416736E+0	8.56997679E+3	8.80329379E+3	8.58331371E+3
9.05850000E+3	7.53179119E+1	-9.02973000E+5	9.14008000E+5	4.20670000E+4	4.32950000E+4	5.05011104E+0	4.92637856E+0	8.53913265E+3	8.78825748E+3	8.57307882E+3
9.05900000E+3	7.53057385E+1	-9.04044000E+5	9.15077000E+5	4.22780000E+4	4.34040000E+4	5.05073024E+0	4.91871616E+0	8.59533232E+3	8.82422414E+3	8.59360883E+3
9.05950000E+3	7.52935764E+1	-9.05115000E+5	9.16145000E+5	4.16880000E+4	4.29380000E+4	5.05080000E+0	4.92198816E+0	8.46974813E+3	8.72353244E+3	8.50122753E+3
9.06000000E+3	7.52814256E+1	-9.06184000E+5	9.17211000E+5	4.19300000E+4	4.31070000E+4	5.04989248E+0	4.91927648E+0	8.52361118E+3	8.76260256E+3	8.53622135E+3
9.06050000E+3	7.52692860E+1	-9.07252000E+5	9.18276000E+5	4.16610000E+4	4.29400000E+4	5.05035712E+0	4.91890432E+0	8.46956909E+3	8.72957525E+3	8.50236904E+3
9.06100000E+3	7.52571576E+1	-9.08318000E+5	9.19340000E+5	4.16990000E+4	4.28770000E+4	5.05000224E+0	4.92393184E+0	8.46863875E+3	8.70777604E+3	8.49049128E+3
9.06150000E+3	7.52450404E+1	-9.09384000E+5	9.20403000E+5	4.16190000E+4	4.27740000E+4	5.05065056E+0	4.92215328E+0	8.45544574E+3	8.69024578E+3	8.46900800E+3
9.06200000E+3	7.52329344E+1	-9.10448000E+5	9.21464000E+5	4.18530000E+4	4.31070000E+4	5.05051456E+0	4.92842784E+0	8.49216045E+3	8.74633833E+3	8.53516993E+3
9.06250000E+3	7.52208394E+1	-9.11511000E+5	9.22525000E+5	4.20600000E+4	4.32320000E+4	5.05047328E+0	4.92332992E+0	8.54299848E+3	8.78091356E+3	8.55998985E+3
9.06300000E+3	7.52087556E+1	-9.12572000E+5	9.23584000E+5	4.19550000E+4	4.31850000E+4	5.05006592E+0	4.93071136E+0	8.50891422E+3	8.75863514E+3	8.55157154E+3
9.06350000E+3	7.51966828E+1	-9.13633000E+5	9.24642000E+5	4.16990000E+4	4.29360000E+4	5.04932192E+0	4.92203776E+0	8.47189762E+3	8.72326976E+3	8.50331999E+3
9.06400000E+3	7.51846210E+1	-9.14692000E+5	9.25698000E+5	4.18090000E+4	4.30140000E+4	5.05079936E+0	4.92616512E+0	8.48712923E+3	8.73155079E+3	8.51627573E+3
9.06450000E+3	7.51725702E+1	-9.15750000E+5	9.26754000E+5	4.17330000E+4	4.29310000E+4	5.04941440E+0	4.92139872E+0	8.47990630E+3	8.72323831E+3	8.50217403E+3
9.06500000E+3	7.51605305E+1	-9.16807000E+5	9.27808000E+5	4.15850000E+4	4.27960000E+4	5.04948096E+0	4.91835168E+0	8.45506843E+3	8.70123206E+3	8.47532654E+3
9.06550000E+3	7.51485016E+1	-9.17862000E+5	9.28861000E+5	4.15430000E+4	4.27730000E+4	5.04965120E+0	4.92203968E+0	8.44020014E+3	8.69017459E+3	8.47048604E+3
9.06600000E+3	7.51364837E+1	-9.18917000E+5	9.29912000E+5	4.10310000E+4	4.22320000E+4	5.05087264E+0	4.92848672E+0	8.32527352E+3	8.56912846E+3	8.36132744E+3
9.06650000E+3	7.51244767E+1	-9.19970000E+5	9.30963000E+5	4.14240000E+4	4.26020000E+4	5.05057632E+0	4.91691040E+0	8.42480270E+3	8.66412813E+3	8.43507697E+3
9.06700000E+3	7.51124806E+1	-9.21022000E+5	9.32012000E+5	4.15180000E+4	4.27640000E+4	5.04999168E+0	4.92620128E+0	8.42799505E+3	8.68097509E+3	8.46833078E+3
9.06750000E+3	7.51004953E+1	-9.22073000E+5	9.33060000E+5	4.14180000E+4	4.26020000E+4	5.05059616E+0	4.93212704E+0	8.39759391E+3	8.63762158E+3	8.43504383E+3
9.06800000E+3	7.50885209E+1	-9.23122000E+5	9.34107000E+5	4.09160000E+4	4.20800000E+4	5.04924896E+0	4.91745152E+0	8.32057008E+3	8.55723474E+3	8.33391269E+3
9.06850000E+3	7.50765572E+1	-9.24171000E+5	9.35153000E+5	4.14840000E+4	4.26810000E+4	5.05055168E+0	4.92524192E+0	8.42273348E+3	8.66554167E+3	8.45075998E+3
9.06900000E+3	7.50646043E+1	-9.25218000E+5	9.36198000E+5	4.14100000E+4	4.26500000E+4	5.04963008E+0	4.92025056E+0	8.41623805E+3	8.66804693E+3	8.44616325E+3
9.06950000E+3	7.50526621E+1	-9.26264000E+5	9.37241000E+5	4.10050000E+4	4.22220000E+4	5.04932832E+0	4.92741376E+0	8.32180978E+3	8.56873388E+3	8.36190426E+3
9.07000000E+3	7.50407307E+1	-9.27309000E+5	9.38283000E+5	4.08650000E+4	4.20840000E+4	5.04934784E+0	4.92407264E+0	8.29902461E+3	8.54637223E+3	8.33454167E+3
9.07050000E+3	7.50288099E+1	-9.28352000E+5	9.39324000E+5	4.10250000E+4	4.22410000E+4	5.05024128E+0	4.93023968E+0	8.32109647E+3	8.56751118E+3	8.36415483E+3
9.07100000E+3	7.50168998E+1	-9.29395000E+5	9.40364000E+5	4.11300000E+4	4.23710000E+4	5.05038208E+0	4.92428640E+0	8.35247925E+3	8.60454666E+3	8.38966227E+3
9.07150000E+3	7.50050004E+1	-9.30436000E+5	9.41403000E+5	4.12850000E+4	4.24740000E+4	5.05038464E+0	4.92702688E+0	8.37929263E+3	8.62079750E+3	8.41025051E+3
9.07200000E+3	7.49931115E+1	-9.31476000E+5	9.42440000E+5	4.09970000E+4	4.22130000E+4	5.05076896E+0	4.92567264E+0	8.32312721E+3	8.57000221E+3	8.35773727E+3
9.07250000E+3	7.49812333E+1	-9.32515000E+5	9.43477000E+5	4.11540000E+4	4.23000000E+4	5.04987744E+0	4.92093568E+0	8.36304367E+3	8.59596811E+3	8.37663894E+3
9.07300000E+3	7.49693655E+1	-9.33553000E+5	9.44512000E+5	4.08370000E+4	4.20410000E+4	5.04929728E+0	4.91969568E+0	8.30071668E+3	8.54543563E+3	8.32610909E+3
9.07350000E+3	7.49575084E+1	-9.34589000E+5	9.45546000E+5	4.06410000E+4	4.18320000E+4	5.04973984E+0	4.91516960E+0	8.26848376E+3	8.51061675E+3	8.28399112E+3
9.07400000E+3	7.49456617E+1	-9.35625000E+5	9.46579000E+5	4.03750000E+4	4.15130000E+4	5.05059296E+0	4.92952992E+0	8.19043614E+3	8.42194450E+3	8.22002492E+3
9.07450000E+3	7.49338255E+1	-9.36659000E+5	9.47610000E+5	4.10050000E+4	4.22150000E+4	5.05044416E+0	4.92509888E+0	8.32572117E+3	8.57132796E+3	8.35867077E+3
9.07500000E+3	7.49219998E+1	-9.37692000E+5	9.48641000E+5	4.10980000E+4	4.22900000E+4	5.04981760E+0	4.92504096E+0	8.34470217E+3	8.58691896E+3	8.37475793E+3
9.07550000E+3	7.49101845E+1	-9.38724000E+5	9.49670000E+5	4.07490000E+4	4.19600000E+4	5.05024992E+0	4.93414368E+0	8.25857588E+3	8.50390088E+3	8.30849971E+3
9.07600000E+3	7.48983796E+1	-9.39755000E+5	9.50698000E+5	4.08530000E+4	4.21240000E+4	5.04984320E+0	4.92687296E+0	8.29187201E+3	8.54961453E+3	8.34164514E+3
9.07650000E+3	7.48865852E+1	-9.40784000E+5	9.51725000E+5	4.06600000E+4	4.18800000E+4	5.04945280E+0	4.92753472E+0	8.25159077E+3	8.49933096E+3	8.29396801E+3
9.07700000E+3	7.48748010E+1	-9.41813000E+5	9.52751000E+5	4.05840000E+4	4.17740000E+4	5.05012320E+0	4.92420896E+0	8.24172986E+3	8.48315733E+3	8.27187741E+3
9.07750000E+3	7.48630272E+1	-9.42840000E+5	9.53776000E+5	4.03220000E+4	4.15730000E+4	5.04943200E+0	4.93353824E+0	8.17303891E+3	8.42668488E+3	8.23320326E+3
9.07800000E+3	7.48512637E+1	-9.43867000E+5	9.54799000E+5	4.02780000E+4	4.14640000E+4	5.05080576E+0	4.92267616E+0	8.18213482E+3	8.42315492E+3	8.20938321E+3
9.07850000E+3	7.48395105E+1	-9.44892000E+5	9.55822000E+5	4.04840000E+4	4.16190000E+4	5.04977856E+0	4.92691008E+0	8.21691473E+3	8.44735433E+3	8.24174754E+3
9.07900000E+3	7.48277676E+1	-9.45915000E+5	9.56843000E+5	4.04650000E+4	4.15870000E+4	5.04951616E+0	4.93019616E+0	8.20758418E+3	8.43514836E+3	8.23583858E+3
9.07950000E+3	7.48160349E+1	-9.46938000E+5	9.57863000E+5	4.02820000E+4	4.14970000E+4	5.05075744E+0	4.93255456E+0	8.16655944E+3	8.41303849E+3	8.21599542E+3
9.08000000E+3	7.48043124E+1	-9.47960000E+5	9.58882000E+5	8.41000000E+3	8.63500000E+3	1.05102592E+0	1.02791744E+0	8.18159093E+3	8.40028385E+3	8.21578216E+3
9.08100000E+3	7.47808980E+1	-9.50000000E+5	9.60917000E+5	8.32000000E+3	8.57400000E+3	1.04993536E+0	1.02817024E+0	8.09204515E+3	8.33899448E+3	8.16621701E+3
9.08200000E+3	7.47575241E+1	-9.52035000E+5	9.62947000E+5	8.43700000E+3	8.69200000E+3	1.05040704E+0	1.02393184E+0	8.23980627E+3	8.48869218E+3	8.27488742E+3
9.08300000E+3	7.47341907E+1	-9.54066000E+5	9.64973000E+5	8.31100000E+3	8.54300000E+3	1.05081888E+0	1.02722560E+0	8.09072515E+3	8.31634967E+3	8.12985012E+3
9.08400000E+3	7.47108974E+1	-9.56093000E+5	9.66994000E+5	8.38100000E+3	8.63200000E+3	1.05019648E+0	1.02383264E+0	8.18590820E+3	8.43093988E+3	8.21941433E+3
9.08500000E+3	7.46876441E+1	-9.58115000E+5	9.69011000E+5	8.24000000E+3	8.47600000E+3	1.05085760E+0	1.02467904E+0	8.04154245E+3	8.27167677E+3	8.06579312E+3
9.08600000E+3	7.46644306E+1	-9.60132000E+5	9.71023000E+5	8.23100000E+3	8.45100000E+3	1.04973440E+0	1.02370912E+0	8.04036991E+3	8.25513231E+3	8.05060785E+3
9.08700000E+3	7.46412568E+1	-9.62145000E+5	9.73031000E+5	8.27800000E+3	8.52200000E+3	1.05015360E+0	1.02481344E+0	8.07756776E+3	8.31548014E+3	8.11500337E+3
9.08800000E+3	7.46181225E+1	-9.64154000E+5	9.75035000E+5	8.39900000E+3	8.63800000E+3	1.05027456E+0	1.02657984E+0	8.18153608E+3	8.41414938E+3	8.22451607E+3
9.08900000E+3	7.45950274E+1	-9.66159000E+5	9.77034000E+5	8.30600000E+3	8.53100000E+3	1.05070912E+0	1.02680320E+0	8.08918398E+3	8.30815894E+3	8.11927853E+3
9.09000000E+3	7.45719714E+1	-9.68159000E+5	9.79029000E+5	8.08600000E+3	8.34300000E+3	1.05050944E+0	1.02715424E+0	7.87223543E+3	8.12222047E+3	7.94186105E+3
9.09100000E+3	7.45489543E+1	-9.70155000E+5	9.81020000E+5	8.14900000E+3	8.38400000E+3	1.05095840E+0	1.02520864E+0	7.94862595E+3	8.17774762E+3	7.97748036E+3
9.09200000E+3	7.45259760E+1	-9.72146000E+5	9.83006000E+5	8.21400000E+3	8.47500000E+3	1.05119072E+0	1.02598560E+0	8.00596032E+3	8.26029998E+3	8.06228579E+3
9.09300000E+3	7.45030362E+1	-9.74133000E+5	9.84988000E+5	8.13900000E+3	8.39700000E+3	1.05053952E+0	1.02504192E+0	7.94016307E+3	8.19161374E+3	7.99303581E+3
9.09400000E+3	7.44801349E+1	-9.76116000E+5	9.86966000E+5	7.95700000E+3	8.17600000E+3	1.05067552E+0	1.02503968E+0	7.76262632E+3	7.97615956E+3	7.78166032E+3
9.09500000E+3	7.44572717E+1	-9.78095000E+5	9.88939000E+5	8.10000000E+3	8.32800000E+3	1.05064704E+0	1.02519776E+0	7.90091465E+3	8.12328627E+3	7.92654401E+3
9.09600000E+3	7.44344466E+1	-9.80069000E+5	9.90909000E+5	8.02700000E+3	8.26400000E+3	1.05065184E+0	1.02873856E+0	7.80275992E+3	8.03307329E+3	7.86559323E+3
9.09700000E+3	7.44116594E+1	-9.82040000E+5	9.92874000E+5	8.17400000E+3	8.41000000E+3	1.05067936E+0	1.02525728E+0	7.97263298E+3	8.20261800E+3	8.00434492E+3
9.09800000E+3	7.43889099E+1	-9.84006000E+5	9.94834000E+5	8.01700000E+3	8.25400000E+3	1.05090912E+0	1.02556160E+0	7.81718036E+3	8.04805582E+3	7.85415203E+3
9.09900000E+3	7.43661980E+1	-9.85967000E+5	9.96791000E+5	8.13500000E+3	8.36300000E+3	1.05010720E+0	1.02582208E+0	7.93022509E+3	8.15233738E+3	7.96394882E+3
9.10000000E+3	7.43435234E+1	-9.87925000E+5	9.98744000E+5	7.99500000E+3	8.26100000E+3	1.05064544E+0	1.02628096E+0	7.79026437E+3	8.04924156E+3	7.86278576E+3
9.10100000E+3	7.43208860E+1	-9.89879000E+5	1.00069200E+6	7.78000000E+3	8.01600000E+3	1.05105280E+0	1.02722656E+0	7.57379171E+3	7.80343334E+3	7.62663874E+3
9.10200000E+3	7.42982857E+1	-9.91828000E+5	1.00263600E+6	7.80400000E+3	8.01700000E+3	1.05040192E+0	1.02383200E+0	7.62234429E+3	7.83026549E+3	7.63231659E+3
9.10300000E+3	7.42757223E+1	-9.93773000E+5	1.00457600E+6	7.88300000E+3	8.15600000E+3	1.05058528E+0	1.02528448E+0	7.68859780E+3	7.95463946E+3	7.76329171E+3
9.10400000E+3	7.42531956E+1	-9.95715000E+5	1.00651200E+6	7.86900000E+3	8.07800000E+3	1.05065792E+0	1.02540224E+0	7.67406164E+3	7.87766793E+3	7.68851578E+3
9.10500000E+3	7.42307055E+1	-9.97652000E+5	1.00844400E+6	7.77600000E+3	7.99400000E+3	1.05023680E+0	1.02481152E+0	7.58773672E+3	7.80033672E+3	7.61161673E+3
9.10600000E+3	7.42082518E+1	-9.99585000E+5	1.01037200E+6	7.69900000E+3	7.93300000E+3	1.05108320E+0	1.02450560E+0	7.51484423E+3	7.74312930E+3	7.54745200E+3
9.10700000E+3	7.41858344E+1	-1.00151400E+6	1.01229600E+6	7.78400000E+3	8.01700000E+3	1.05023264E+0	1.02593472E+0	7.58722738E+3	7.81413391E+3	7.63354679E+3
9.10800000E+3	7.41634530E+1	-1.00343900E+6	1.01421600E+6	8.00800000E+3	8.26300000E+3	1.05037568E+0	1.02773408E+0	7.79189885E+3	8.03994299E+3	7.86670918E+3
9.10900000E+3	7.41411076E+1	-1.00536000E+6	1.01613200E+6	7.81700000E+3	8.05900000E+3	1.05047008E+0	1.02680000E+0	7.61297234E+3	7.84844381E+3	7.67180347E+3
9.11000000E+3	7.41187980E+1	-1.00727700E+6	1.01804400E+6	7.95500000E+3	8.21500000E+3	1.05045760E+0	1.02334432E+0	7.77353218E+3	8.02755059E+3	7.82040132E+3
9.11100000E+3	7.40965240E+1	-1.00919000E+6	1.01995200E+6	7.78600000E+3	8.00500000E+3	1.05026592E+0	1.02260960E+0	7.61385381E+3	7.82792022E+3	7.62187923E+3
9.11200000E+3	7.40742855E+1	-1.01109900E+6	1.02185600E+6	7.82700000E+3	8.07500000E+3	1.05068000E+0	1.02765760E+0	7.61635004E+3	7.85746827E+3	7.68549891E+3
9.11300000E+3	7.40520823E+1	-1.01300400E+6	1.02375500E+6	7.82800000E+3	8.07100000E+3	1.05018880E+0	1.02830784E+0	7.61250639E+3	7.84869944E+3	7.68528478E+3
9.11400000E+3	7.40299143E+1	-1.01490500E+6	1.02565200E+6	7.61600000E+3	7.85000000E+3	1.05014592E+0	1.02347712E+0	7.44129971E+3	7.66978878E+3	7.47515164E+3
9.11500000E+3	7.40077813E+1	-1.01680300E+6	1.02754400E+6	7.66000000E+3	7.92500000E+3	1.05011712E+0	1.02685280E+0	7.45968653E+3	7.71760674E+3	7.54677726E+3
9.11600000E+3	7.39856833E+1	-1.01869600E+6	1.02943200E+6	7.65000000E+3	7.88300000E+3	1.04974240E+0	1.02375648E+0	7.47248017E+3	7.69993640E+3	7.50946137E+3
9.11700000E+3	7.39636199E+1	-1.02058600E+6	1.03131600E+6	7.61300000E+3	7.83800000E+3	1.05045728E+0	1.02445152E+0	7.43129358E+3	7.65082599E+3	7.46151238E+3
9.11800000E+3	7.39415912E+1	-1.02247100E+6	1.03319700E+6	7.66300000E+3	7.88800000E+3	1.05059008E+0	1.02846208E+0	7.45093101E+3	7.66958120E+3	7.50816151E+3
9.11900000E+3	7.39195969E+1	-1.02435300E+6	1.03507400E+6	7.62400000E+3	7.83900000E+3	1.04999072E+0	1.02667136E+0	7.42594008E+3	7.63522441E+3	7.46578027E+3
9.12000000E+3	7.38976369E+1	-1.02623100E+6	1.03694600E+6	7.60400000E+3	7.82700000E+3	1.05036576E+0	1.02302560E+0	7.43285408E+3	7.65072452E+3	7.45168997E+3
9.12100000E+3	7.38757111E+1	-1.02810500E+6	1.03881500E+6	7.64400000E+3	7.86800000E+3	1.05056640E+0	1.02600032E+0	7.45029007E+3	7.66861219E+3	7.48929339E+3
9.12200000E+3	7.38538193E+1	-1.02997600E+6	1.04068100E+6	7.73000000E+3	7.93800000E+3	1.05067552E+0	1.02994656E+0	7.50524377E+3	7.70715599E+3	7.55513938E+3
9.12300000E+3	7.38319614E+1	-1.03184200E+6	1.04254200E+6	7.43700000E+3	7.68000000E+3	1.05026912E+0	1.02854112E+0	7.23062973E+3	7.46677533E+3	7.31241151E+3
9.12400000E+3	7.38101372E+1	-1.03370500E+6	1.04440000E+6	7.57600000E+3	7.81000000E+3	1.05048352E+0	1.02437568E+0	7.39572419E+3	7.62396847E+3	7.43467161E+3
9.12500000E+3	7.37883466E+1	-1.03556400E+6	1.04625400E+6	7.52700000E+3	7.75000000E+3	1.05009472E+0	1.02637632E+0	7.33356748E+3	7.55061142E+3	7.38028661E+3
9.12600000E+3	7.37665895E+1	-1.03741900E+6	1.04810400E+6	7.56800000E+3	7.78900000E+3	1.04980768E+0	1.02672672E+0	7.37099742E+3	7.58613976E+3	7.41945420E+3
9.12700000E+3	7.37448657E+1	-1.03927100E+6	1.04995000E+6	7.57800000E+3	7.81000000E+3	1.05078208E+0	1.02876736E+0	7.36609684E+3	7.59150539E+3	7.43255918E+3
9.12800000E+3	7.37231751E+1	-1.04111900E+6	1.05179300E+6	7.50500000E+3	7.70800000E+3	1.04963424E+0	1.02660480E+0	7.31050546E+3	7.50803556E+3	7.34351044E+3
9.12900000E+3	7.37015176E+1	-1.04296300E+6	1.05363200E+6	7.48700000E+3	7.72000000E+3	1.05074400E+0	1.02742400E+0	7.28715701E+3	7.51376376E+3	7.34717495E+3
9.13000000E+3	7.36798930E+1	-1.04480300E+6	1.05546700E+6	7.61600000E+3	7.84400000E+3	1.05042752E+0	1.02404608E+0	7.43716533E+3	7.65980932E+3	7.46743574E+3
9.13100000E+3	7.36583012E+1	-1.04664000E+6	1.05729900E+6	7.64100000E+3	7.89300000E+3	1.05043424E+0	1.03030464E+0	7.41625312E+3	7.66061612E+3	7.51403534E+3
9.13200000E+3	7.36367421E+1	-1.04847300E+6	1.05912700E+6	7.39300000E+3	7.62800000E+3	1.05068384E+0	1.02540224E+0	7.20985357E+3	7.43898242E+3	7.26003362E+3
9.13300000E+3	7.36152155E+1	-1.05030300E+6	1.06095100E+6	7.50000000E+3	7.73000000E+3	1.05056640E+0	1.02801664E+0	7.29560175E+3	7.51932915E+3	7.35793568E+3
9.13400000E+3	7.35937212E+1	-1.05212900E+6	1.06277200E+6	7.45800000E+3	7.69700000E+3	1.05069824E+0	1.02408512E+0	7.28259776E+3	7.51575132E+3	7.32560473E+3
9.13500000E+3	7.35722593E+1	-1.05395100E+6	1.06458900E+6	7.32400000E+3	7.56400000E+3	1.05079840E+0	1.02992288E+0	7.11121206E+3	7.34403639E+3	7.19833605E+3
9.13600000E+3	7.35508295E+1	-1.05577000E+6	1.06640300E+6	7.30600000E+3	7.55500000E+3	1.05045984E+0	1.02492288E+0	7.12834121E+3	7.37121423E+3	7.19208837E+3
9.13700000E+3	7.35294317E+1	-1.05758500E+6	1.06821300E+6	7.30300000E+3	7.53700000E+3	1.05063104E+0	1.02639872E+0	7.11516865E+3	7.34307038E+3	7.17378386E+3
9.13800000E+3	7.35080658E+1	-1.05939600E+6	1.07001900E+6	7.34000000E+3	7.57000000E+3	1.05112096E+0	1.02960064E+0	7.12897770E+3	7.35225485E+3	7.20183527E+3
9.13900000E+3	7.34867317E+1	-1.06120400E+6	1.07182200E+6	7.40900000E+3	7.62800000E+3	1.05060384E+0	1.03304416E+0	7.17200705E+3	7.38392617E+3	7.26058645E+3
9.14000000E+3	7.34654292E+1	-1.06300900E+6	1.07362100E+6	7.24100000E+3	7.48200000E+3	1.05027712E+0	1.02459264E+0	7.06719892E+3	7.30226675E+3	7.12383414E+3
9.14100000E+3	7.34441582E+1	-1.06481000E+6	1.07541700E+6	7.27100000E+3	7.51000000E+3	1.05012224E+0	1.02761824E+0	7.07558480E+3	7.30812848E+3	7.15154838E+3
9.14200000E+3	7.34229186E+1	-1.06660700E+6	1.07720900E+6	7.32600000E+3	7.55900000E+3	1.05085504E+0	1.01882688E+0	7.19062300E+3	7.41929455E+3	7.19319003E+3
9.14300000E+3	7.34017103E+1	-1.06840100E+6	1.07899800E+6	7.10000000E+3	7.32400000E+3	1.05003936E+0	1.02703872E+0	6.91307919E+3	7.13116598E+3	6.97497663E+3
9.14400000E+3	7.33805331E+1	-1.07019100E+6	1.08078300E+6	7.23100000E+3	7.49600000E+3	1.05086688E+0	1.02827840E+0	7.03214227E+3	7.28977231E+3	7.13315848E+3
9.14500000E+3	7.33593869E+1	-1.07197800E+6	1.08256500E+6	7.21400000E+3	7.45500000E+3	1.05049280E+0	1.03035200E+0	7.00149075E+3	7.23518921E+3	7.09666930E+3
9.14600000E+3	7.33382717E+1	-1.07376100E+6	1.08434400E+6	7.31400000E+3	7.57400000E+3	1.05074912E+0	1.02785920E+0	7.11576060E+3	7.36867265E+3	7.20819067E+3
9.14700000E+3	7.33171872E+1	-1.07554100E+6	1.08611800E+6	7.17900000E+3	7.40800000E+3	1.05126368E+0	1.02769440E+0	6.98553967E+3	7.20827007E+3	7.04675729E+3
9.14800000E+3	7.32961334E+1	-1.07731800E+6	1.08789000E+6	7.06300000E+3	7.29200000E+3	1.05038560E+0	1.02833856E+0	6.86836055E+3	7.09103013E+3	6.94221246E+3
9.14900000E+3	7.32751102E+1	-1.07909100E+6	1.08965800E+6	7.16300000E+3	7.39800000E+3	1.05078656E+0	1.02936992E+0	6.95862572E+3	7.18682746E+3	7.04044026E+3
9.15000000E+3	7.32541173E+1	-1.08086100E+6	1.09142200E+6	7.01900000E+3	7.23900000E+3	1.05052384E+0	1.02634624E+0	6.83882273E+3	7.05315798E+3	6.89084790E+3
9.15100000E+3	7.32331548E+1	-1.08262700E+6	1.09318400E+6	6.99100000E+3	7.24800000E+3	1.05038496E+0	1.02769056E+0	6.80263133E+3	7.05249237E+3	6.90032729E+3
9.15200000E+3	7.32122225E+1	-1.08439000E+6	1.09494100E+6	7.06700000E+3	7.28500000E+3	1.04993248E+0	1.02509536E+0	6.89399277E+3	7.10646229E+3	6.93854142E+3
9.15300000E+3	7.31913203E+1	-1.08614900E+6	1.09669600E+6	7.12900000E+3	7.37200000E+3	1.05059840E+0	1.02560000E+0	6.95105304E+3	7.18784332E+3	7.01695339E+3
9.15400000E+3	7.31704481E+1	-1.08790500E+6	1.09844700E+6	7.02400000E+3	7.24200000E+3	1.05026368E+0	1.03085280E+0	6.81377593E+3	7.02522242E+3	6.89541126E+3
9.15500000E+3	7.31496057E+1	-1.08965800E+6	1.10019500E+6	6.93500000E+3	7.15900000E+3	1.05038496E+0	1.03106048E+0	6.72608458E+3	6.94313272E+3	6.81559645E+3
9.15600000E+3	7.31287930E+1	-1.09140800E+6	1.10193900E+6	6.98000000E+3	7.21400000E+3	1.05060864E+0	1.02978400E+0	6.77812046E+3	7.00530885E+3	6.86649598E+3
9.15700000E+3	7.31080100E+1	-1.09315400E+6	1.10368000E+6	6.92700000E+3	7.16700000E+3	1.05058976E+0	1.03191840E+0	6.71274008E+3	6.94612681E+3	6.82283444E+3
9.15800000E+3	7.30872565E+1	-1.09489700E+6	1.10541800E+6	7.04900000E+3	7.27100000E+3	1.05052128E+0	1.02430080E+0	6.88176754E+3	7.09839559E+3	6.92132576E+3
9.15900000E+3	7.30665325E+1	-1.09663600E+6	1.10715200E+6	7.04300000E+3	7.27500000E+3	1.05044704E+0	1.03116704E+0	6.83012521E+3	7.05594581E+3	6.92657480E+3
9.16000000E+3	7.30458377E+1	-1.09837200E+6	1.10888300E+6	6.83700000E+3	7.07000000E+3	1.05110592E+0	1.02844224E+0	6.64791831E+3	6.87429923E+3	6.72624886E+3
9.16100000E+3	7.30251721E+1	-1.10010500E+6	1.11061100E+6	6.89300000E+3	7.11700000E+3	1.05052416E+0	1.03173408E+0	6.68098508E+3	6.89799159E+3	6.77471330E+3
9.16200000E+3	7.30045356E+1	-1.10183500E+6	1.11233600E+6	6.95900000E+3	7.18900000E+3	1.05006624E+0	1.02948960E+0	6.75966032E+3	6.98294604E+3	6.84623477E+3
9.16300000E+3	7.29839281E+1	-1.10356100E+6	1.11405700E+6	6.85700000E+3	7.10800000E+3	1.05057632E+0	1.02283104E+0	6.70394203E+3	6.94932083E+3	6.76581022E+3
9.16400000E+3	7.29633494E+1	-1.10528400E+6	1.11577500E+6	6.84400000E+3	7.06500000E+3	1.05074144E+0	1.02992384E+0	6.64515155E+3	6.85964028E+3	6.72382351E+3
9.16500000E+3	7.29427996E+1	-1.10700400E+6	1.11749000E+6	6.64800000E+3	6.87600000E+3	1.05111744E+0	1.02751424E+0	6.46998333E+3	6.69182230E+3	6.54160966E+3
9.16600000E+3	7.29222783E+1	-1.10872100E+6	1.11920100E+6	6.85100000E+3	7.05500000E+3	1.04999616E+0	1.02849632E+0	6.66118086E+3	6.85936751E+3	6.71907219E+3
9.16700000E+3	7.29017857E+1	-1.11043400E+6	1.12091000E+6	6.79600000E+3	7.00400000E+3	1.05061952E+0	1.02538720E+0	6.62774023E+3	6.83045415E+3	6.66654280E+3
9.16800000E+3	7.28813215E+1	-1.11214500E+6	1.12261500E+6	6.60800000E+3	6.83800000E+3	1.04981280E+0	1.02669984E+0	6.43615567E+3	6.66009588E+3	6.51354222E+3
9.16900000E+3	7.28608856E+1	-1.11385200E+6	1.12431700E+6	6.75900000E+3	6.98000000E+3	1.05041888E+0	1.02478048E+0	6.59555888E+3	6.81116027E+3	6.64496815E+3
9.17000000E+3	7.28404779E+1	-1.11555500E+6	1.12601600E+6	6.75200000E+3	6.99000000E+3	1.05035744E+0	1.02736416E+0	6.57215841E+3	6.80380264E+3	6.65487741E+3
9.17100000E+3	7.28200985E+1	-1.11725600E+6	1.12771100E+6	6.80300000E+3	7.03900000E+3	1.05085280E+0	1.02757408E+0	6.62044726E+3	6.85008039E+3	6.69836917E+3
9.17200000E+3	7.27997470E+1	-1.11895400E+6	1.12940400E+6	6.81300000E+3	7.03600000E+3	1.05077760E+0	1.03221792E+0	6.60035044E+3	6.81637819E+3	6.69599352E+3
9.17300000E+3	7.27794235E+1	-1.12064800E+6	1.13109300E+6	6.68400000E+3	6.91500000E+3	1.05098432E+0	1.02725888E+0	6.50663638E+3	6.73238121E+3	6.58049779E+3
9.17400000E+3	7.27591278E+1	-1.12233900E+6	1.13277900E+6	6.65200000E+3	6.85400000E+3	1.04987392E+0	1.02665568E+0	6.47929012E+3	6.67585790E+3	6.52840295E+3
9.17500000E+3	7.27388599E+1	-1.12402800E+6	1.13446300E+6	6.67200000E+3	6.88500000E+3	1.05068320E+0	1.03096864E+0	6.47158385E+3	6.67800653E+3	6.55287912E+3
9.17600000E+3	7.27186195E+1	-1.12571300E+6	1.13614300E+6	6.67700000E+3	6.87900000E+3	1.05106496E+0	1.02969280E+0	6.48445828E+3	6.68058460E+3	6.54479053E+3
9.17700000E+3	7.26984068E+1	-1.12739500E+6	1.13781900E+6	6.73900000E+3	6.96300000E+3	1.05044768E+0	1.02875328E+0	6.55064740E+3	6.76821068E+3	6.62860239E+3
9.17800000E+3	7.26782214E+1	-1.12907300E+6	1.13949300E+6	6.66000000E+3	6.87300000E+3	1.05026656E+0	1.02282816E+0	6.51135768E+3	6.71950926E+3	6.54405297E+3
9.17900000E+3	7.26580635E+1	-1.13074900E+6	1.14116400E+6	6.75600000E+3	6.98400000E+3	1.05068576E+0	1.03028864E+0	6.55738571E+3	6.77861778E+3	6.64708733E+3
9.18000000E+3	7.26379327E+1	-1.13242200E+6	1.14283200E+6	6.53400000E+3	6.77300000E+3	1.05128864E+0	1.02874112E+0	6.35145215E+3	6.58357344E+3	6.44256938E+3
9.18100000E+3	7.26178291E+1	-1.13409100E+6	1.14449600E+6	6.57300000E+3	6.78000000E+3	1.05064320E+0	1.02853152E+0	6.39066462E+3	6.59173081E+3	6.45318982E+3
9.18200000E+3	7.25977526E+1	-1.13575800E+6	1.14615800E+6	6.62300000E+3	6.85700000E+3	1.05037728E+0	1.03149504E+0	6.42077736E+3	6.64760518E+3	6.52813054E+3
9.18300000E+3	7.25777030E+1	-1.13742200E+6	1.14781600E+6	6.68300000E+3	6.91500000E+3	1.05033632E+0	1.02848448E+0	6.49791040E+3	6.72337315E+3	6.58360553E+3
9.18400000E+3	7.25576803E+1	-1.13908200E+6	1.14947200E+6	6.53800000E+3	6.76200000E+3	1.05091744E+0	1.03089376E+0	6.34206962E+3	6.55929242E+3	6.43437795E+3
9.18500000E+3	7.25376844E+1	-1.14074000E+6	1.15112400E+6	6.57300000E+3	6.77900000E+3	1.05081376E+0	1.02968288E+0	6.38351878E+3	6.58342618E+3	6.45119074E+3
9.18600000E+3	7.25177151E+1	-1.14239400E+6	1.15277400E+6	6.41500000E+3	6.65500000E+3	1.05068064E+0	1.02982080E+0	6.22923911E+3	6.46216570E+3	6.33398937E+3
9.18700000E+3	7.24977724E+1	-1.14404600E+6	1.15442000E+6	6.36000000E+3	6.58500000E+3	1.05018848E+0	1.02804640E+0	6.18649119E+3	6.40518555E+3	6.27030302E+3
9.18800000E+3	7.24778562E+1	-1.14569400E+6	1.15606300E+6	6.42700000E+3	6.64600000E+3	1.05074976E+0	1.02734720E+0	6.25591816E+3	6.46894495E+3	6.32500739E+3
9.18900000E+3	7.24579664E+1	-1.14734000E+6	1.15770400E+6	6.38400000E+3	6.58500000E+3	1.05066176E+0	1.02748768E+0	6.21321318E+3	6.40864764E+3	6.26747851E+3
9.19000000E+3	7.24381029E+1	-1.14898200E+6	1.15934100E+6	6.38600000E+3	6.59900000E+3	1.05036576E+0	1.03057472E+0	6.19654245E+3	6.40303590E+3	6.28257342E+3
9.19100000E+3	7.24182656E+1	-1.15062200E+6	1.16097600E+6	6.30200000E+3	6.50100000E+3	1.05101920E+0	1.03136512E+0	6.11034820E+3	6.30328963E+3	6.18542459E+3
9.19200000E+3	7.23984545E+1	-1.15225800E+6	1.16260800E+6	6.27400000E+3	6.49100000E+3	1.05048192E+0	1.02750816E+0	6.10603423E+3	6.31721000E+3	6.17906875E+3
9.19300000E+3	7.23786694E+1	-1.15389200E+6	1.16423600E+6	6.28800000E+3	6.49700000E+3	1.05042048E+0	1.02907840E+0	6.11032162E+3	6.31338178E+3	6.18514216E+3
9.19400000E+3	7.23589102E+1	-1.15552300E+6	1.16586200E+6	6.35600000E+3	6.57900000E+3	1.05091552E+0	1.02896768E+0	6.17706476E+3	6.39365953E+3	6.26025582E+3
9.19500000E+3	7.23391769E+1	-1.15715100E+6	1.16748500E+6	6.22400000E+3	6.45800000E+3	1.05095136E+0	1.03049408E+0	6.03982121E+3	6.26671951E+3	6.14490855E+3
9.19600000E+3	7.23194694E+1	-1.15877500E+6	1.16910500E+6	6.34800000E+3	6.57500000E+3	1.05064704E+0	1.02895296E+0	6.16937824E+3	6.38997692E+3	6.25804837E+3
9.19700000E+3	7.22997875E+1	-1.16039700E+6	1.17072200E+6	6.09900000E+3	6.35100000E+3	1.05046944E+0	1.02844736E+0	5.93029866E+3	6.17522232E+3	6.04586841E+3
9.19800000E+3	7.22801313E+1	-1.16201700E+6	1.17233600E+6	6.22900000E+3	6.44700000E+3	1.04978816E+0	1.03246400E+0	6.03314014E+3	6.24422905E+3	6.14123901E+3
9.19900000E+3	7.22605005E+1	-1.16363300E+6	1.17394700E+6	6.25800000E+3	6.48300000E+3	1.05007264E+0	1.02650144E+0	6.09643568E+3	6.31545367E+3	6.17385860E+3
9.20000000E+3	7.22408952E+1	-1.16524600E+6	1.17555500E+6	6.34600000E+3	6.55300000E+3	1.05043424E+0	1.03192576E+0	6.14966720E+3	6.35015510E+3	6.23837243E+3
9.20100000E+3	7.22213152E+1	-1.16685700E+6	1.17716100E+6	6.19300000E+3	6.40400000E+3	1.05087040E+0	1.02982720E+0	6.01363025E+3	6.21847767E+3	6.09399599E+3
9.20200000E+3	7.22017605E+1	-1.16846400E+6	1.17876400E+6	6.15800000E+3	6.37400000E+3	1.05105248E+0	1.03018496E+0	5.97756737E+3	6.18716011E+3	6.06439747E+3
9.20300000E+3	7.21822309E+1	-1.17006900E+6	1.18036300E+6	6.26500000E+3	6.47300000E+3	1.05112960E+0	1.03265792E+0	6.06686869E+3	6.26812486E+3	6.15813692E+3
9.20400000E+3	7.21627264E+1	-1.17167100E+6	1.18196000E+6	6.20800000E+3	6.44500000E+3	1.05056640E+0	1.02677600E+0	6.04610938E+3	6.27691167E+3	6.13478596E+3
9.20500000E+3	7.21432469E+1	-1.17327000E+6	1.18355400E+6	6.02000000E+3	6.23300000E+3	1.05078880E+0	1.02809312E+0	5.85550072E+3	6.06255273E+3	5.93173433E+3
9.20600000E+3	7.21237924E+1	-1.17486700E+6	1.18514600E+6	6.10800000E+3	6.32200000E+3	1.05060160E+0	1.02771648E+0	5.94327338E+3	6.15135522E+3	6.01750464E+3
9.20700000E+3	7.21043626E+1	-1.17646000E+6	1.18673400E+6	6.14400000E+3	6.36000000E+3	1.05052512E+0	1.03016192E+0	5.96411096E+3	6.17378263E+3	6.05411511E+3
9.20800000E+3	7.20849576E+1	-1.17805100E+6	1.18832000E+6	6.25000000E+3	6.45700000E+3	1.05114944E+0	1.02885824E+0	6.07469499E+3	6.27585431E+3	6.14279926E+3
9.20900000E+3	7.20655773E+1	-1.17963900E+6	1.18990300E+6	6.01500000E+3	6.20900000E+3	1.05037280E+0	1.02957248E+0	5.84223075E+3	6.03063517E+3	5.91123456E+3
9.21000000E+3	7.20462216E+1	-1.18122400E+6	1.19148300E+6	6.22600000E+3	6.45600000E+3	1.05014432E+0	1.03306848E+0	6.02670599E+3	6.24917212E+3	6.14772644E+3
9.21100000E+3	7.20268904E+1	-1.18280600E+6	1.19306100E+6	6.04700000E+3	6.25000000E+3	1.05044096E+0	1.02909760E+0	5.87602187E+3	6.07314839E+3	5.94988223E+3
9.21200000E+3	7.20075836E+1	-1.18438600E+6	1.19463500E+6	6.06300000E+3	6.26500000E+3	1.05029024E+0	1.02819904E+0	5.89671821E+3	6.09317211E+3	5.96501782E+3
9.21300000E+3	7.19883011E+1	-1.18596300E+6	1.19620700E+6	6.06600000E+3	6.28500000E+3	1.05013184E+0	1.02707168E+0	5.90611164E+3	6.11915594E+3	5.98496280E+3
9.21400000E+3	7.19690429E+1	-1.18753700E+6	1.19777600E+6	6.05100000E+3	6.26900000E+3	1.05009568E+0	1.02939296E+0	5.87822167E+3	6.08985884E+3	5.96993219E+3
9.21500000E+3	7.19498089E+1	-1.18910800E+6	1.19934200E+6	5.96600000E+3	6.17300000E+3	1.05112960E+0	1.03048032E+0	5.78953318E+3	5.99023388E+3	5.87272968E+3
9.21600000E+3	7.19305990E+1	-1.19067700E+6	1.20090600E+6	5.98200000E+3	6.20000000E+3	1.05030784E+0	1.03028000E+0	5.80618861E+3	6.01763719E+3	5.90303125E+3
9.21700000E+3	7.19114132E+1	-1.19224300E+6	1.20246700E+6	5.94200000E+3	6.11300000E+3	1.05034528E+0	1.02705888E+0	5.78545214E+3	5.95177061E+3	5.81999093E+3
9.21800000E+3	7.18922512E+1	-1.19380600E+6	1.20402500E+6	5.91900000E+3	6.11600000E+3	1.05051264E+0	1.03332128E+0	5.72813133E+3	5.91866896E+3	5.82191948E+3
9.21900000E+3	7.18731132E+1	-1.19536600E+6	1.20558100E+6	6.00700000E+3	6.22800000E+3	1.05105184E+0	1.02813760E+0	5.84260317E+3	6.05753507E+3	5.92549270E+3
9.22000000E+3	7.18539990E+1	-1.19692400E+6	1.20713400E+6	5.96800000E+3	6.16600000E+3	1.05034624E+0	1.03005536E+0	5.79386335E+3	5.98598351E+3	5.87044516E+3
9.22100000E+3	7.18349085E+1	-1.19847900E+6	1.20868400E+6	5.94400000E+3	6.13900000E+3	1.05077568E+0	1.02790496E+0	5.78263578E+3	5.97215969E+3	5.84235067E+3
9.22200000E+3	7.18158416E+1	-1.20003200E+6	1.21023100E+6	5.99200000E+3	6.18900000E+3	1.05065120E+0	1.03453120E+0	5.79199545E+3	5.98227873E+3	5.89063240E+3
9.22300000E+3	7.17967983E+1	-1.20158200E+6	1.21177600E+6	5.98600000E+3	6.20100000E+3	1.05075040E+0	1.03334432E+0	5.79284163E+3	6.00075052E+3	5.90149668E+3
9.22400000E+3	7.17777785E+1	-1.20312900E+6	1.21331800E+6	5.78500000E+3	5.99400000E+3	1.05089728E+0	1.02443424E+0	5.64701937E+3	5.85102652E+3	5.70369732E+3
9.22500000E+3	7.17587821E+1	-1.20467300E+6	1.21485800E+6	5.84800000E+3	6.05800000E+3	1.05066176E+0	1.02806080E+0	5.68837952E+3	5.89247609E+3	5.76588987E+3
9.22600000E+3	7.17398090E+1	-1.20621500E+6	1.21639400E+6	5.99400000E+3	6.20900000E+3	1.05059808E+0	1.02911200E+0	5.82443893E+3	6.03322340E+3	5.90996702E+3
9.22700000E+3	7.17208592E+1	-1.20775400E+6	1.21792900E+6	5.77800000E+3	6.01600000E+3	1.05044256E+0	1.03026688E+0	5.60825560E+3	5.84019473E+3	5.72806189E+3
9.22800000E+3	7.17019326E+1	-1.20929100E+6	1.21946000E+6	5.92200000E+3	6.14100000E+3	1.05095392E+0	1.03323200E+0	5.73152980E+3	5.94333678E+3	5.84326285E+3
9.22900000E+3	7.16830292E+1	-1.21082400E+6	1.22098900E+6	5.80800000E+3	6.02000000E+3	1.05041056E+0	1.03222240E+0	5.62669440E+3	5.83200619E+3	5.73109242E+3
9.23000000E+3	7.16641488E+1	-1.21235600E+6	1.22251500E+6	5.67700000E+3	5.89600000E+3	1.05117344E+0	1.03127424E+0	5.50484030E+3	5.71708150E+3	5.60896972E+3
9.23100000E+3	7.16452913E+1	-1.21388400E+6	1.22403900E+6	5.83200000E+3	6.02500000E+3	1.05066016E+0	1.03082720E+0	5.65759227E+3	5.84473516E+3	5.73448983E+3
9.23200000E+3	7.16264568E+1	-1.21541100E+6	1.22556000E+6	5.66600000E+3	5.88600000E+3	1.05020832E+0	1.03083040E+0	5.49653949E+3	5.70992171E+3	5.60460233E+3
9.23300000E+3	7.16076451E+1	-1.21693400E+6	1.22707900E+6	5.82700000E+3	6.02800000E+3	1.05083904E+0	1.03065120E+0	5.65370709E+3	5.84868276E+3	5.73636853E+3
9.23400000E+3	7.15888562E+1	-1.21845500E+6	1.22859500E+6	5.74100000E+3	5.95900000E+3	1.05060992E+0	1.02855872E+0	5.58159674E+3	5.79341202E+3	5.67194340E+3
9.23500000E+3	7.15700899E+1	-1.21997300E+6	1.23010800E+6	5.74000000E+3	5.92500000E+3	1.04975872E+0	1.02950784E+0	5.57547964E+3	5.75510486E+3	5.64415412E+3
9.23600000E+3	7.15513463E+1	-1.22148900E+6	1.23161900E+6	5.87100000E+3	6.10200000E+3	1.05071040E+0	1.03471936E+0	5.67400227E+3	5.89724269E+3	5.80749938E+3
9.23700000E+3	7.15326252E+1	-1.22300200E+6	1.23312700E+6	5.74600000E+3	5.97000000E+3	1.05071744E+0	1.03182688E+0	5.56876363E+3	5.78576769E+3	5.68183203E+3
9.23800000E+3	7.15139266E+1	-1.22451300E+6	1.23463300E+6	5.72300000E+3	5.92600000E+3	1.05092960E+0	1.03344192E+0	5.53780516E+3	5.73416003E+3	5.63881729E+3
9.23900000E+3	7.14952505E+1	-1.22602100E+6	1.23613600E+6	5.73900000E+3	5.93500000E+3	1.05015648E+0	1.03131936E+0	5.56471664E+3	5.75475714E+3	5.65153871E+3
9.24000000E+3	7.14765966E+1	-1.22752700E+6	1.23763700E+6	5.68500000E+3	5.88500000E+3	1.05040864E+0	1.02874720E+0	5.52613898E+3	5.72049518E+3	5.60258149E+3
9.24100000E+3	7.14579650E+1	-1.22903000E+6	1.23913500E+6	5.62000000E+3	5.81500000E+3	1.05097920E+0	1.02983712E+0	5.45717365E+3	5.64648370E+3	5.53293538E+3
9.24200000E+3	7.14393557E+1	-1.23053000E+6	1.24063000E+6	5.65500000E+3	5.86700000E+3	1.05098208E+0	1.03115040E+0	5.48416603E+3	5.68964523E+3	5.58239775E+3
9.24300000E+3	7.14207684E+1	-1.23202800E+6	1.24212300E+6	5.65400000E+3	5.84900000E+3	1.05048512E+0	1.02840288E+0	5.49784536E+3	5.68739066E+3	5.56790371E+3
9.24400000E+3	7.14022033E+1	-1.23352400E+6	1.24361400E+6	5.79600000E+3	6.03300000E+3	1.05071744E+0	1.03291648E+0	5.61129589E+3	5.84074025E+3	5.74179106E+3
9.24500000E+3	7.13836601E+1	-1.23501700E+6	1.24510200E+6	5.75600000E+3	5.95700000E+3	1.05096384E+0	1.03262624E+0	5.57413687E+3	5.76873167E+3	5.66813031E+3
9.24600000E+3	7.13651389E+1	-1.23650700E+6	1.24658800E+6	5.57700000E+3	5.77400000E+3	1.05043840E+0	1.02900128E+0	5.41981833E+3	5.61109935E+3	5.49675259E+3
9.24700000E+3	7.13466395E+1	-1.23799500E+6	1.24807100E+6	5.44300000E+3	5.65500000E+3	1.05008832E+0	1.02697024E+0	5.30005621E+3	5.50637435E+3	5.38526131E+3
9.24800000E+3	7.13281620E+1	-1.23948100E+6	1.24955100E+6	5.25900000E+3	5.48100000E+3	1.04988640E+0	1.03180544E+0	5.09689113E+3	5.31197891E+3	5.22056482E+3
9.24900000E+3	7.13097061E+1	-1.24096400E+6	1.25102900E+6	5.32000000E+3	5.51200000E+3	1.05056768E+0	1.03304352E+0	5.14983144E+3	5.33562929E+3	5.24668720E+3
9.25000000E+3	7.12912720E+1	-1.24244400E+6	1.25250500E+6	5.48800000E+3	5.69000000E+3	1.05072224E+0	1.02895680E+0	5.33355725E+3	5.52969966E+3	5.41532270E+3
9.25100000E+3	7.12728594E+1	-1.24392300E+6	1.25397800E+6	5.48500000E+3	5.68900000E+3	1.05083200E+0	1.02949312E+0	5.32786465E+3	5.52585222E+3	5.41380544E+3
9.25200000E+3	7.12544684E+1	-1.24539800E+6	1.25544900E+6	5.58700000E+3	5.79500000E+3	1.05065600E+0	1.02729920E+0	5.43853242E+3	5.64093877E+3	5.51560168E+3
9.25300000E+3	7.12360988E+1	-1.24687200E+6	1.25691800E+6	5.56600000E+3	5.78200000E+3	1.05020096E+0	1.03247296E+0	5.39094021E+3	5.60009868E+3	5.50561294E+3
9.25400000E+3	7.12177507E+1	-1.24834200E+6	1.25838300E+6	5.49700000E+3	5.73000000E+3	1.05102208E+0	1.03011424E+0	5.33630134E+3	5.56243466E+3	5.45183599E+3
9.25500000E+3	7.11994239E+1	-1.24981100E+6	1.25984700E+6	5.32800000E+3	5.53800000E+3	1.05024608E+0	1.03342432E+0	5.15567507E+3	5.35885837E+3	5.27304991E+3
9.25600000E+3	7.11811184E+1	-1.25127700E+6	1.26130800E+6	5.47800000E+3	5.70800000E+3	1.05085888E+0	1.03022240E+0	5.31729848E+3	5.54053172E+3	5.43174741E+3
9.25700000E+3	7.11628341E+1	-1.25274000E+6	1.26276700E+6	5.54200000E+3	5.76300000E+3	1.05044640E+0	1.03155904E+0	5.37245062E+3	5.58667251E+3	5.48623899E+3
9.25800000E+3	7.11445710E+1	-1.25420100E+6	1.26422300E+6	5.49600000E+3	5.69800000E+3	1.05012000E+0	1.03500640E+0	5.31011209E+3	5.50512560E+3	5.42604655E+3
9.25900000E+3	7.11263289E+1	-1.25566000E+6	1.26567700E+6	5.67300000E+3	5.89100000E+3	1.05094912E+0	1.03052800E+0	5.50494504E+3	5.71640705E+3	5.60540933E+3
9.26000000E+3	7.11081079E+1	-1.25711700E+6	1.26712800E+6	5.40700000E+3	5.62200000E+3	1.05058560E+0	1.03377600E+0	5.23034003E+3	5.43826900E+3	5.35130122E+3
9.26100000E+3	7.10899079E+1	-1.25857100E+6	1.26857700E+6	5.47500000E+3	5.68300000E+3	1.05077472E+0	1.03095456E+0	5.31061233E+3	5.51230272E+3	5.40839049E+3
9.26200000E+3	7.10717287E+1	-1.26002200E+6	1.27002400E+6	5.50300000E+3	5.69700000E+3	1.05105696E+0	1.03543808E+0	5.31465870E+3	5.50201556E+3	5.42025810E+3
9.26300000E+3	7.10535704E+1	-1.26147100E+6	1.27146800E+6	5.54400000E+3	5.74000000E+3	1.05054432E+0	1.03479808E+0	5.35756696E+3	5.54685720E+3	5.46383422E+3
9.26400000E+3	7.10354329E+1	-1.26291800E+6	1.27291000E+6	5.42100000E+3	5.62200000E+3	1.05032224E+0	1.03020224E+0	5.26207359E+3	5.45716639E+3	5.35264301E+3
9.26500000E+3	7.10173161E+1	-1.26436300E+6	1.27435000E+6	5.45300000E+3	5.64800000E+3	1.05063232E+0	1.03001088E+0	5.29411883E+3	5.48334588E+3	5.37581025E+3
9.26600000E+3	7.09992200E+1	-1.26580500E+6	1.27578700E+6	5.35900000E+3	5.56900000E+3	1.04994464E+0	1.03130624E+0	5.19632268E+3	5.39981768E+3	5.30408918E+3
9.26700000E+3	7.09811445E+1	-1.26724500E+6	1.27722200E+6	5.27000000E+3	5.47100000E+3	1.05114400E+0	1.03252768E+0	5.10397939E+3	5.29853515E+3	5.20480543E+3
9.26800000E+3	7.09630895E+1	-1.26868200E+6	1.27865500E+6	5.30500000E+3	5.52300000E+3	1.05034912E+0	1.03080352E+0	5.14647059E+3	5.35792748E+3	5.25825166E+3
9.26900000E+3	7.09450550E+1	-1.27011700E+6	1.28008500E+6	5.36800000E+3	5.54200000E+3	1.04993632E+0	1.02642496E+0	5.22980267E+3	5.39929076E+3	5.27841536E+3
9.27000000E+3	7.09270409E+1	-1.27155000E+6	1.28151300E+6	5.42400000E+3	5.62500000E+3	1.05103200E+0	1.03375360E+0	5.24689829E+3	5.44123987E+3	5.35188272E+3
9.27100000E+3	7.09090472E+1	-1.27298100E+6	1.28293800E+6	5.15500000E+3	5.36600000E+3	1.05114976E+0	1.03117600E+0	4.99914661E+3	5.20375551E+3	5.10488629E+3
9.27200000E+3	7.08910738E+1	-1.27440900E+6	1.28436200E+6	5.24900000E+3	5.45500000E+3	1.05037856E+0	1.02866656E+0	5.10272250E+3	5.30287845E+3	5.19336571E+3
9.27300000E+3	7.08731206E+1	-1.27583500E+6	1.28578300E+6	5.35200000E+3	5.55200000E+3	1.05088640E+0	1.03000768E+0	5.19607776E+3	5.39011760E+3	5.28315906E+3
9.27400000E+3	7.08551877E+1	-1.27725800E+6	1.28720100E+6	5.18200000E+3	5.40400000E+3	1.05051168E+0	1.02947360E+0	5.03364049E+3	5.24912704E+3	5.14415984E+3
9.27500000E+3	7.08372748E+1	-1.27868000E+6	1.28861800E+6	5.32700000E+3	5.52400000E+3	1.05036448E+0	1.03178688E+0	5.16288790E+3	5.35366083E+3	5.25912681E+3
9.27600000E+3	7.08193820E+1	-1.28009900E+6	1.29003200E+6	5.38900000E+3	5.58600000E+3	1.05052288E+0	1.02882112E+0	5.23803399E+3	5.42948276E+3	5.31735206E+3
9.27700000E+3	7.08015093E+1	-1.28151500E+6	1.29144400E+6	5.25800000E+3	5.46200000E+3	1.04993984E+0	1.02864608E+0	5.11157346E+3	5.30973364E+3	5.20220282E+3
9.27800000E+3	7.07836565E+1	-1.28293000E+6	1.29285300E+6	5.36700000E+3	5.59300000E+3	1.05068896E+0	1.02932672E+0	5.21408790E+3	5.43349946E+3	5.32317385E+3
9.27900000E+3	7.07658236E+1	-1.28434200E+6	1.29426000E+6	5.34100000E+3	5.53400000E+3	1.05026208E+0	1.03256224E+0	5.17256955E+3	5.35934560E+3	5.26916101E+3
9.28000000E+3	7.07480105E+1	-1.28575200E+6	1.29566500E+6	5.31600000E+3	5.54600000E+3	1.05045536E+0	1.03542848E+0	5.13410641E+3	5.35622868E+3	5.27961512E+3
9.28100000E+3	7.07302172E+1	-1.28715900E+6	1.29706800E+6	5.26600000E+3	5.47900000E+3	1.05107200E+0	1.03548768E+0	5.08552646E+3	5.29117247E+3	5.21277324E+3
9.28200000E+3	7.07124437E+1	-1.28856500E+6	1.29846900E+6	5.03700000E+3	5.23600000E+3	1.05064992E+0	1.03175808E+0	4.88195838E+3	5.07477264E+3	4.98358197E+3
9.28300000E+3	7.06946898E+1	-1.28996800E+6	1.29986700E+6	5.14300000E+3	5.36000000E+3	1.05079488E+0	1.02946240E+0	4.99581141E+3	5.20657017E+3	5.10090038E+3
9.28400000E+3	7.06769556E+1	-1.29136900E+6	1.30126300E+6	5.29100000E+3	5.50500000E+3	1.05074112E+0	1.03111936E+0	5.13131671E+3	5.33875578E+3	5.23915919E+3
9.28500000E+3	7.06592409E+1	-1.29276800E+6	1.30265700E+6	5.25800000E+3	5.47300000E+3	1.05048512E+0	1.03226368E+0	5.09365979E+3	5.30186357E+3	5.20997385E+3
9.28600000E+3	7.06415458E+1	-1.29416400E+6	1.30404800E+6	5.18100000E+3	5.38800000E+3	1.05058144E+0	1.03099648E+0	5.02523539E+3	5.22597087E+3	5.12858860E+3
9.28700000E+3	7.06238701E+1	-1.29555800E+6	1.30543800E+6	5.13600000E+3	5.34000000E+3	1.05000096E+0	1.03313504E+0	4.97127655E+3	5.16868513E+3	5.08570964E+3
9.28800000E+3	7.06062137E+1	-1.29695000E+6	1.30682500E+6	5.10500000E+3	5.30500000E+3	1.05074368E+0	1.02831680E+0	4.96442342E+3	5.15888095E+3	5.04880505E+3
9.28900000E+3	7.05885768E+1	-1.29834000E+6	1.30821000E+6	5.05700000E+3	5.25600000E+3	1.05048224E+0	1.03124928E+0	4.90376100E+3	5.09667397E+3	5.00341634E+3
9.29000000E+3	7.05709591E+1	-1.29972800E+6	1.30959300E+6	5.11800000E+3	5.32400000E+3	1.05049664E+0	1.03081440E+0	4.96500631E+3	5.16475994E+3	5.06807904E+3
9.29100000E+3	7.05533607E+1	-1.30111300E+6	1.31097300E+6	5.08800000E+3	5.30700000E+3	1.05021920E+0	1.03151008E+0	4.93257419E+3	5.14480289E+3	5.05323079E+3
9.29200000E+3	7.05357815E+1	-1.30249600E+6	1.31235200E+6	5.00700000E+3	5.21700000E+3	1.05069696E+0	1.03002336E+0	4.86105480E+3	5.06479738E+3	4.96527562E+3
9.29300000E+3	7.05182214E+1	-1.30387700E+6	1.31372800E+6	5.01100000E+3	5.21900000E+3	1.05074528E+0	1.03136704E+0	4.85860010E+3	5.06020404E+3	4.96695070E+3
9.29400000E+3	7.05006803E+1	-1.30525600E+6	1.31510200E+6	5.06600000E+3	5.28600000E+3	1.05015680E+0	1.02950496E+0	4.92081165E+3	5.13441800E+3	5.03353404E+3
9.29500000E+3	7.04831583E+1	-1.30663300E+6	1.31647400E+6	4.99600000E+3	5.19600000E+3	1.05031072E+0	1.03072064E+0	4.84709417E+3	5.04097617E+3	4.94710746E+3
9.29600000E+3	7.04656553E+1	-1.30800700E+6	1.31784300E+6	4.95600000E+3	5.16800000E+3	1.05063872E+0	1.02986080E+0	4.81230085E+3	5.01810750E+3	4.91891256E+3
9.29700000E+3	7.04481712E+1	-1.30938000E+6	1.31921100E+6	5.01400000E+3	5.21600000E+3	1.05061760E+0	1.03069984E+0	4.86465584E+3	5.06048254E+3	4.96469886E+3
9.29800000E+3	7.04307060E+1	-1.31075000E+6	1.32057600E+6	5.08100000E+3	5.28700000E+3	1.05074848E+0	1.03376192E+0	4.91505820E+3	5.11424033E+3	5.03165134E+3
9.29900000E+3	7.04132596E+1	-1.31211800E+6	1.32193900E+6	4.96500000E+3	5.15100000E+3	1.05050912E+0	1.03231712E+0	4.80956859E+3	4.98968734E+3	4.90333677E+3
9.30000000E+3	7.03958319E+1	-1.31348400E+6	1.32330000E+6	5.05700000E+3	5.26900000E+3	1.05045472E+0	1.02845056E+0	4.91710559E+3	5.12311804E+3	5.01592301E+3
9.30100000E+3	7.03784230E+1	-1.31484800E+6	1.32465900E+6	4.96400000E+3	5.17000000E+3	1.05010208E+0	1.03254848E+0	4.80752245E+3	5.00694469E+3	4.92333088E+3
9.30200000E+3	7.03610328E+1	-1.31620900E+6	1.32601600E+6	5.15400000E+3	5.37600000E+3	1.05062240E+0	1.03005888E+0	5.00359746E+3	5.21902044E+3	5.11696686E+3
9.30300000E+3	7.03436611E+1	-1.31756900E+6	1.32737100E+6	4.92100000E+3	5.11200000E+3	1.05031872E+0	1.03343040E+0	4.76181076E+3	4.94648189E+3	4.86709406E+3
9.30400000E+3	7.03263080E+1	-1.31892600E+6	1.32872300E+6	5.04100000E+3	5.24100000E+3	1.05051776E+0	1.03361280E+0	4.87706809E+3	5.07048924E+3	4.98896849E+3
9.30500000E+3	7.03089735E+1	-1.32028200E+6	1.33007400E+6	5.07200000E+3	5.28600000E+3	1.05021408E+0	1.03416640E+0	4.90443317E+3	5.11126694E+3	5.03325950E+3
9.30600000E+3	7.02916574E+1	-1.32163500E+6	1.33142200E+6	4.87500000E+3	5.06000000E+3	1.05071008E+0	1.03596032E+0	4.70577869E+3	4.88429566E+3	4.81579086E+3
9.30700000E+3	7.02743597E+1	-1.32298600E+6	1.33276800E+6	5.02200000E+3	5.21800000E+3	1.05063808E+0	1.03173088E+0	4.86754841E+3	5.05743477E+3	4.96650569E+3
9.30800000E+3	7.02570804E+1	-1.32433500E+6	1.33411300E+6	4.85400000E+3	5.06100000E+3	1.05090528E+0	1.03322016E+0	4.69793388E+3	4.89826398E+3	4.81584791E+3
9.30900000E+3	7.02398194E+1	-1.32568200E+6	1.33545500E+6	4.90000000E+3	5.11200000E+3	1.04995008E+0	1.03511712E+0	4.73376385E+3	4.93855782E+3	4.86880291E+3
9.31000000E+3	7.02225766E+1	-1.32702700E+6	1.33679500E+6	4.88000000E+3	5.08900000E+3	1.05108576E+0	1.02933216E+0	4.74093805E+3	4.94390266E+3	4.84166011E+3
9.31100000E+3	7.02053521E+1	-1.32836900E+6	1.33813300E+6	4.93500000E+3	5.16300000E+3	1.05095936E+0	1.02909024E+0	4.79549782E+3	5.01702415E+3	4.91265428E+3
9.31200000E+3	7.01881458E+1	-1.32971000E+6	1.33946800E+6	4.96700000E+3	5.16900000E+3	1.05112608E+0	1.03107904E+0	4.81728345E+3	5.01306025E+3	4.91758325E+3
9.31300000E+3	7.01709575E+1	-1.33104900E+6	1.34080200E+6	4.90200000E+3	5.11600000E+3	1.05043744E+0	1.03116928E+0	4.75382665E+3	4.96124945E+3	4.87035192E+3
9.31400000E+3	7.01537874E+1	-1.33238500E+6	1.34213400E+6	4.91200000E+3	5.11900000E+3	1.05068832E+0	1.03221664E+0	4.75869097E+3	4.95910889E+3	4.87204426E+3
9.31500000E+3	7.01366353E+1	-1.33371900E+6	1.34346300E+6	4.85800000E+3	5.04900000E+3	1.05028352E+0	1.03184896E+0	4.70805340E+3	4.89315157E+3	4.80727337E+3
9.31600000E+3	7.01195011E+1	-1.33505200E+6	1.34479100E+6	4.91800000E+3	5.12700000E+3	1.05027616E+0	1.03003456E+0	4.77459708E+3	4.97749611E+3	4.88157324E+3
9.31700000E+3	7.01023849E+1	-1.33638200E+6	1.34611600E+6	4.92500000E+3	5.13300000E+3	1.05059264E+0	1.03160576E+0	4.77411061E+3	4.97560315E+3	4.88581378E+3
9.31800000E+3	7.00852865E+1	-1.33771000E+6	1.34744000E+6	4.84400000E+3	5.04100000E+3	1.05126176E+0	1.03140064E+0	4.69652608E+3	4.88749186E+3	4.79519012E+3
9.31900000E+3	7.00682060E+1	-1.33903700E+6	1.34876100E+6	4.93700000E+3	5.14900000E+3	1.05091744E+0	1.03115936E+0	4.78781476E+3	4.99326253E+3	4.89952855E+3
9.32000000E+3	7.00511433E+1	-1.34036100E+6	1.35008100E+6	4.82300000E+3	5.03600000E+3	1.05039520E+0	1.03453152E+0	4.66201358E+3	4.86783583E+3	4.79438596E+3
9.32100000E+3	7.00340983E+1	-1.34168300E+6	1.35139800E+6	4.88000000E+3	5.09400000E+3	1.05001312E+0	1.03223616E+0	4.72760032E+3	4.93490013E+3	4.85136795E+3
9.32200000E+3	7.00170710E+1	-1.34300300E+6	1.35271300E+6	4.97700000E+3	5.18500000E+3	1.05106240E+0	1.02952928E+0	4.83424813E+3	5.03613978E+3	4.93310388E+3
9.32300000E+3	7.00000614E+1	-1.34432100E+6	1.35402700E+6	4.66700000E+3	4.86500000E+3	1.05034304E+0	1.02819520E+0	4.53902138E+3	4.73151962E+3	4.63182010E+3
9.32400000E+3	6.99830694E+1	-1.34563800E+6	1.35533800E+6	4.92500000E+3	5.12500000E+3	1.05065472E+0	1.02867808E+0	4.78769801E+3	4.98203380E+3	4.87791079E+3
9.32500000E+3	6.99660949E+1	-1.34695200E+6	1.35664700E+6	4.91500000E+3	5.12100000E+3	1.05087712E+0	1.03439712E+0	4.75156002E+3	4.95067281E+3	4.87307212E+3
9.32600000E+3	6.99491379E+1	-1.34826400E+6	1.35795500E+6	4.73000000E+3	4.94800000E+3	1.05098848E+0	1.03350624E+0	4.57665355E+3	4.78840618E+3	4.70890033E+3
9.32700000E+3	6.99321984E+1	-1.34957400E+6	1.35926000E+6	4.80700000E+3	5.01600000E+3	1.05006848E+0	1.03069056E+0	4.66386342E+3	4.86663439E+3	4.77683132E+3
9.32800000E+3	6.99152763E+1	-1.35088200E+6	1.36056300E+6	4.85000000E+3	5.04500000E+3	1.05125600E+0	1.03242112E+0	4.69769545E+3	4.88656166E+3	4.79902136E+3
9.32900000E+3	6.98983716E+1	-1.35218800E+6	1.36186500E+6	4.78400000E+3	4.97500000E+3	1.05036960E+0	1.03428800E+0	4.62540414E+3	4.81002159E+3	4.73642802E+3
9.33000000E+3	6.98814842E+1	-1.35349200E+6	1.36316400E+6	4.84100000E+3	5.03400000E+3	1.05058816E+0	1.03452096E+0	4.67946053E+3	4.86597995E+3	4.79160169E+3
9.33100000E+3	6.98646141E+1	-1.35479500E+6	1.36446100E+6	4.80400000E+3	4.99200000E+3	1.05074080E+0	1.03088160E+0	4.66008900E+3	4.84245228E+3	4.75093382E+3
9.33200000E+3	6.98477613E+1	-1.35609500E+6	1.36575700E+6	4.81200000E+3	4.99900000E+3	1.05018880E+0	1.03376320E+0	4.65483778E+3	4.83567256E+3	4.76009647E+3
9.33300000E+3	6.98309256E+1	-1.35739300E+6	1.36705000E+6	4.67400000E+3	4.87400000E+3	1.05084320E+0	1.03014880E+0	4.53720861E+3	4.73129233E+3	4.63818008E+3
9.33400000E+3	6.98141071E+1	-1.35868900E+6	1.36834200E+6	4.86900000E+3	5.07300000E+3	1.05028768E+0	1.02972800E+0	4.72843314E+3	4.92640990E+3	4.83010521E+3
9.33500000E+3	6.97973057E+1	-1.35998400E+6	1.36963100E+6	4.77400000E+3	4.97500000E+3	1.05030272E+0	1.03258944E+0	4.62332832E+3	4.81786451E+3	4.73672962E+3
9.33600000E+3	6.97805213E+1	-1.36127600E+6	1.37091900E+6	4.82300000E+3	5.01500000E+3	1.05063200E+0	1.02995232E+0	4.68274104E+3	4.86914068E+3	4.77331739E+3
9.33700000E+3	6.97637540E+1	-1.36256600E+6	1.37220400E+6	4.65200000E+3	4.82600000E+3	1.05045536E+0	1.03275840E+0	4.50444170E+3	4.67278103E+3	4.59419808E+3
9.33800000E+3	6.97470037E+1	-1.36385500E+6	1.37348800E+6	4.69900000E+3	4.91400000E+3	1.05022848E+0	1.03321344E+0	4.54794703E+3	4.75597692E+3	4.67898185E+3
9.33900000E+3	6.97302703E+1	-1.36514100E+6	1.37477000E+6	4.70400000E+3	4.87400000E+3	1.05051168E+0	1.03304864E+0	4.55351260E+3	4.71794216E+3	4.63964380E+3
9.34000000E+3	6.97135538E+1	-1.36642600E+6	1.37605000E+6	4.78600000E+3	4.98700000E+3	1.05080352E+0	1.03092288E+0	4.64244231E+3	4.83734328E+3	4.74589198E+3
9.34100000E+3	6.96968541E+1	-1.36770900E+6	1.37732800E+6	4.69100000E+3	4.89200000E+3	1.05049056E+0	1.03174336E+0	4.54667331E+3	4.74144188E+3	4.65687193E+3
9.34200000E+3	6.96801712E+1	-1.36898900E+6	1.37860400E+6	4.60300000E+3	4.79600000E+3	1.05050944E+0	1.03101760E+0	4.46452127E+3	4.65166190E+3	4.56540400E+3
9.34300000E+3	6.96635051E+1	-1.37026800E+6	1.37987800E+6	4.71500000E+3	4.89800000E+3	1.05004288E+0	1.03250432E+0	4.56656685E+3	4.74368140E+3	4.66457141E+3
9.34400000E+3	6.96468557E+1	-1.37154500E+6	1.38115000E+6	4.78200000E+3	4.96500000E+3	1.05087296E+0	1.03429472E+0	4.62344041E+3	4.80028233E+3	4.72464341E+3
9.34500000E+3	6.96302230E+1	-1.37282000E+6	1.38242000E+6	4.75400000E+3	4.95100000E+3	1.05034400E+0	1.02912480E+0	4.61945918E+3	4.81077626E+3	4.71369380E+3
9.34600000E+3	6.96136070E+1	-1.37409300E+6	1.38368800E+6	4.75800000E+3	4.97200000E+3	1.05086496E+0	1.03212544E+0	4.60990478E+3	4.81715395E+3	4.73134055E+3
9.34700000E+3	6.95970075E+1	-1.37536400E+6	1.38495500E+6	4.78600000E+3	4.97000000E+3	1.05079296E+0	1.03069568E+0	4.64346566E+3	4.82196027E+3	4.72976142E+3
9.34800000E+3	6.95804246E+1	-1.37663400E+6	1.38621900E+6	4.67300000E+3	4.85500000E+3	1.05061920E+0	1.03170272E+0	4.52940552E+3	4.70570374E+3	4.62108440E+3
9.34900000E+3	6.95638582E+1	-1.37790100E+6	1.38748200E+6	4.71300000E+3	4.90700000E+3	1.05096608E+0	1.03517344E+0	4.55286024E+3	4.74025065E+3	4.66903746E+3
9.35000000E+3	6.95473083E+1	-1.37916600E+6	1.38874200E+6	4.65700000E+3	4.83900000E+3	1.05038848E+0	1.02899104E+0	4.52579257E+3	4.70265209E+3	4.60686698E+3
9.35100000E+3	6.95307748E+1	-1.38043000E+6	1.39000100E+6	4.63600000E+3	4.82600000E+3	1.05061280E+0	1.03375200E+0	4.48463461E+3	4.66838422E+3	4.59350962E+3
9.35200000E+3	6.95142576E+1	-1.38169200E+6	1.39125800E+6	4.62200000E+3	4.81600000E+3	1.05063776E+0	1.03265632E+0	4.47583568E+3	4.66359171E+3	4.58388246E+3
9.35300000E+3	6.94977569E+1	-1.38295200E+6	1.39251300E+6	4.64200000E+3	4.82100000E+3	1.05078080E+0	1.03343584E+0	4.49181248E+3	4.66501531E+3	4.58801683E+3
9.35400000E+3	6.94812724E+1	-1.38421000E+6	1.39376700E+6	4.50000000E+3	4.68500000E+3	1.05099040E+0	1.03368960E+0	4.35333779E+3	4.53227252E+3	4.45770009E+3
9.35500000E+3	6.94648042E+1	-1.38546600E+6	1.39501800E+6	4.75400000E+3	4.91600000E+3	1.05065376E+0	1.03094432E+0	4.61130626E+3	4.76841678E+3	4.67899149E+3
9.35600000E+3	6.94483523E+1	-1.38672000E+6	1.39626800E+6	4.57800000E+3	4.74600000E+3	1.05073344E+0	1.03016864E+0	4.44393260E+3	4.60689319E+3	4.51684492E+3
9.35700000E+3	6.94319165E+1	-1.38797300E+6	1.39751500E+6	4.54200000E+3	4.71400000E+3	1.05065984E+0	1.02896832E+0	4.41413007E+3	4.58128137E+3	4.48670428E+3
9.35800000E+3	6.94154969E+1	-1.38922300E+6	1.39876100E+6	4.55200000E+3	4.77000000E+3	1.05063648E+0	1.03443264E+0	4.40047986E+3	4.61111501E+3	4.54010506E+3
9.35900000E+3	6.93990933E+1	-1.39047200E+6	1.40000500E+6	4.60200000E+3	4.81400000E+3	1.05073504E+0	1.03638112E+0	4.44045140E+3	4.64491998E+3	4.58155464E+3
9.36000000E+3	6.93827059E+1	-1.39171900E+6	1.40124700E+6	4.52500000E+3	4.69700000E+3	1.04992192E+0	1.03221056E+0	4.38379549E+3	4.55028673E+3	4.47366600E+3
9.36100000E+3	6.93663345E+1	-1.39296400E+6	1.40248700E+6	4.60500000E+3	4.81500000E+3	1.05065024E+0	1.03241952E+0	4.46039610E+3	4.66370823E+3	4.58287622E+3
9.36200000E+3	6.93499790E+1	-1.39420700E+6	1.40372600E+6	4.66400000E+3	4.85300000E+3	1.05067200E+0	1.03265472E+0	4.51651448E+3	4.69944016E+3	4.61894863E+3
9.36300000E+3	6.93336396E+1	-1.39544800E+6	1.40496200E+6	4.75400000E+3	4.93800000E+3	1.04988768E+0	1.03264128E+0	4.60372841E+3	4.78179961E+3	4.70336027E+3
9.36400000E+3	6.93173160E+1	-1.39668800E+6	1.40619700E+6	4.48400000E+3	4.67600000E+3	1.05006016E+0	1.03533632E+0	4.33095982E+3	4.51628594E+3	4.45307819E+3
9.36500000E+3	6.93010083E+1	-1.39792600E+6	1.40743000E+6	4.59600000E+3	4.77100000E+3	1.05022720E+0	1.03491232E+0	4.44095593E+3	4.61001504E+3	4.54282654E+3
9.36600000E+3	6.92847164E+1	-1.39916200E+6	1.40866100E+6	4.42700000E+3	4.63300000E+3	1.04991296E+0	1.03066496E+0	4.29528525E+3	4.49502263E+3	4.41274675E+3
9.36700000E+3	6.92684404E+1	-1.40039600E+6	1.40989100E+6	4.45900000E+3	4.63800000E+3	1.05099968E+0	1.03401888E+0	4.31230037E+3	4.48527998E+3	4.41294140E+3
9.36800000E+3	6.92521801E+1	-1.40162800E+6	1.41111800E+6	4.59300000E+3	4.76800000E+3	1.04991392E+0	1.02923584E+0	4.46253407E+3	4.63242817E+3	4.54132468E+3
9.36900000E+3	6.92359355E+1	-1.40285800E+6	1.41234400E+6	4.54400000E+3	4.75300000E+3	1.05038720E+0	1.03700384E+0	4.38185456E+3	4.58337363E+3	4.52499802E+3
9.37000000E+3	6.92197066E+1	-1.40408700E+6	1.41356800E+6	4.48200000E+3	4.67300000E+3	1.05060928E+0	1.03449120E+0	4.33256465E+3	4.51708028E+3	4.44789523E+3
9.37100000E+3	6.92034933E+1	-1.40531400E+6	1.41479000E+6	4.58700000E+3	4.77100000E+3	1.05058336E+0	1.03379776E+0	4.43703805E+3	4.61494894E+3	4.54128647E+3
9.37200000E+3	6.91872957E+1	-1.40653900E+6	1.41601100E+6	4.50300000E+3	4.68000000E+3	1.05030272E+0	1.03270592E+0	4.36038945E+3	4.53165179E+3	4.45585821E+3
9.37300000E+3	6.91711136E+1	-1.40776200E+6	1.41722900E+6	4.56400000E+3	4.76000000E+3	1.04998496E+0	1.03293440E+0	4.41848001E+3	4.60917548E+3	4.53435066E+3
9.37400000E+3	6.91549471E+1	-1.40898400E+6	1.41844600E+6	4.52800000E+3	4.71500000E+3	1.05095488E+0	1.02900352E+0	4.40037367E+3	4.58203180E+3	4.48639622E+3
9.37500000E+3	6.91387960E+1	-1.41020400E+6	1.41966100E+6	4.49000000E+3	4.69400000E+3	1.05098816E+0	1.03699776E+0	4.32980685E+3	4.52640624E+3	4.46627296E+3
9.37600000E+3	6.91226604E+1	-1.41142200E+6	1.42087400E+6	4.67700000E+3	4.86900000E+3	1.05028032E+0	1.02957632E+0	4.54264527E+3	4.72900945E+3	4.63590520E+3
9.37700000E+3	6.91065402E+1	-1.41263800E+6	1.42208600E+6	4.55400000E+3	4.74900000E+3	1.05066592E+0	1.03201696E+0	4.41271818E+3	4.60164628E+3	4.51999052E+3
9.37800000E+3	6.90904355E+1	-1.41385200E+6	1.42329500E+6	4.54000000E+3	4.75800000E+3	1.05076160E+0	1.03408864E+0	4.39033930E+3	4.60102307E+3	4.52814416E+3
9.37900000E+3	6.90743460E+1	-1.41506500E+6	1.42450300E+6	4.44900000E+3	4.64800000E+3	1.05048288E+0	1.03160960E+0	4.31267797E+3	4.50552841E+3	4.42463184E+3
9.38000000E+3	6.90582719E+1	-1.41627600E+6	1.42571000E+6	4.51800000E+3	4.70000000E+3	1.05017792E+0	1.03133728E+0	4.38072015E+3	4.55710715E+3	4.47543212E+3
9.38100000E+3	6.90422130E+1	-1.41748500E+6	1.42691400E+6	4.49300000E+3	4.67600000E+3	1.05053536E+0	1.03364704E+0	4.34674490E+3	4.52368926E+3	4.45106388E+3
9.38200000E+3	6.90261694E+1	-1.41869300E+6	1.42811700E+6	4.53600000E+3	4.71500000E+3	1.05069568E+0	1.03603776E+0	4.37821880E+3	4.55092369E+3	4.48750298E+3
9.38300000E+3	6.90101410E+1	-1.41989800E+6	1.42931800E+6	4.45300000E+3	4.64400000E+3	1.05070592E+0	1.03644224E+0	4.29642852E+3	4.48060096E+3	4.41988563E+3
9.38400000E+3	6.89941278E+1	-1.42110200E+6	1.43051700E+6	4.47200000E+3	4.67900000E+3	1.05053888E+0	1.03409408E+0	4.32455817E+3	4.52464794E+3	4.45390465E+3
9.38500000E+3	6.89781297E+1	-1.42230400E+6	1.43171400E+6	4.53400000E+3	4.70200000E+3	1.05022944E+0	1.03280320E+0	4.38999414E+3	4.55261727E+3	4.47711692E+3
9.38600000E+3	6.89621467E+1	-1.42350500E+6	1.43291000E+6	4.45300000E+3	4.61100000E+3	1.05078304E+0	1.03390592E+0	4.30696828E+3	4.45965008E+3	4.38815609E+3
9.38700000E+3	6.89461787E+1	-1.42470400E+6	1.43410400E+6	4.49200000E+3	4.68700000E+3	1.05035040E+0	1.03608320E+0	4.33555915E+3	4.52367684E+3	4.46232038E+3
9.38800000E+3	6.89302258E+1	-1.42590100E+6	1.43529600E+6	4.52000000E+3	4.68600000E+3	1.05006080E+0	1.03008544E+0	4.38798552E+3	4.54910694E+3	4.46259874E+3
9.38900000E+3	6.89142879E+1	-1.42709600E+6	1.43648700E+6	4.41900000E+3	4.60900000E+3	1.05060224E+0	1.03345920E+0	4.27593078E+3	4.45965725E+3	4.38700759E+3
9.39000000E+3	6.88983649E+1	-1.42828900E+6	1.43767600E+6	4.43100000E+3	4.61800000E+3	1.05084032E+0	1.03084032E+0	4.29843489E+3	4.47975539E+3	4.39457824E+3
9.39100000E+3	6.88824568E+1	-1.42948100E+6	1.43886300E+6	4.45700000E+3	4.64700000E+3	1.05013248E+0	1.03012416E+0	4.32666291E+3	4.51107877E+3	4.42515596E+3
9.39200000E+3	6.88665637E+1	-1.43067100E+6	1.44004900E+6	4.42400000E+3	4.59100000E+3	1.05040608E+0	1.03211872E+0	4.28632861E+3	4.44807771E+3	4.37069062E+3
9.39300000E+3	6.88506853E+1	-1.43186000E+6	1.44123200E+6	4.31400000E+3	4.49500000E+3	1.05038368E+0	1.03777312E+0	4.15697797E+3	4.33130321E+3	4.27938865E+3
9.39400000E+3	6.88348218E+1	-1.43304700E+6	1.44241400E+6	4.45400000E+3	4.61600000E+3	1.05043264E+0	1.03185248E+0	4.31650850E+3	4.47345704E+3	4.39437982E+3
9.39500000E+3	6.88189731E+1	-1.43423200E+6	1.44359500E+6	4.52200000E+3	4.71200000E+3	1.05072672E+0	1.03421440E+0	4.37240093E+3	4.55610205E+3	4.48451525E+3
9.39600000E+3	6.88031392E+1	-1.43541500E+6	1.44477300E+6	4.33600000E+3	4.52300000E+3	1.05079552E+0	1.03201728E+0	4.20148004E+3	4.38261126E+3	4.30435790E+3
9.39700000E+3	6.87873199E+1	-1.43659700E+6	1.44595000E+6	4.33800000E+3	4.54900000E+3	1.05044800E+0	1.03446688E+0	4.19346437E+3	4.39738147E+3	4.33053326E+3
9.39800000E+3	6.87715153E+1	-1.43777700E+6	1.44712600E+6	4.45500000E+3	4.67300000E+3	1.05080608E+0	1.03213088E+0	4.31631306E+3	4.52749148E+3	4.44706220E+3
9.39900000E+3	6.87557254E+1	-1.43895500E+6	1.44829900E+6	4.53500000E+3	4.71200000E+3	1.05090912E+0	1.03352064E+0	4.38791430E+3	4.55916035E+3	4.48373690E+3
9.40000000E+3	6.87399501E+1	-1.44013200E+6	1.44947100E+6	4.46400000E+3	4.65700000E+3	1.05006208E+0	1.03054176E+0	4.33170219E+3	4.51897991E+3	4.43497588E+3
