1069_I0_Cu_edge     30 scans
***************************
Energy_(eV)	theta_(deg)	source_(ustep)	detect_(ustep)	ROI_counts	total_counts	real_time	live_time	cnts_per_live	ICR_(cnts/sec)	OCR_(cnts/sec)
8.92000000E+3	7.92723267E+1	-5.42588000E+5	5.54368000E+5	1.17410000E+4	1.20630000E+4	1.05031328E+0	1.01887616E+0	1.15234809E+4	1.18391873E+4	1.14851447E+4
8.92100000E+3	7.92380699E+1	-5.45805000E+5	5.57580000E+5	1.17880000E+4	1.20920000E+4	1.05078464E+0	1.01975360E+0	1.15596552E+4	1.18577403E+4	1.15075911E+4
8.92200000E+3	7.92039294E+1	-5.49011000E+5	5.60779000E+5	1.19470000E+4	1.22730000E+4	1.05028288E+0	1.02041664E+0	1.17079627E+4	1.20273403E+4	1.16854233E+4
8.92300000E+3	7.91699042E+1	-5.52203000E+5	5.63967000E+5	1.14050000E+4	1.17300000E+4	1.05116448E+0	1.01776384E+0	1.12059395E+4	1.15250495E+4	1.11590529E+4
8.92400000E+3	7.91359931E+1	-5.55384000E+5	5.67142000E+5	1.14450000E+4	1.17510000E+4	1.05044864E+0	1.01739072E+0	1.12493654E+4	1.15500861E+4	1.11866488E+4
8.92500000E+3	7.91021951E+1	-5.58552000E+5	5.70305000E+5	1.14060000E+4	1.17310000E+4	1.05049216E+0	1.01981056E+0	1.11844302E+4	1.15029421E+4	1.11671466E+4
8.92600000E+3	7.90685091E+1	-5.61709000E+5	5.73456000E+5	1.13590000E+4	1.16980000E+4	1.05022080E+0	1.01920096E+0	1.11450052E+4	1.14774401E+4	1.11386101E+4
8.92700000E+3	7.90349341E+1	-5.64854000E+5	5.76595000E+5	1.12140000E+4	1.15680000E+4	1.05023712E+0	1.02068512E+0	1.09867380E+4	1.13333426E+4	1.10146554E+4
8.92800000E+3	7.90014690E+1	-5.67986000E+5	5.79722000E+5	1.12390000E+4	1.15600000E+4	1.05012256E+0	1.01741504E+0	1.10466226E+4	1.13618409E+4	1.10082389E+4
8.92900000E+3	7.89681128E+1	-5.71108000E+5	5.82838000E+5	1.12040000E+4	1.15110000E+4	1.05053280E+0	1.01575488E+0	1.10302202E+4	1.13322408E+4	1.09572971E+4
8.93000000E+3	7.89348645E+1	-5.74217000E+5	5.85942000E+5	1.11430000E+4	1.14400000E+4	1.05037728E+0	1.01710112E+0	1.09556462E+4	1.12473565E+4	1.08913247E+4
8.93100000E+3	7.89017231E+1	-5.77316000E+5	5.89035000E+5	1.10650000E+4	1.13700000E+4	1.05060832E+0	1.02225568E+0	1.08241022E+4	1.11222088E+4	1.08223015E+4
8.93200000E+3	7.88686878E+1	-5.80403000E+5	5.92117000E+5	1.09590000E+4	1.12820000E+4	1.05031296E+0	1.01674400E+0	1.07785244E+4	1.10961639E+4	1.07415603E+4
8.93300000E+3	7.88357574E+1	-5.83478000E+5	5.95187000E+5	1.10270000E+4	1.13600000E+4	1.04954368E+0	1.01800512E+0	1.08319691E+4	1.11588958E+4	1.08237515E+4
8.93400000E+3	7.88029311E+1	-5.86543000E+5	5.98246000E+5	1.09850000E+4	1.13180000E+4	1.05037344E+0	1.02349856E+0	1.07327948E+4	1.10581177E+4	1.07752153E+4
8.93500000E+3	7.87702079E+1	-5.89596000E+5	6.01294000E+5	1.09680000E+4	1.12580000E+4	1.04977792E+0	1.01776416E+0	1.07765634E+4	1.10612098E+4	1.07241730E+4
8.93600000E+3	7.87375870E+1	-5.92639000E+5	6.04331000E+5	1.09670000E+4	1.12900000E+4	1.04955264E+0	1.01965792E+0	1.07555679E+4	1.10722256E+4	1.07569640E+4
8.93700000E+3	7.87050674E+1	-5.95671000E+5	6.07357000E+5	1.07780000E+4	1.10600000E+4	1.04953120E+0	1.01805344E+0	1.05868706E+4	1.08635344E+4	1.05380383E+4
8.93800000E+3	7.86726483E+1	-5.98691000E+5	6.10373000E+5	1.08730000E+4	1.11910000E+4	1.05045024E+0	1.01937952E+0	1.06662924E+4	1.09781374E+4	1.06535270E+4
8.93900000E+3	7.86403288E+1	-6.01702000E+5	6.13377000E+5	1.08290000E+4	1.11260000E+4	1.05013504E+0	1.01629792E+0	1.06553401E+4	1.09474617E+4	1.05948279E+4
8.94000000E+3	7.86081080E+1	-6.04701000E+5	6.16371000E+5	1.09060000E+4	1.12240000E+4	1.05031168E+0	1.02100864E+0	1.06815942E+4	1.09927377E+4	1.06863517E+4
8.94100000E+3	7.85759850E+1	-6.07690000E+5	6.19355000E+5	1.07530000E+4	1.10150000E+4	1.05039584E+0	1.01654624E+0	1.05779743E+4	1.08363778E+4	1.04874749E+4
8.94200000E+3	7.85439592E+1	-6.10669000E+5	6.22328000E+5	1.07520000E+4	1.10540000E+4	1.05012288E+0	1.02078560E+0	1.05330639E+4	1.08287182E+4	1.05263872E+4
8.94300000E+3	7.85120295E+1	-6.13638000E+5	6.25291000E+5	1.07320000E+4	1.10420000E+4	1.05057824E+0	1.02054400E+0	1.05159601E+4	1.08193878E+4	1.05104023E+4
8.94400000E+3	7.84801952E+1	-6.16596000E+5	6.28244000E+5	1.07240000E+4	1.10220000E+4	1.05013952E+0	1.02073568E+0	1.05061479E+4	1.07978931E+4	1.04957482E+4
8.94500000E+3	7.84484556E+1	-6.19544000E+5	6.31186000E+5	1.06810000E+4	1.09950000E+4	1.05050528E+0	1.02118560E+0	1.04594111E+4	1.07668666E+4	1.04663919E+4
8.94600000E+3	7.84168098E+1	-6.22481000E+5	6.34119000E+5	1.06080000E+4	1.09330000E+4	1.04940832E+0	1.01916288E+0	1.04085424E+4	1.07274060E+4	1.04182517E+4
8.94700000E+3	7.83852570E+1	-6.25409000E+5	6.37041000E+5	1.06680000E+4	1.09800000E+4	1.05048288E+0	1.01937984E+0	1.04651864E+4	1.07710672E+4	1.04523360E+4
8.94800000E+3	7.83537965E+1	-6.28327000E+5	6.39954000E+5	1.06020000E+4	1.08870000E+4	1.04985344E+0	1.01856672E+0	1.04087438E+4	1.06883063E+4	1.03700189E+4
8.94900000E+3	7.83224276E+1	-6.31235000E+5	6.42856000E+5	1.04770000E+4	1.07800000E+4	1.05062144E+0	1.01834304E+0	1.02882816E+4	1.05857692E+4	1.02605940E+4
8.95000000E+3	7.82911494E+1	-6.34134000E+5	6.45749000E+5	1.03130000E+4	1.06110000E+4	1.04980928E+0	1.02091680E+0	1.01017047E+4	1.03935667E+4	1.01075502E+4
8.95100000E+3	7.82599613E+1	-6.37022000E+5	6.48632000E+5	1.04870000E+4	1.07620000E+4	1.05050848E+0	1.01812032E+0	1.03003543E+4	1.05701558E+4	1.02445627E+4
8.95200000E+3	7.82288625E+1	-6.39901000E+5	6.51506000E+5	1.05990000E+4	1.09010000E+4	1.05025792E+0	1.02022528E+0	1.03888820E+4	1.06848393E+4	1.03793552E+4
8.95300000E+3	7.81978523E+1	-6.42771000E+5	6.54370000E+5	1.06180000E+4	1.09360000E+4	1.05003968E+0	1.01841568E+0	1.04259982E+4	1.07381096E+4	1.04148445E+4
8.95400000E+3	7.81669300E+1	-6.45631000E+5	6.57225000E+5	1.04500000E+4	1.07220000E+4	1.05063744E+0	1.02133568E+0	1.02316997E+4	1.04977314E+4	1.02052331E+4
8.95500000E+3	7.81360949E+1	-6.48481000E+5	6.60070000E+5	1.06580000E+4	1.09800000E+4	1.04982912E+0	1.02057088E+0	1.04431747E+4	1.07584609E+4	1.04588450E+4
8.95600000E+3	7.81053463E+1	-6.51323000E+5	6.62906000E+5	1.05760000E+4	1.08950000E+4	1.05041440E+0	1.02232352E+0	1.03450618E+4	1.06569476E+4	1.03720970E+4
8.95700000E+3	7.80746835E+1	-6.54155000E+5	6.65732000E+5	1.05290000E+4	1.08020000E+4	1.04969344E+0	1.02171680E+0	1.03052039E+4	1.05722783E+4	1.02906235E+4
8.95800000E+3	7.80441059E+1	-6.56978000E+5	6.68550000E+5	1.06000000E+4	1.08900000E+4	1.05081824E+0	1.02075872E+0	1.03844325E+4	1.06684762E+4	1.03633527E+4
8.95900000E+3	7.80136129E+1	-6.59791000E+5	6.71358000E+5	1.05600000E+4	1.08520000E+4	1.05058080E+0	1.01996512E+0	1.03532952E+4	1.06393059E+4	1.03295244E+4
8.96000000E+3	7.79832037E+1	-6.62596000E+5	6.74157000E+5	1.05110000E+4	1.08130000E+4	1.05016224E+0	1.02107168E+0	1.02940863E+4	1.05896727E+4	1.02965043E+4
8.96100000E+3	7.79528777E+1	-6.65392000E+5	6.76947000E+5	1.06010000E+4	1.08930000E+4	1.05015648E+0	1.02142400E+0	1.03786478E+4	1.06644796E+4	1.03727399E+4
8.96200000E+3	7.79226342E+1	-6.68178000E+5	6.79729000E+5	1.08550000E+4	1.11600000E+4	1.05034560E+0	1.01951424E+0	1.06472274E+4	1.09463648E+4	1.06250743E+4
8.96300000E+3	7.78924728E+1	-6.70956000E+5	6.82501000E+5	1.04850000E+4	1.07820000E+4	1.05056352E+0	1.01797472E+0	1.02998628E+4	1.05915803E+4	1.02630634E+4
8.96400000E+3	7.78623926E+1	-6.73726000E+5	6.85265000E+5	1.04110000E+4	1.07180000E+4	1.04979584E+0	1.01919392E+0	1.02149353E+4	1.05161359E+4	1.02096042E+4
8.96500000E+3	7.78323932E+1	-6.76486000E+5	6.88020000E+5	1.04560000E+4	1.07730000E+4	1.05107104E+0	1.02146592E+0	1.02362691E+4	1.05465645E+4	1.02495451E+4
8.96600000E+3	7.78024739E+1	-6.79238000E+5	6.90766000E+5	1.04110000E+4	1.07110000E+4	1.04944832E+0	1.01993568E+0	1.02075064E+4	1.05015363E+4	1.02063149E+4
8.96700000E+3	7.77726341E+1	-6.81981000E+5	6.93504000E+5	1.05340000E+4	1.08280000E+4	1.04958272E+0	1.01868000E+0	1.03408332E+4	1.06292842E+4	1.03164808E+4
8.96800000E+3	7.77428733E+1	-6.84716000E+5	6.96233000E+5	1.04810000E+4	1.07560000E+4	1.05020480E+0	1.01926368E+0	1.02829132E+4	1.05525077E+4	1.02418119E+4
8.96900000E+3	7.77131908E+1	-6.87442000E+5	6.98954000E+5	1.06440000E+4	1.09160000E+4	1.05081504E+0	1.01787200E+0	1.04571105E+4	1.07240179E+4	1.03881269E+4
8.97000000E+3	7.76835861E+1	-6.90159000E+5	7.01666000E+5	5.06830000E+4	5.20770000E+4	5.05030176E+0	4.90477280E+0	1.03334042E+4	1.06175021E+4	1.03116611E+4
8.97050000E+3	7.76688127E+1	-6.91515000E+5	7.03019000E+5	5.04430000E+4	5.18590000E+4	5.04980576E+0	4.90526464E+0	1.02834411E+4	1.05720341E+4	1.02695039E+4
8.97100000E+3	7.76540586E+1	-6.92869000E+5	7.04370000E+5	5.08870000E+4	5.22970000E+4	5.05019104E+0	4.91082912E+0	1.03622013E+4	1.06494691E+4	1.03554498E+4
8.97150000E+3	7.76393237E+1	-6.94220000E+5	7.05719000E+5	5.05590000E+4	5.19200000E+4	5.05005504E+0	4.90868896E+0	1.02998989E+4	1.05769061E+4	1.02810761E+4
8.97200000E+3	7.76246078E+1	-6.95570000E+5	7.07066000E+5	5.05650000E+4	5.19700000E+4	5.04913920E+0	4.90594336E+0	1.03068862E+4	1.05932762E+4	1.02928436E+4
8.97250000E+3	7.76099109E+1	-6.96917000E+5	7.08411000E+5	5.06310000E+4	5.21130000E+4	5.05048096E+0	4.90728128E+0	1.03175256E+4	1.06193114E+4	1.03184232E+4
8.97300000E+3	7.75952330E+1	-6.98263000E+5	7.09753000E+5	5.10520000E+4	5.24170000E+4	5.05061280E+0	4.90357120E+0	1.04111877E+4	1.06897134E+4	1.03783446E+4
8.97350000E+3	7.75805740E+1	-6.99606000E+5	7.11094000E+5	5.09280000E+4	5.23470000E+4	5.04973472E+0	4.90174176E+0	1.03897762E+4	1.06791577E+4	1.03662871E+4
8.97400000E+3	7.75659338E+1	-7.00947000E+5	7.12433000E+5	5.12910000E+4	5.26780000E+4	5.04987392E+0	4.90809184E+0	1.04502934E+4	1.07328137E+4	1.04315476E+4
8.97450000E+3	7.75513124E+1	-7.02287000E+5	7.13769000E+5	5.21640000E+4	5.36360000E+4	5.04952608E+0	4.90390976E+0	1.06372267E+4	1.09371270E+4	1.06219869E+4
8.97500000E+3	7.75367097E+1	-7.03624000E+5	7.15104000E+5	5.18170000E+4	5.32110000E+4	5.04981312E+0	4.89832448E+0	1.05785152E+4	1.08634646E+4	1.05374197E+4
8.97550000E+3	7.75221255E+1	-7.04959000E+5	7.16436000E+5	5.16410000E+4	5.30470000E+4	5.05023808E+0	4.90498144E+0	1.05282763E+4	1.08149050E+4	1.05038612E+4
8.97600000E+3	7.75075600E+1	-7.06292000E+5	7.17767000E+5	5.14510000E+4	5.28320000E+4	5.05076064E+0	4.90306048E+0	1.04936499E+4	1.07752582E+4	1.04602066E+4
8.97650000E+3	7.74930129E+1	-7.07624000E+5	7.19095000E+5	5.21220000E+4	5.35020000E+4	5.05016960E+0	4.90559072E+0	1.06250201E+4	1.09060620E+4	1.05940997E+4
8.97700000E+3	7.74784842E+1	-7.08953000E+5	7.20422000E+5	5.14330000E+4	5.28650000E+4	5.05046752E+0	4.90977376E+0	1.04756354E+4	1.07673660E+4	1.04673478E+4
8.97750000E+3	7.74639739E+1	-7.10280000E+5	7.21747000E+5	5.11470000E+4	5.25350000E+4	5.05042048E+0	4.90256448E+0	1.04327032E+4	1.07157708E+4	1.04021042E+4
8.97800000E+3	7.74494819E+1	-7.11605000E+5	7.23069000E+5	5.11110000E+4	5.25340000E+4	5.04938944E+0	4.90087168E+0	1.04289611E+4	1.07191207E+4	1.04040302E+4
8.97850000E+3	7.74350081E+1	-7.12929000E+5	7.24390000E+5	5.08430000E+4	5.22590000E+4	5.04889568E+0	4.89394112E+0	1.03889685E+4	1.06781703E+4	1.03505803E+4
8.97900000E+3	7.74205525E+1	-7.14250000E+5	7.25708000E+5	5.03040000E+4	5.16670000E+4	5.05039776E+0	4.90606176E+0	1.02534380E+4	1.05310726E+4	1.02302833E+4
8.97950000E+3	7.74061150E+1	-7.15569000E+5	7.27025000E+5	4.99460000E+4	5.13220000E+4	5.04897248E+0	4.90629824E+0	1.01799763E+4	1.04603341E+4	1.01648405E+4
8.98000000E+3	7.73916955E+1	-7.16887000E+5	7.28340000E+5	5.00670000E+4	5.14490000E+4	5.04962048E+0	4.90796768E+0	1.02011674E+4	1.04827484E+4	1.01886865E+4
8.98050000E+3	7.73772940E+1	-7.18202000E+5	7.29652000E+5	5.00080000E+4	5.13300000E+4	5.05015104E+0	4.90722656E+0	1.01906850E+4	1.04600633E+4	1.01640524E+4
8.98100000E+3	7.73629105E+1	-7.19516000E+5	7.30963000E+5	4.99000000E+4	5.12720000E+4	5.05020576E+0	4.90470624E+0	1.01739019E+4	1.04535124E+4	1.01524576E+4
8.98150000E+3	7.73485447E+1	-7.20827000E+5	7.32272000E+5	5.00080000E+4	5.13510000E+4	5.04944352E+0	4.90730528E+0	1.01905215E+4	1.04639354E+4	1.01696355E+4
8.98200000E+3	7.73341968E+1	-7.22137000E+5	7.33579000E+5	4.97160000E+4	5.10650000E+4	5.04949504E+0	4.91269120E+0	1.01199115E+4	1.03944709E+4	1.01128924E+4
8.98250000E+3	7.73198666E+1	-7.23445000E+5	7.34884000E+5	4.95870000E+4	5.09800000E+4	5.04973088E+0	4.90089312E+0	1.01179517E+4	1.04022105E+4	1.00955875E+4
8.98300000E+3	7.73055540E+1	-7.24750000E+5	7.36187000E+5	4.93910000E+4	5.07190000E+4	5.04950144E+0	4.90616832E+0	1.00671230E+4	1.03377704E+4	1.00443580E+4
8.98350000E+3	7.72912591E+1	-7.26054000E+5	7.37488000E+5	4.95550000E+4	5.09910000E+4	5.04962496E+0	4.90607744E+0	1.01007374E+4	1.03933623E+4	1.00979777E+4
8.98400000E+3	7.72769817E+1	-7.27356000E+5	7.38787000E+5	4.91430000E+4	5.04550000E+4	5.04989952E+0	4.90552640E+0	1.00178851E+4	1.02852831E+4	9.99128791E+3
8.98450000E+3	7.72627218E+1	-7.28656000E+5	7.40085000E+5	4.92020000E+4	5.05750000E+4	5.04905504E+0	4.90686144E+0	1.00271835E+4	1.03070274E+4	1.00167258E+4
8.98500000E+3	7.72484794E+1	-7.29954000E+5	7.41380000E+5	4.91020000E+4	5.04310000E+4	5.04974272E+0	4.90697728E+0	1.00065676E+4	1.02771991E+4	9.98684543E+3
8.98550000E+3	7.72342543E+1	-7.31251000E+5	7.42674000E+5	4.90280000E+4	5.03910000E+4	5.04917024E+0	4.90598688E+0	9.99350410E+3	1.02713578E+4	9.98005565E+3
8.98600000E+3	7.72200465E+1	-7.32545000E+5	7.43966000E+5	4.88080000E+4	5.02620000E+4	5.04943904E+0	4.91237504E+0	9.93572347E+3	1.02318583E+4	9.95397699E+3
8.98650000E+3	7.72058559E+1	-7.33838000E+5	7.45255000E+5	4.87110000E+4	5.00500000E+4	5.04931072E+0	4.91202528E+0	9.91668349E+3	1.01892051E+4	9.91224402E+3
8.98700000E+3	7.71916826E+1	-7.35128000E+5	7.46543000E+5	4.86470000E+4	5.00370000E+4	5.04868064E+0	4.91478944E+0	9.89808426E+3	1.01807973E+4	9.91090615E+3
8.98750000E+3	7.71775264E+1	-7.36417000E+5	7.47830000E+5	4.84080000E+4	4.98170000E+4	5.04897984E+0	4.90197472E+0	9.87520393E+3	1.01623692E+4	9.86674568E+3
8.98800000E+3	7.71633873E+1	-7.37704000E+5	7.49114000E+5	4.84970000E+4	4.98470000E+4	5.05032704E+0	4.91001344E+0	9.87716237E+3	1.01521082E+4	9.87025189E+3
8.98850000E+3	7.71492652E+1	-7.38989000E+5	7.50396000E+5	4.87780000E+4	5.01390000E+4	5.04942208E+0	4.90574784E+0	9.94303042E+3	1.02205210E+4	9.92965120E+3
8.98900000E+3	7.71351600E+1	-7.40272000E+5	7.51677000E+5	4.82970000E+4	4.96440000E+4	5.05012992E+0	4.90559008E+0	9.84529877E+3	1.01197946E+4	9.83024215E+3
8.98950000E+3	7.71210718E+1	-7.41554000E+5	7.52956000E+5	4.86010000E+4	4.99260000E+4	5.05027648E+0	4.90673376E+0	9.90495967E+3	1.01748474E+4	9.88579540E+3
8.99000000E+3	7.71070004E+1	-7.42833000E+5	7.54232000E+5	4.79140000E+4	4.92430000E+4	5.04892672E+0	4.91034752E+0	9.75776150E+3	1.00285158E+4	9.75336002E+3
8.99050000E+3	7.70929459E+1	-7.44111000E+5	7.55507000E+5	4.83470000E+4	4.96920000E+4	5.04871872E+0	4.90919936E+0	9.84824540E+3	1.01222194E+4	9.84249723E+3
8.99100000E+3	7.70789080E+1	-7.45387000E+5	7.56781000E+5	4.83270000E+4	4.97220000E+4	5.04907168E+0	4.91068384E+0	9.84119556E+3	1.01252299E+4	9.84775086E+3
8.99150000E+3	7.70648869E+1	-7.46661000E+5	7.58052000E+5	4.79540000E+4	4.93190000E+4	5.04934144E+0	4.91024352E+0	9.76611441E+3	1.00441492E+4	9.76741236E+3
8.99200000E+3	7.70508824E+1	-7.47933000E+5	7.59322000E+5	4.80850000E+4	4.94220000E+4	5.04883904E+0	4.90922464E+0	9.79482577E+3	1.00669323E+4	9.78878503E+3
8.99250000E+3	7.70368944E+1	-7.49204000E+5	7.60590000E+5	4.82110000E+4	4.96380000E+4	5.04897216E+0	4.91052224E+0	9.81789668E+3	1.01086866E+4	9.83130792E+3
8.99300000E+3	7.70229230E+1	-7.50473000E+5	7.61856000E+5	4.79580000E+4	4.93220000E+4	5.05012064E+0	4.91632128E+0	9.75485475E+3	1.00322987E+4	9.76649936E+3
8.99350000E+3	7.70089681E+1	-7.51740000E+5	7.63120000E+5	4.79930000E+4	4.93510000E+4	5.05004480E+0	4.91230656E+0	9.76995214E+3	1.00463164E+4	9.77238855E+3
8.99400000E+3	7.69950295E+1	-7.53005000E+5	7.64382000E+5	4.75170000E+4	4.88730000E+4	5.04933696E+0	4.91060704E+0	9.67640042E+3	9.95268143E+3	9.67909260E+3
8.99450000E+3	7.69811073E+1	-7.54268000E+5	7.65643000E+5	4.72280000E+4	4.86020000E+4	5.04945472E+0	4.91305568E+0	9.61275489E+3	9.89255745E+3	9.62539575E+3
8.99500000E+3	7.69672015E+1	-7.55530000E+5	7.66902000E+5	4.74220000E+4	4.87890000E+4	5.04924896E+0	4.91546432E+0	9.64751179E+3	9.92560270E+3	9.66262515E+3
8.99550000E+3	7.69533119E+1	-7.56789000E+5	7.68159000E+5	4.74640000E+4	4.87360000E+4	5.05024544E+0	4.90702912E+0	9.67265505E+3	9.93184037E+3	9.65022405E+3
8.99600000E+3	7.69394385E+1	-7.58047000E+5	7.69414000E+5	4.77350000E+4	4.91120000E+4	5.04992000E+0	4.91400064E+0	9.71408095E+3	9.99401146E+3	9.72530258E+3
8.99650000E+3	7.69255812E+1	-7.59304000E+5	7.70668000E+5	4.73160000E+4	4.87040000E+4	5.05008224E+0	4.91285184E+0	9.63106594E+3	9.91332907E+3	9.64419938E+3
8.99700000E+3	7.69117400E+1	-7.60558000E+5	7.71920000E+5	4.75230000E+4	4.88520000E+4	5.04892288E+0	4.91501504E+0	9.66894295E+3	9.93922719E+3	9.67572711E+3
8.99750000E+3	7.68979149E+1	-7.61811000E+5	7.73170000E+5	4.69410000E+4	4.82970000E+4	5.04951008E+0	4.90691584E+0	9.56629409E+3	9.84277452E+3	9.56469028E+3
8.99800000E+3	7.68841058E+1	-7.63062000E+5	7.74418000E+5	4.64800000E+4	4.77710000E+4	5.04924384E+0	4.90832128E+0	9.46963276E+3	9.73270577E+3	9.46102060E+3
8.99850000E+3	7.68703126E+1	-7.64311000E+5	7.75665000E+5	4.65600000E+4	4.78930000E+4	5.04941728E+0	4.91327808E+0	9.47636166E+3	9.74745661E+3	9.48485683E+3
8.99900000E+3	7.68565354E+1	-7.65559000E+5	7.76910000E+5	4.69430000E+4	4.82940000E+4	5.04859168E+0	4.91525408E+0	9.55047272E+3	9.82531520E+3	9.56583599E+3
8.99950000E+3	7.68427739E+1	-7.66805000E+5	7.78153000E+5	4.71790000E+4	4.84640000E+4	5.04901088E+0	4.91308672E+0	9.60272079E+3	9.86423935E+3	9.59890980E+3
9.00000000E+3	7.68290283E+1	-7.68049000E+5	7.79394000E+5	4.69460000E+4	4.82310000E+4	5.05003776E+0	4.91294976E+0	9.55556281E+3	9.81715369E+3	9.55062166E+3
9.00050000E+3	7.68152984E+1	-7.69291000E+5	7.80634000E+5	4.69650000E+4	4.82950000E+4	5.04938336E+0	4.91942400E+0	9.54684939E+3	9.81715374E+3	9.56453423E+3
9.00100000E+3	7.68015842E+1	-7.70532000E+5	7.81872000E+5	4.71670000E+4	4.84910000E+4	5.04965120E+0	4.92092096E+0	9.58499443E+3	9.85374759E+3	9.60284148E+3
9.00150000E+3	7.67878856E+1	-7.71771000E+5	7.83108000E+5	4.70000000E+4	4.82740000E+4	5.04995264E+0	4.91329920E+0	9.56587378E+3	9.82531839E+3	9.55929757E+3
9.00200000E+3	7.67742026E+1	-7.73008000E+5	7.84343000E+5	4.68680000E+4	4.81730000E+4	5.04954976E+0	4.90387872E+0	9.55733261E+3	9.82342103E+3	9.54005848E+3
9.00250000E+3	7.67605352E+1	-7.74244000E+5	7.85576000E+5	4.68430000E+4	4.82380000E+4	5.04942912E+0	4.91045472E+0	9.53944241E+3	9.82350757E+3	9.55315915E+3
9.00300000E+3	7.67468833E+1	-7.75478000E+5	7.86807000E+5	4.65450000E+4	4.78670000E+4	5.04972352E+0	4.91468864E+0	9.47058978E+3	9.73943345E+3	9.47913283E+3
9.00350000E+3	7.67332468E+1	-7.76710000E+5	7.88036000E+5	4.66890000E+4	4.80340000E+4	5.05039488E+0	4.90689952E+0	9.51496965E+3	9.78923569E+3	9.51113747E+3
9.00400000E+3	7.67196257E+1	-7.77940000E+5	7.89264000E+5	4.69720000E+4	4.82870000E+4	5.04963904E+0	4.92331424E+0	9.54072759E+3	9.80792487E+3	9.56246568E+3
9.00450000E+3	7.67060200E+1	-7.79169000E+5	7.90490000E+5	4.68180000E+4	4.81460000E+4	5.04912864E+0	4.90786656E+0	9.53937916E+3	9.81002777E+3	9.53550670E+3
9.00500000E+3	7.66924295E+1	-7.80396000E+5	7.91715000E+5	4.65310000E+4	4.78550000E+4	5.04990176E+0	4.91826240E+0	9.46086162E+3	9.72982803E+3	9.47642197E+3
9.00550000E+3	7.66788544E+1	-7.81622000E+5	7.92938000E+5	4.66570000E+4	4.79430000E+4	5.04958496E+0	4.91740864E+0	9.48812747E+3	9.74975755E+3	9.49464171E+3
9.00600000E+3	7.66652944E+1	-7.82846000E+5	7.94159000E+5	4.66290000E+4	4.80030000E+4	5.04950752E+0	4.90745856E+0	9.50165945E+3	9.78191206E+3	9.50666967E+3
9.00650000E+3	7.66517496E+1	-7.84068000E+5	7.95378000E+5	4.63140000E+4	4.76400000E+4	5.04950528E+0	4.91562080E+0	9.42180080E+3	9.69148500E+3	9.43458762E+3
9.00700000E+3	7.66382199E+1	-7.85288000E+5	7.96596000E+5	4.61300000E+4	4.74560000E+4	5.04936352E+0	4.90615104E+0	9.40248264E+3	9.67267142E+3	9.39841226E+3
9.00750000E+3	7.66247053E+1	-7.86507000E+5	7.97812000E+5	4.63790000E+4	4.76990000E+4	5.04894208E+0	4.91479072E+0	9.43661748E+3	9.70528338E+3	9.44732565E+3
9.00800000E+3	7.66112057E+1	-7.87724000E+5	7.99027000E+5	4.63910000E+4	4.77260000E+4	5.04889664E+0	4.91370496E+0	9.44114479E+3	9.71275298E+3	9.45275838E+3
9.00850000E+3	7.65977211E+1	-7.88940000E+5	8.00240000E+5	4.62030000E+4	4.75470000E+4	5.04998816E+0	4.91184832E+0	9.40643867E+3	9.67990448E+3	9.41526960E+3
9.00900000E+3	7.65842514E+1	-7.90154000E+5	8.01451000E+5	4.59300000E+4	4.72190000E+4	5.05015296E+0	4.91959232E+0	9.33613946E+3	9.59820334E+3	9.35001383E+3
9.00950000E+3	7.65707966E+1	-7.91366000E+5	8.02661000E+5	4.57220000E+4	4.70570000E+4	5.05027904E+0	4.91955616E+0	9.29392785E+3	9.56522057E+3	9.31770297E+3
9.01000000E+3	7.65573566E+1	-7.92577000E+5	8.03869000E+5	4.59080000E+4	4.72080000E+4	5.04958784E+0	4.91622656E+0	9.33805622E+3	9.60225340E+3	9.34888183E+3
9.01050000E+3	7.65439315E+1	-7.93786000E+5	8.05075000E+5	4.60440000E+4	4.73850000E+4	5.05015104E+0	4.90844800E+0	9.38056184E+3	9.65384012E+3	9.38288768E+3
9.01100000E+3	7.65305210E+1	-7.94994000E+5	8.06280000E+5	4.53130000E+4	4.66000000E+4	5.04958656E+0	4.91630976E+0	9.21687245E+3	9.47840442E+3	9.22847830E+3
9.01150000E+3	7.65171253E+1	-7.96200000E+5	8.07483000E+5	4.59720000E+4	4.72360000E+4	5.04964544E+0	4.91685504E+0	9.34987906E+3	9.60688978E+3	9.35432013E+3
9.01200000E+3	7.65037443E+1	-7.97404000E+5	8.08685000E+5	4.60370000E+4	4.72460000E+4	5.04971936E+0	4.91812960E+0	9.36067240E+3	9.60630309E+3	9.35616351E+3
9.01250000E+3	7.64903779E+1	-7.98607000E+5	8.09885000E+5	4.61190000E+4	4.73880000E+4	5.04879776E+0	4.91753056E+0	9.37848773E+3	9.63664705E+3	9.38599688E+3
9.01300000E+3	7.64770260E+1	-7.99808000E+5	8.11084000E+5	4.60800000E+4	4.73800000E+4	5.04978944E+0	4.91356320E+0	9.37812299E+3	9.64284664E+3	9.38256942E+3
9.01350000E+3	7.64636887E+1	-8.01007000E+5	8.12280000E+5	4.60610000E+4	4.73300000E+4	5.04896320E+0	4.91159712E+0	9.37800859E+3	9.63643059E+3	9.37420182E+3
9.01400000E+3	7.64503658E+1	-8.02205000E+5	8.13476000E+5	4.60680000E+4	4.74010000E+4	5.04994944E+0	4.91530496E+0	9.37235845E+3	9.64363653E+3	9.38643061E+3
9.01450000E+3	7.64370574E+1	-8.03401000E+5	8.14669000E+5	4.57080000E+4	4.70390000E+4	5.04993376E+0	4.91494752E+0	9.29979411E+3	9.57077537E+3	9.31477565E+3
9.01500000E+3	7.64237634E+1	-8.04596000E+5	8.15861000E+5	4.55880000E+4	4.68710000E+4	5.04929248E+0	4.90311424E+0	9.29776419E+3	9.55935869E+3	9.28268667E+3
9.01550000E+3	7.64104838E+1	-8.05789000E+5	8.17052000E+5	4.56380000E+4	4.69070000E+4	5.04931040E+0	4.90865088E+0	9.29746301E+3	9.55617061E+3	9.28978341E+3
9.01600000E+3	7.63972184E+1	-8.06981000E+5	8.18241000E+5	4.59300000E+4	4.72020000E+4	5.04944000E+0	4.91845056E+0	9.33830674E+3	9.59673894E+3	9.34796730E+3
9.01650000E+3	7.63839674E+1	-8.08171000E+5	8.19428000E+5	4.55020000E+4	4.68080000E+4	5.04996608E+0	4.91392064E+0	9.25981580E+3	9.52551674E+3	9.26897315E+3
9.01700000E+3	7.63707305E+1	-8.09360000E+5	8.20614000E+5	4.55630000E+4	4.68050000E+4	5.04843968E+0	4.90395680E+0	9.29106880E+3	9.54442511E+3	9.27118139E+3
9.01750000E+3	7.63575079E+1	-8.10547000E+5	8.21798000E+5	4.57500000E+4	4.70130000E+4	5.04860448E+0	4.91496192E+0	9.30831220E+3	9.56519423E+3	9.31207826E+3
9.01800000E+3	7.63442994E+1	-8.11732000E+5	8.22981000E+5	4.55960000E+4	4.68820000E+4	5.04939584E+0	4.91403712E+0	9.27872519E+3	9.54057978E+3	9.28467513E+3
9.01850000E+3	7.63311050E+1	-8.12916000E+5	8.24162000E+5	4.52080000E+4	4.65060000E+4	5.04880320E+0	4.92493792E+0	9.17940505E+3	9.44303495E+3	9.21129190E+3
9.01900000E+3	7.63179247E+1	-8.14098000E+5	8.25342000E+5	4.48130000E+4	4.60680000E+4	5.05005664E+0	4.91393728E+0	9.11957102E+3	9.37491941E+3	9.12227392E+3
9.01950000E+3	7.63047584E+1	-8.15279000E+5	8.26520000E+5	4.54210000E+4	4.67080000E+4	5.05003776E+0	4.91429216E+0	9.24263323E+3	9.50464805E+3	9.24903975E+3
9.02000000E+3	7.62916060E+1	-8.16458000E+5	8.27697000E+5	4.48130000E+4	4.60480000E+4	5.04965024E+0	4.91375040E+0	9.11991785E+3	9.37140029E+3	9.11904742E+3
9.02050000E+3	7.62784677E+1	-8.17636000E+5	8.28872000E+5	4.51150000E+4	4.64040000E+4	5.04920288E+0	4.91386400E+0	9.18116578E+3	9.44354345E+3	9.19036155E+3
9.02100000E+3	7.62653432E+1	-8.18812000E+5	8.30045000E+5	4.51000000E+4	4.64180000E+4	5.04865664E+0	4.90850304E+0	9.18813733E+3	9.45670145E+3	9.19412892E+3
9.02150000E+3	7.62522325E+1	-8.19987000E+5	8.31217000E+5	4.51130000E+4	4.64070000E+4	5.04981056E+0	4.92070592E+0	9.16799352E+3	9.43088295E+3	9.18984969E+3
9.02200000E+3	7.62391357E+1	-8.21160000E+5	8.32388000E+5	4.52320000E+4	4.65500000E+4	5.04855904E+0	4.91470368E+0	9.20340329E+3	9.47128946E+3	9.22045273E+3
9.02250000E+3	7.62260527E+1	-8.22332000E+5	8.33557000E+5	4.48610000E+4	4.61340000E+4	5.04892480E+0	4.90962528E+0	9.13735722E+3	9.39646027E+3	9.13739099E+3
9.02300000E+3	7.62129834E+1	-8.23502000E+5	8.34724000E+5	4.45980000E+4	4.58770000E+4	5.04919776E+0	4.91216992E+0	9.07908332E+3	9.33943808E+3	9.08599785E+3
9.02350000E+3	7.61999278E+1	-8.24671000E+5	8.35890000E+5	4.45110000E+4	4.57960000E+4	5.05001664E+0	4.91752032E+0	9.05151318E+3	9.31260598E+3	9.06848497E+3
9.02400000E+3	7.61868859E+1	-8.25838000E+5	8.37055000E+5	4.42250000E+4	4.55840000E+4	5.04865056E+0	4.92169952E+0	8.98571719E+3	9.26190294E+3	9.02894733E+3
9.02450000E+3	7.61738576E+1	-8.27003000E+5	8.38218000E+5	4.41490000E+4	4.53980000E+4	5.04859264E+0	4.92133632E+0	8.97093739E+3	9.22479441E+3	8.99220897E+3
9.02500000E+3	7.61608428E+1	-8.28168000E+5	8.39379000E+5	4.42380000E+4	4.54630000E+4	5.04893984E+0	4.91176256E+0	9.00654286E+3	9.25575195E+3	9.00446459E+3
9.02550000E+3	7.61478417E+1	-8.29330000E+5	8.40540000E+5	4.41220000E+4	4.54050000E+4	5.04872992E+0	4.91706336E+0	8.97324211E+3	9.23406595E+3	8.99335095E+3
9.02600000E+3	7.61348540E+1	-8.30491000E+5	8.41698000E+5	4.42760000E+4	4.55230000E+4	5.04949376E+0	4.92594976E+0	8.98831741E+3	9.24126822E+3	9.01535920E+3
9.02650000E+3	7.61218798E+1	-8.31651000E+5	8.42855000E+5	4.40410000E+4	4.52560000E+4	5.05015008E+0	4.91893312E+0	8.95336426E+3	9.20020328E+3	8.96131784E+3
9.02700000E+3	7.61089190E+1	-8.32809000E+5	8.44011000E+5	4.42700000E+4	4.55160000E+4	5.04975488E+0	4.92068928E+0	8.99670706E+3	9.24997575E+3	9.01350681E+3
9.02750000E+3	7.60959716E+1	-8.33966000E+5	8.45165000E+5	4.38210000E+4	4.50840000E+4	5.04886240E+0	4.91696160E+0	8.91221115E+3	9.16885617E+3	8.92953629E+3
9.02800000E+3	7.60830375E+1	-8.35122000E+5	8.46318000E+5	4.39260000E+4	4.52650000E+4	5.05016416E+0	4.92223168E+0	8.92400091E+3	9.19619145E+3	8.96307497E+3
9.02850000E+3	7.60701168E+1	-8.36275000E+5	8.47469000E+5	4.39810000E+4	4.53010000E+4	5.04892896E+0	4.91895232E+0	8.94113159E+3	9.20956569E+3	8.97239798E+3
9.02900000E+3	7.60572094E+1	-8.37428000E+5	8.48619000E+5	4.40410000E+4	4.52900000E+4	5.04980640E+0	4.91883968E+0	8.95353434E+3	9.20730543E+3	8.96866066E+3
9.02950000E+3	7.60443152E+1	-8.38579000E+5	8.49767000E+5	4.40150000E+4	4.52550000E+4	5.04933184E+0	4.91417888E+0	8.95673541E+3	9.20902341E+3	8.96257197E+3
9.03000000E+3	7.60314341E+1	-8.39728000E+5	8.50914000E+5	4.40510000E+4	4.53110000E+4	5.05094464E+0	4.91576096E+0	8.96117618E+3	9.21751222E+3	8.97079719E+3
9.03050000E+3	7.60185663E+1	-8.40876000E+5	8.52059000E+5	4.41340000E+4	4.53970000E+4	5.04844256E+0	4.92582848E+0	8.95971108E+3	9.21608546E+3	8.99227820E+3
9.03100000E+3	7.60057116E+1	-8.42023000E+5	8.53203000E+5	4.43750000E+4	4.56200000E+4	5.05002432E+0	4.91606336E+0	9.02653134E+3	9.27988579E+3	9.03361986E+3
9.03150000E+3	7.59928700E+1	-8.43168000E+5	8.54346000E+5	4.40320000E+4	4.53180000E+4	5.04878464E+0	4.92522272E+0	8.94010332E+3	9.20139900E+3	8.97602160E+3
9.03200000E+3	7.59800414E+1	-8.44312000E+5	8.55487000E+5	4.42570000E+4	4.55230000E+4	5.04936288E+0	4.91446048E+0	9.00546462E+3	9.26311995E+3	9.01559287E+3
9.03250000E+3	7.59672258E+1	-8.45454000E+5	8.56626000E+5	4.41060000E+4	4.53570000E+4	5.04972192E+0	4.91938112E+0	8.96576194E+3	9.22005808E+3	8.98207876E+3
9.03300000E+3	7.59544233E+1	-8.46595000E+5	8.57765000E+5	4.39950000E+4	4.53040000E+4	5.04883584E+0	4.92276352E+0	8.93705331E+3	9.20267798E+3	8.97315766E+3
9.03350000E+3	7.59416337E+1	-8.47735000E+5	8.58901000E+5	4.44970000E+4	4.57550000E+4	5.04988320E+0	4.92454816E+0	9.03575284E+3	9.29123693E+3	9.06060560E+3
9.03400000E+3	7.59288569E+1	-8.48873000E+5	8.60037000E+5	4.42870000E+4	4.55400000E+4	5.04871168E+0	4.91969376E+0	9.00198308E+3	9.25644873E+3	9.02012293E+3
9.03450000E+3	7.59160931E+1	-8.50009000E+5	8.61171000E+5	4.40280000E+4	4.52470000E+4	5.04996032E+0	4.91824320E+0	8.95197700E+3	9.19972756E+3	8.95987238E+3
9.03500000E+3	7.59033421E+1	-8.51144000E+5	8.62303000E+5	4.44400000E+4	4.56530000E+4	5.04918848E+0	4.91790304E+0	9.03637173E+3	9.28297968E+3	9.04165099E+3
9.03550000E+3	7.58906039E+1	-8.52278000E+5	8.63434000E+5	4.40380000E+4	4.53090000E+4	5.05010944E+0	4.92336800E+0	8.94468990E+3	9.20262964E+3	8.97188478E+3
9.03600000E+3	7.58778785E+1	-8.53411000E+5	8.64564000E+5	4.38220000E+4	4.51180000E+4	5.04945248E+0	4.92297280E+0	8.90153202E+3	9.16463506E+3	8.93522618E+3
9.03650000E+3	7.58651658E+1	-8.54542000E+5	8.65693000E+5	4.36480000E+4	4.49080000E+4	5.05072704E+0	4.92432096E+0	8.86376017E+3	9.11965405E+3	8.89159118E+3
9.03700000E+3	7.58524659E+1	-8.55671000E+5	8.66820000E+5	4.38620000E+4	4.50910000E+4	5.04956320E+0	4.91570528E+0	8.92282948E+3	9.17263244E+3	8.92968326E+3
9.03750000E+3	7.58397785E+1	-8.56799000E+5	8.67945000E+5	4.37740000E+4	4.49840000E+4	5.04993920E+0	4.91876640E+0	8.89938583E+3	9.14533153E+3	8.90783002E+3
9.03800000E+3	7.58271039E+1	-8.57926000E+5	8.69069000E+5	4.39590000E+4	4.51890000E+4	5.04937888E+0	4.91528224E+0	8.94333181E+3	9.19357998E+3	8.94941756E+3
9.03850000E+3	7.58144418E+1	-8.59052000E+5	8.70192000E+5	4.37920000E+4	4.50320000E+4	5.04998496E+0	4.92428160E+0	8.89307386E+3	9.14468533E+3	8.91725428E+3
9.03900000E+3	7.58017922E+1	-8.60176000E+5	8.71314000E+5	4.35730000E+4	4.47740000E+4	5.04994880E+0	4.91795616E+0	8.85998138E+3	9.10431877E+3	8.86622851E+3
9.03950000E+3	7.57891552E+1	-8.61298000E+5	8.72434000E+5	4.37450000E+4	4.50710000E+4	5.04951552E+0	4.92477568E+0	8.88263808E+3	9.15207960E+3	8.92580681E+3
9.04000000E+3	7.57765307E+1	-8.62420000E+5	8.73552000E+5	4.33860000E+4	4.46500000E+4	5.04984608E+0	4.92926688E+0	8.80171455E+3	9.05811195E+3	8.84185365E+3
9.04050000E+3	7.57639187E+1	-8.63540000E+5	8.74670000E+5	4.34240000E+4	4.46790000E+4	5.05001152E+0	4.91342464E+0	8.83782762E+3	9.09296736E+3	8.84730655E+3
9.04100000E+3	7.57513191E+1	-8.64658000E+5	8.75785000E+5	4.37480000E+4	4.50430000E+4	5.04974592E+0	4.91981184E+0	8.89220999E+3	9.15540177E+3	8.91985472E+3
9.04150000E+3	7.57387319E+1	-8.65775000E+5	8.76900000E+5	4.33400000E+4	4.46220000E+4	5.05016896E+0	4.92272608E+0	8.80406492E+3	9.06455550E+3	8.83574398E+3
9.04200000E+3	7.57261570E+1	-8.66891000E+5	8.78013000E+5	4.35320000E+4	4.47180000E+4	5.04943232E+0	4.91588224E+0	8.85537893E+3	9.09648485E+3	8.85604503E+3
9.04250000E+3	7.57135945E+1	-8.68006000E+5	8.79125000E+5	4.37390000E+4	4.50050000E+4	5.04960512E+0	4.93082080E+0	8.87053125E+3	9.12700588E+3	8.91257810E+3
9.04300000E+3	7.57010442E+1	-8.69119000E+5	8.80236000E+5	4.35900000E+4	4.48870000E+4	5.04964128E+0	4.92150528E+0	8.85704627E+3	9.12042460E+3	8.88914628E+3
9.04350000E+3	7.56885062E+1	-8.70231000E+5	8.81345000E+5	4.32780000E+4	4.45130000E+4	5.04916128E+0	4.92194656E+0	8.79286264E+3	9.04350550E+3	8.81591962E+3
9.04400000E+3	7.56759805E+1	-8.71341000E+5	8.82452000E+5	4.30040000E+4	4.42920000E+4	5.04973248E+0	4.92277728E+0	8.73571920E+3	8.99742382E+3	8.77115771E+3
9.04450000E+3	7.56634669E+1	-8.72450000E+5	8.83559000E+5	4.33450000E+4	4.45840000E+4	5.04882624E+0	4.91709760E+0	8.81515958E+3	9.06708130E+3	8.83056732E+3
9.04500000E+3	7.56509656E+1	-8.73558000E+5	8.84664000E+5	4.29090000E+4	4.41010000E+4	5.04972736E+0	4.91882432E+0	8.72342601E+3	8.96566459E+3	8.73334278E+3
9.04550000E+3	7.56384763E+1	-8.74664000E+5	8.85768000E+5	4.34530000E+4	4.47020000E+4	5.04905568E+0	4.92522720E+0	8.82253716E+3	9.07616174E+3	8.85353675E+3
9.04600000E+3	7.56259991E+1	-8.75769000E+5	8.86870000E+5	4.30780000E+4	4.42970000E+4	5.04879072E+0	4.92196544E+0	8.75219473E+3	8.99988471E+3	8.77378415E+3
9.04650000E+3	7.56135341E+1	-8.76873000E+5	8.87971000E+5	4.31260000E+4	4.44330000E+4	5.05014336E+0	4.92362080E+0	8.75900110E+3	9.02439783E+3	8.79836409E+3
9.04700000E+3	7.56010810E+1	-8.77976000E+5	8.89071000E+5	4.26200000E+4	4.38330000E+4	5.05016544E+0	4.90886944E+0	8.68224354E+3	8.92953944E+3	8.67971565E+3
9.04750000E+3	7.55886400E+1	-8.79077000E+5	8.90170000E+5	4.32860000E+4	4.45040000E+4	5.04877952E+0	4.92740480E+0	8.78474608E+3	9.03190264E+3	8.81480362E+3
9.04800000E+3	7.55762109E+1	-8.80177000E+5	8.91267000E+5	4.31530000E+4	4.43510000E+4	5.04885312E+0	4.92021056E+0	8.77055961E+3	9.01412725E+3	8.78437121E+3
9.04850000E+3	7.55637938E+1	-8.81275000E+5	8.92363000E+5	4.29880000E+4	4.42110000E+4	5.05001344E+0	4.91317056E+0	8.74954359E+3	8.99838692E+3	8.75463017E+3
9.04900000E+3	7.55513885E+1	-8.82372000E+5	8.93457000E+5	4.26950000E+4	4.39610000E+4	5.05035104E+0	4.91918208E+0	8.67928841E+3	8.93638554E+3	8.70454344E+3
9.04950000E+3	7.55389952E+1	-8.83468000E+5	8.94550000E+5	4.28260000E+4	4.40120000E+4	5.04879808E+0	4.91767232E+0	8.70859163E+3	8.94984059E+3	8.71732228E+3
9.05000000E+3	7.55266137E+1	-8.84563000E+5	8.95642000E+5	4.32240000E+4	4.44380000E+4	5.04868448E+0	4.92600320E+0	8.77465934E+3	9.02113279E+3	8.80189685E+3
9.05050000E+3	7.55142440E+1	-8.85656000E+5	8.96733000E+5	4.28970000E+4	4.41040000E+4	5.04905824E+0	4.92301568E+0	8.71356152E+3	8.95867906E+3	8.73509433E+3
9.05100000E+3	7.55018862E+1	-8.86748000E+5	8.97822000E+5	4.28200000E+4	4.40120000E+4	5.04987872E+0	4.91359488E+0	8.71459716E+3	8.95716794E+3	8.71545683E+3
9.05150000E+3	7.54895400E+1	-8.87838000E+5	8.98910000E+5	4.23340000E+4	4.35740000E+4	5.04960224E+0	4.91971712E+0	8.60496630E+3	8.85678086E+3	8.62919452E+3
9.05200000E+3	7.54772056E+1	-8.88928000E+5	8.99997000E+5	4.24520000E+4	4.36790000E+4	5.05029152E+0	4.91741344E+0	8.63299385E+3	8.88246207E+3	8.64880766E+3
9.05250000E+3	7.54648829E+1	-8.90016000E+5	9.01082000E+5	4.25980000E+4	4.38180000E+4	5.04958752E+0	4.92237248E+0	8.65395704E+3	8.90172401E+3	8.67754046E+3
9.05300000E+3	7.54525719E+1	-8.91103000E+5	9.02166000E+5	4.22140000E+4	4.34510000E+4	5.04880512E+0	4.92847328E+0	8.56532999E+3	8.81630106E+3	8.60619473E+3
9.05350000E+3	7.54402725E+1	-8.92188000E+5	9.03249000E+5	4.27580000E+4	4.39610000E+4	5.04858048E+0	4.92188064E+0	8.68732973E+3	8.93175375E+3	8.70759616E+3
9.05400000E+3	7.54279847E+1	-8.93272000E+5	9.04331000E+5	4.22540000E+4	4.34940000E+4	5.04948832E+0	4.92496704E+0	8.57954980E+3	8.83129988E+3	8.61354602E+3
9.05450000E+3	7.54157084E+1	-8.94355000E+5	9.05411000E+5	4.26840000E+4	4.39760000E+4	5.04878880E+0	4.91840192E+0	8.67842862E+3	8.94129565E+3	8.71020788E+3
9.05500000E+3	7.54034438E+1	-8.95437000E+5	9.06490000E+5	4.23220000E+4	4.35550000E+4	5.05038464E+0	4.92827936E+0	8.58758137E+3	8.83750175E+3	8.62409561E+3
9.05550000E+3	7.53911906E+1	-8.96517000E+5	9.07568000E+5	4.23160000E+4	4.34450000E+4	5.04997568E+0	4.91359648E+0	8.61202180E+3	8.84196172E+3	8.60301173E+3
9.05600000E+3	7.53789489E+1	-8.97596000E+5	9.08644000E+5	4.27300000E+4	4.39840000E+4	5.04955296E+0	4.91768160E+0	8.68905380E+3	8.94395008E+3	8.71047405E+3
9.05650000E+3	7.53667187E+1	-8.98674000E+5	9.09720000E+5	4.23220000E+4	4.35110000E+4	5.04834304E+0	4.92500416E+0	8.59329223E+3	8.83447556E+3	8.61886755E+3
9.05700000E+3	7.53544999E+1	-8.99751000E+5	9.10794000E+5	4.21050000E+4	4.33350000E+4	5.04885184E+0	4.92069120E+0	8.55672471E+3	8.80654642E+3	8.58313957E+3
9.05750000E+3	7.53422925E+1	-9.00826000E+5	9.11866000E+5	4.25670000E+4	4.37430000E+4	5.04986688E+0	4.92188704E+0	8.64851218E+3	8.88719799E+3	8.66220854E+3
9.05800000E+3	7.53300965E+1	-9.01900000E+5	9.12938000E+5	4.22670000E+4	4.34810000E+4	5.05017824E+0	4.92244448E+0	8.58658745E+3	8.83319835E+3	8.60979513E+3
9.05850000E+3	7.53179119E+1	-9.02973000E+5	9.14008000E+5	4.24440000E+4	4.36410000E+4	5.04975168E+0	4.91528864E+0	8.63509818E+3	8.87856044E+3	8.64220714E+3
9.05900000E+3	7.53057385E+1	-9.04044000E+5	9.15077000E+5	4.18600000E+4	4.30870000E+4	5.04945664E+0	4.92937984E+0	8.49194044E+3	8.74097584E+3	8.53299732E+3
9.05950000E+3	7.52935764E+1	-9.05115000E+5	9.16145000E+5	4.20210000E+4	4.31930000E+4	5.04885920E+0	4.91851552E+0	8.54343141E+3	8.78157699E+3	8.55500189E+3
9.06000000E+3	7.52814256E+1	-9.06184000E+5	9.17211000E+5	4.18730000E+4	4.30810000E+4	5.04968576E+0	4.92065120E+0	8.50964604E+3	8.75513160E+3	8.53142196E+3
9.06050000E+3	7.52692860E+1	-9.07252000E+5	9.18276000E+5	4.20530000E+4	4.32550000E+4	5.04893888E+0	4.92366784E+0	8.54099045E+3	8.78505631E+3	8.56714669E+3
9.06100000E+3	7.52571576E+1	-9.08318000E+5	9.19340000E+5	4.17690000E+4	4.29780000E+4	5.05011552E+0	4.92544448E+0	8.48024989E+3	8.72568288E+3	8.51049839E+3
9.06150000E+3	7.52450404E+1	-9.09384000E+5	9.20403000E+5	4.16580000E+4	4.28650000E+4	5.04891744E+0	4.92766144E+0	8.45390872E+3	8.69879618E+3	8.48993879E+3
9.06200000E+3	7.52329344E+1	-9.10448000E+5	9.21464000E+5	4.19780000E+4	4.32060000E+4	5.05015872E+0	4.92591136E+0	8.52187482E+3	8.77124668E+3	8.55537467E+3
9.06250000E+3	7.52208394E+1	-9.11511000E+5	9.22525000E+5	4.17160000E+4	4.29160000E+4	5.04974848E+0	4.92240448E+0	8.47472006E+3	8.71869717E+3	8.49864110E+3
9.06300000E+3	7.52087556E+1	-9.12572000E+5	9.23584000E+5	4.17260000E+4	4.29360000E+4	5.04875040E+0	4.92534592E+0	8.47168923E+3	8.71727174E+3	8.50428256E+3
9.06350000E+3	7.51966828E+1	-9.13633000E+5	9.24642000E+5	4.12470000E+4	4.24500000E+4	5.04972736E+0	4.91958912E+0	8.38423677E+3	8.62859516E+3	8.40639444E+3
9.06400000E+3	7.51846210E+1	-9.14692000E+5	9.25698000E+5	4.19640000E+4	4.31960000E+4	5.04848928E+0	4.92723136E+0	8.51675047E+3	8.76677424E+3	8.55622298E+3
9.06450000E+3	7.51725702E+1	-9.15750000E+5	9.26754000E+5	4.15630000E+4	4.27600000E+4	5.05000928E+0	4.92510112E+0	8.43901455E+3	8.68200934E+3	8.46731117E+3
9.06500000E+3	7.51605305E+1	-9.16807000E+5	9.27808000E+5	4.15830000E+4	4.27580000E+4	5.05001824E+0	4.92288352E+0	8.44687871E+3	8.68557097E+3	8.46690011E+3
9.06550000E+3	7.51485016E+1	-9.17862000E+5	9.28861000E+5	4.13690000E+4	4.25890000E+4	5.04972576E+0	4.92086816E+0	8.40684990E+3	8.65470904E+3	8.43392335E+3
9.06600000E+3	7.51364837E+1	-9.18917000E+5	9.29912000E+5	4.15950000E+4	4.27360000E+4	5.04982432E+0	4.91787264E+0	8.45792542E+3	8.68989905E+3	8.46286866E+3
9.06650000E+3	7.51244767E+1	-9.19970000E+5	9.30963000E+5	4.11730000E+4	4.24250000E+4	5.04930880E+0	4.92633728E+0	8.35773063E+3	8.61167099E+3	8.40214011E+3
9.06700000E+3	7.51124806E+1	-9.21022000E+5	9.32012000E+5	4.14940000E+4	4.27250000E+4	5.04964416E+0	4.92269568E+0	8.42912150E+3	8.67915348E+3	8.46099223E+3
9.06750000E+3	7.51004953E+1	-9.22073000E+5	9.33060000E+5	4.13900000E+4	4.25910000E+4	5.05036704E+0	4.92289728E+0	8.40765055E+3	8.65178848E+3	8.43324845E+3
9.06800000E+3	7.50885209E+1	-9.23122000E+5	9.34107000E+5	4.15990000E+4	4.28000000E+4	5.04962304E+0	4.93182368E+0	8.43481087E+3	8.67820559E+3	8.47588021E+3
9.06850000E+3	7.50765572E+1	-9.24171000E+5	9.35153000E+5	4.11950000E+4	4.23690000E+4	5.04939424E+0	4.92621056E+0	8.36241153E+3	8.60063832E+3	8.39090750E+3
9.06900000E+3	7.50646043E+1	-9.25218000E+5	9.36198000E+5	4.09690000E+4	4.21740000E+4	5.04954624E+0	4.92906464E+0	8.31171896E+3	8.55617877E+3	8.35203759E+3
9.06950000E+3	7.50526621E+1	-9.26264000E+5	9.37241000E+5	4.13170000E+4	4.25030000E+4	5.04954944E+0	4.92566656E+0	8.38810331E+3	8.62892080E+3	8.41718662E+3
9.07000000E+3	7.50407307E+1	-9.27309000E+5	9.38283000E+5	4.13010000E+4	4.24960000E+4	5.05011840E+0	4.91604480E+0	8.40126599E+3	8.64439913E+3	8.41485221E+3
9.07050000E+3	7.50288099E+1	-9.28352000E+5	9.39324000E+5	4.09480000E+4	4.22210000E+4	5.04945568E+0	4.91582944E+0	8.32982521E+3	8.58862258E+3	8.36149531E+3
9.07100000E+3	7.50168998E+1	-9.29395000E+5	9.40364000E+5	4.12690000E+4	4.24600000E+4	5.04869184E+0	4.92916128E+0	8.37241828E+3	8.61430537E+3	8.41029743E+3
9.07150000E+3	7.50050004E+1	-9.30436000E+5	9.41403000E+5	4.10080000E+4	4.21390000E+4	5.04905472E+0	4.92476320E+0	8.32689783E+3	8.55650032E+3	8.34591866E+3
9.07200000E+3	7.49931115E+1	-9.31476000E+5	9.42440000E+5	4.08610000E+4	4.20790000E+4	5.04900704E+0	4.92208160E+0	8.30156899E+3	8.54887757E+3	8.33411395E+3
9.07250000E+3	7.49812333E+1	-9.32515000E+5	9.43477000E+5	4.08410000E+4	4.19960000E+4	5.04976800E+0	4.92284320E+0	8.29622199E+3	8.53062999E+3	8.31642167E+3
9.07300000E+3	7.49693655E+1	-9.33553000E+5	9.44512000E+5	4.06850000E+4	4.18950000E+4	5.04958592E+0	4.92945312E+0	8.25345104E+3	8.49874411E+3	8.29671990E+3
9.07350000E+3	7.49575084E+1	-9.34589000E+5	9.45546000E+5	4.12030000E+4	4.24580000E+4	5.04874176E+0	4.92416320E+0	8.36751308E+3	8.62218343E+3	8.40962006E+3
9.07400000E+3	7.49456617E+1	-9.35625000E+5	9.46579000E+5	4.10150000E+4	4.22120000E+4	5.05020448E+0	4.92400096E+0	8.32960845E+3	8.57275472E+3	8.35847344E+3
9.07450000E+3	7.49338255E+1	-9.36659000E+5	9.47610000E+5	4.10540000E+4	4.22930000E+4	5.04875488E+0	4.92796640E+0	8.33081979E+3	8.58235645E+3	8.37691688E+3
9.07500000E+3	7.49219998E+1	-9.37692000E+5	9.48641000E+5	4.07090000E+4	4.18260000E+4	5.04976128E+0	4.92938560E+0	8.25843286E+3	8.48503224E+3	8.28276777E+3
9.07550000E+3	7.49101845E+1	-9.38724000E+5	9.49670000E+5	4.06310000E+4	4.18590000E+4	5.04941760E+0	4.93091744E+0	8.24004873E+3	8.48927673E+3	8.28986693E+3
9.07600000E+3	7.48983796E+1	-9.39755000E+5	9.50698000E+5	4.06050000E+4	4.17630000E+4	5.04955456E+0	4.92730432E+0	8.24081432E+3	8.47571336E+3	8.27063051E+3
9.07650000E+3	7.48865852E+1	-9.40784000E+5	9.51725000E+5	4.09050000E+4	4.20730000E+4	5.05040480E+0	4.92505376E+0	8.30549310E+3	8.54276045E+3	8.33061936E+3
9.07700000E+3	7.48748010E+1	-9.41813000E+5	9.52751000E+5	4.06230000E+4	4.18540000E+4	5.04894784E+0	4.93574368E+0	8.23037067E+3	8.47991228E+3	8.28964793E+3
9.07750000E+3	7.48630272E+1	-9.42840000E+5	9.53776000E+5	4.04910000E+4	4.16580000E+4	5.05002816E+0	4.92625504E+0	8.21942828E+3	8.45608463E+3	8.24906291E+3
9.07800000E+3	7.48512637E+1	-9.43867000E+5	9.54799000E+5	4.08110000E+4	4.19630000E+4	5.05045696E+0	4.93218048E+0	8.27443362E+3	8.50780843E+3	8.30875312E+3
9.07850000E+3	7.48395105E+1	-9.44892000E+5	9.55822000E+5	4.05780000E+4	4.18020000E+4	5.04837664E+0	4.92549248E+0	8.23836401E+3	8.48683757E+3	8.28028552E+3
9.07900000E+3	7.48277676E+1	-9.45915000E+5	9.56843000E+5	4.05020000E+4	4.16660000E+4	5.04878720E+0	4.92370944E+0	8.22591188E+3	8.46218550E+3	8.25267502E+3
9.07950000E+3	7.48160349E+1	-9.46938000E+5	9.57863000E+5	4.05070000E+4	4.16950000E+4	5.04966976E+0	4.93714976E+0	8.20453135E+3	8.44500830E+3	8.25697560E+3
9.08000000E+3	7.48043124E+1	-9.47960000E+5	9.58882000E+5	8.37400000E+3	8.62100000E+3	1.04963840E+0	1.02835488E+0	8.14310328E+3	8.38305055E+3	8.21330470E+3
9.08100000E+3	7.47808980E+1	-9.50000000E+5	9.60917000E+5	8.46800000E+3	8.71200000E+3	1.04991232E+0	1.02326304E+0	8.27548701E+3	8.51369904E+3	8.29783577E+3
9.08200000E+3	7.47575241E+1	-9.52035000E+5	9.62947000E+5	8.52200000E+3	8.77600000E+3	1.04954144E+0	1.02298624E+0	8.33051283E+3	8.57856132E+3	8.36174701E+3
9.08300000E+3	7.47341907E+1	-9.54066000E+5	9.64973000E+5	8.37700000E+3	8.60200000E+3	1.05020672E+0	1.02389536E+0	8.18150011E+3	8.40110960E+3	8.19076839E+3
9.08400000E+3	7.47108974E+1	-9.56093000E+5	9.66994000E+5	8.20700000E+3	8.45600000E+3	1.04932800E+0	1.02612512E+0	7.99804998E+3	8.24062582E+3	8.05849077E+3
9.08500000E+3	7.46876441E+1	-9.58115000E+5	9.69011000E+5	8.49500000E+3	8.75700000E+3	1.04945280E+0	1.02316736E+0	8.30264953E+3	8.55848100E+3	8.34434860E+3
9.08600000E+3	7.46644306E+1	-9.60132000E+5	9.71023000E+5	8.26600000E+3	8.52200000E+3	1.05016544E+0	1.02339200E+0	8.07706138E+3	8.32696390E+3	8.11491188E+3
9.08700000E+3	7.46412568E+1	-9.62145000E+5	9.73031000E+5	8.09000000E+3	8.33300000E+3	1.05011232E+0	1.02551488E+0	7.88872025E+3	8.12557664E+3	7.93534162E+3
9.08800000E+3	7.46181225E+1	-9.64154000E+5	9.75035000E+5	8.09700000E+3	8.33800000E+3	1.04949312E+0	1.02427872E+0	7.90507490E+3	8.14030607E+3	7.94478767E+3
9.08900000E+3	7.45950274E+1	-9.66159000E+5	9.77034000E+5	8.20500000E+3	8.42300000E+3	1.05012064E+0	1.02883488E+0	7.97504066E+3	8.18682792E+3	8.02098319E+3
9.09000000E+3	7.45719714E+1	-9.68159000E+5	9.79029000E+5	8.14100000E+3	8.36100000E+3	1.04975456E+0	1.02317216E+0	7.95662775E+3	8.17158683E+3	7.96471891E+3
9.09100000E+3	7.45489543E+1	-9.70155000E+5	9.81020000E+5	8.27800000E+3	8.51900000E+3	1.05048800E+0	1.02476672E+0	8.07793602E+3	8.31309828E+3	8.10956432E+3
9.09200000E+3	7.45259760E+1	-9.72146000E+5	9.83006000E+5	7.91300000E+3	8.14300000E+3	1.04990176E+0	1.02366272E+0	7.73008516E+3	7.95468426E+3	7.75596376E+3
9.09300000E+3	7.45030362E+1	-9.74133000E+5	9.84988000E+5	8.03600000E+3	8.28600000E+3	1.05042976E+0	1.02923104E+0	7.80777074E+3	8.05144099E+3	7.88915196E+3
9.09400000E+3	7.44801349E+1	-9.76116000E+5	9.86966000E+5	7.96100000E+3	8.20200000E+3	1.05019008E+0	1.02234624E+0	7.78699005E+3	8.02263013E+3	7.81001474E+3
9.09500000E+3	7.44572717E+1	-9.78095000E+5	9.88939000E+5	8.19400000E+3	8.42100000E+3	1.05018560E+0	1.02925760E+0	7.96107797E+3	8.18161760E+3	8.01858262E+3
9.09600000E+3	7.44344466E+1	-9.80069000E+5	9.90909000E+5	8.01800000E+3	8.24000000E+3	1.05018432E+0	1.02831296E+0	7.79723714E+3	8.01295506E+3	7.84624170E+3
9.09700000E+3	7.44116594E+1	-9.82040000E+5	9.92874000E+5	7.99800000E+3	8.21400000E+3	1.05031488E+0	1.02581312E+0	7.79674177E+3	8.00826746E+3	7.82146398E+3
9.09800000E+3	7.43889099E+1	-9.84006000E+5	9.94834000E+5	7.89200000E+3	8.14500000E+3	1.04967680E+0	1.02588512E+0	7.69286916E+3	7.93943453E+3	7.75953131E+3
9.09900000E+3	7.43661980E+1	-9.85967000E+5	9.96791000E+5	8.05800000E+3	8.31400000E+3	1.04934944E+0	1.02196480E+0	7.88481169E+3	8.13512403E+3	7.92300418E+3
9.10000000E+3	7.43435234E+1	-9.87925000E+5	9.98744000E+5	8.02200000E+3	8.26300000E+3	1.04934688E+0	1.02696896E+0	7.81133638E+3	8.04598000E+3	7.87442185E+3
9.10100000E+3	7.43208860E+1	-9.89879000E+5	1.00069200E+6	7.97000000E+3	8.23100000E+3	1.05041824E+0	1.02668800E+0	7.76282571E+3	8.01697190E+3	7.83592638E+3
9.10200000E+3	7.42982857E+1	-9.91828000E+5	1.00263600E+6	7.86200000E+3	8.10500000E+3	1.04948896E+0	1.02321280E+0	7.68364117E+3	7.92094884E+3	7.72280635E+3
9.10300000E+3	7.42757223E+1	-9.93773000E+5	1.00457600E+6	7.75600000E+3	7.98900000E+3	1.04962496E+0	1.02428448E+0	7.57211512E+3	7.79935309E+3	7.61129004E+3
9.10400000E+3	7.42531956E+1	-9.95715000E+5	1.00651200E+6	7.66300000E+3	7.90400000E+3	1.04964672E+0	1.02589984E+0	7.46954011E+3	7.70445203E+3	7.53015262E+3
9.10500000E+3	7.42307055E+1	-9.97652000E+5	1.00844400E+6	7.87600000E+3	8.15200000E+3	1.04961472E+0	1.02851584E+0	7.65763607E+3	7.92577964E+3	7.76665937E+3
9.10600000E+3	7.42082518E+1	-9.99585000E+5	1.01037200E+6	7.72400000E+3	7.96400000E+3	1.05026304E+0	1.02677792E+0	7.52256145E+3	7.75608732E+3	7.58286229E+3
9.10700000E+3	7.41858344E+1	-1.00151400E+6	1.01229600E+6	7.82700000E+3	8.09800000E+3	1.04995648E+0	1.02584288E+0	7.62982339E+3	7.89381430E+3	7.71270063E+3
9.10800000E+3	7.41634530E+1	-1.00343900E+6	1.01421600E+6	7.79400000E+3	8.02900000E+3	1.04987200E+0	1.02672288E+0	7.59114280E+3	7.82000455E+3	7.64759895E+3
9.10900000E+3	7.41411076E+1	-1.00536000E+6	1.01613200E+6	7.89000000E+3	8.12100000E+3	1.04973664E+0	1.02795232E+0	7.67545327E+3	7.90012697E+3	7.73622611E+3
9.11000000E+3	7.41187980E+1	-1.00727700E+6	1.01804400E+6	7.79600000E+3	8.01100000E+3	1.04970080E+0	1.02589568E+0	7.59921321E+3	7.80878176E+3	7.63169848E+3
9.11100000E+3	7.40965240E+1	-1.00919000E+6	1.01995200E+6	7.82200000E+3	8.04300000E+3	1.04945760E+0	1.02513696E+0	7.63019997E+3	7.84572835E+3	7.66395898E+3
9.11200000E+3	7.40742855E+1	-1.01109900E+6	1.02185600E+6	7.72300000E+3	7.93300000E+3	1.04935072E+0	1.02415040E+0	7.54088462E+3	7.74569304E+3	7.55991286E+3
9.11300000E+3	7.40520823E+1	-1.01300400E+6	1.02375500E+6	7.78600000E+3	8.03700000E+3	1.05027552E+0	1.02723488E+0	7.57957129E+3	7.82376097E+3	7.65227776E+3
9.11400000E+3	7.40299143E+1	-1.01490500E+6	1.02565200E+6	7.59500000E+3	7.81600000E+3	1.05041024E+0	1.02517824E+0	7.40846782E+3	7.62394753E+3	7.44090233E+3
9.11500000E+3	7.40077813E+1	-1.01680300E+6	1.02754400E+6	7.49800000E+3	7.75000000E+3	1.05029472E+0	1.02391296E+0	7.32288807E+3	7.56897701E+3	7.37888123E+3
9.11600000E+3	7.39856833E+1	-1.01869600E+6	1.02943200E+6	7.54700000E+3	7.78600000E+3	1.04950176E+0	1.02842400E+0	7.33841295E+3	7.57080059E+3	7.41875840E+3
9.11700000E+3	7.39636199E+1	-1.02058600E+6	1.03131600E+6	7.60800000E+3	7.83300000E+3	1.04954176E+0	1.02767584E+0	7.40311264E+3	7.62198382E+3	7.46325711E+3
9.11800000E+3	7.39415912E+1	-1.02247100E+6	1.03319700E+6	7.75900000E+3	7.97500000E+3	1.04998816E+0	1.02503200E+0	7.56951978E+3	7.78011546E+3	7.59532374E+3
9.11900000E+3	7.39195969E+1	-1.02435300E+6	1.03507400E+6	7.65000000E+3	7.86800000E+3	1.05003872E+0	1.02445408E+0	7.46739180E+3	7.68015850E+3	7.49305702E+3
9.12000000E+3	7.38976369E+1	-1.02623100E+6	1.03694600E+6	7.58300000E+3	7.83500000E+3	1.05000576E+0	1.02491424E+0	7.39866781E+3	7.64451862E+3	7.46186383E+3
9.12100000E+3	7.38757111E+1	-1.02810500E+6	1.03881500E+6	7.53800000E+3	7.76400000E+3	1.04944736E+0	1.02821344E+0	7.33116268E+3	7.55091705E+3	7.39817955E+3
9.12200000E+3	7.38538193E+1	-1.02997600E+6	1.04068100E+6	7.57800000E+3	7.81000000E+3	1.05034752E+0	1.02343008E+0	7.40451170E+3	7.63101765E+3	7.43563426E+3
9.12300000E+3	7.38319614E+1	-1.03184200E+6	1.04254200E+6	7.55400000E+3	7.78300000E+3	1.04957824E+0	1.02370656E+0	7.37906769E+3	7.60270263E+3	7.41535953E+3
9.12400000E+3	7.38101372E+1	-1.03370500E+6	1.04440000E+6	7.55200000E+3	7.80300000E+3	1.05057888E+0	1.02862336E+0	7.34185154E+3	7.58563672E+3	7.42733378E+3
9.12500000E+3	7.37883466E+1	-1.03556400E+6	1.04625400E+6	7.43900000E+3	7.64800000E+3	1.05000448E+0	1.02799616E+0	7.23640835E+3	7.43955623E+3	7.28377845E+3
9.12600000E+3	7.37665895E+1	-1.03741900E+6	1.04810400E+6	7.32100000E+3	7.55800000E+3	1.04964992E+0	1.02594080E+0	7.13588932E+3	7.36677166E+3	7.20049595E+3
9.12700000E+3	7.37448657E+1	-1.03927100E+6	1.04995000E+6	7.50000000E+3	7.73500000E+3	1.04971968E+0	1.02782592E+0	7.29695550E+3	7.52542379E+3	7.36863388E+3
9.12800000E+3	7.37231751E+1	-1.04111900E+6	1.05179300E+6	7.42400000E+3	7.64200000E+3	1.05053760E+0	1.02357952E+0	7.25297825E+3	7.46583971E+3	7.27437076E+3
9.12900000E+3	7.37015176E+1	-1.04296300E+6	1.05363200E+6	7.50200000E+3	7.75900000E+3	1.04976512E+0	1.02763616E+0	7.30024915E+3	7.55022743E+3	7.39117718E+3
9.13000000E+3	7.36798930E+1	-1.04480300E+6	1.05546700E+6	7.48200000E+3	7.71000000E+3	1.04997568E+0	1.02502656E+0	7.29932305E+3	7.52154924E+3	7.34302722E+3
9.13100000E+3	7.36583012E+1	-1.04664000E+6	1.05729900E+6	7.28500000E+3	7.53800000E+3	1.05028448E+0	1.02427680E+0	7.11233526E+3	7.35925113E+3	7.17710310E+3
9.13200000E+3	7.36367421E+1	-1.04847300E+6	1.05912700E+6	7.45300000E+3	7.66900000E+3	1.04985312E+0	1.02857280E+0	7.24596256E+3	7.45591960E+3	7.30483137E+3
9.13300000E+3	7.36152155E+1	-1.05030300E+6	1.06095100E+6	7.37900000E+3	7.63000000E+3	1.04930944E+0	1.02663168E+0	7.18758260E+3	7.43190602E+3	7.27144893E+3
9.13400000E+3	7.35937212E+1	-1.05212900E+6	1.06277200E+6	7.45300000E+3	7.67000000E+3	1.05012160E+0	1.02697824E+0	7.25721316E+3	7.46834498E+3	7.30391604E+3
9.13500000E+3	7.35722593E+1	-1.05395100E+6	1.06458900E+6	7.38500000E+3	7.63600000E+3	1.04959040E+0	1.02909728E+0	7.17619232E+3	7.42002107E+3	7.27521898E+3
9.13600000E+3	7.35508295E+1	-1.05577000E+6	1.06640300E+6	7.39800000E+3	7.63500000E+3	1.04990656E+0	1.02455840E+0	7.22067185E+3	7.45176509E+3	7.27207572E+3
9.13700000E+3	7.35294317E+1	-1.05758500E+6	1.06821300E+6	7.35800000E+3	7.58400000E+3	1.04952960E+0	1.02622016E+0	7.17000142E+3	7.39013078E+3	7.22609443E+3
9.13800000E+3	7.35080658E+1	-1.05939600E+6	1.07001900E+6	7.39100000E+3	7.61300000E+3	1.04969728E+0	1.02313120E+0	7.22390247E+3	7.44066710E+3	7.25256714E+3
9.13900000E+3	7.34867317E+1	-1.06120400E+6	1.07182200E+6	7.24400000E+3	7.47900000E+3	1.05032832E+0	1.02613696E+0	7.05948648E+3	7.28839166E+3	7.12063062E+3
9.14000000E+3	7.34654292E+1	-1.06300900E+6	1.07362100E+6	7.21800000E+3	7.42900000E+3	1.05034400E+0	1.03096800E+0	7.00118723E+3	7.20567645E+3	7.07292087E+3
9.14100000E+3	7.34441582E+1	-1.06481000E+6	1.07541700E+6	7.25800000E+3	7.48600000E+3	1.04947936E+0	1.02896288E+0	7.05370441E+3	7.27511308E+3	7.13306072E+3
9.14200000E+3	7.34229186E+1	-1.06660700E+6	1.07720900E+6	7.29200000E+3	7.52600000E+3	1.05019200E+0	1.02622208E+0	7.10567444E+3	7.33349699E+3	7.16630864E+3
9.14300000E+3	7.34017103E+1	-1.06840100E+6	1.07899800E+6	7.35000000E+3	7.56300000E+3	1.04966112E+0	1.02761920E+0	7.15245492E+3	7.35971211E+3	7.20518256E+3
9.14400000E+3	7.33805331E+1	-1.07019100E+6	1.08078300E+6	7.20700000E+3	7.45800000E+3	1.05018144E+0	1.02506592E+0	7.03076735E+3	7.27541915E+3	7.10162998E+3
9.14500000E+3	7.33593869E+1	-1.07197800E+6	1.08256500E+6	7.20200000E+3	7.45100000E+3	1.04978784E+0	1.02533088E+0	7.02407402E+3	7.26680707E+3	7.09762460E+3
9.14600000E+3	7.33382717E+1	-1.07376100E+6	1.08434400E+6	7.21100000E+3	7.42900000E+3	1.05017312E+0	1.02798048E+0	7.01472464E+3	7.22669195E+3	7.07407175E+3
9.14700000E+3	7.33171872E+1	-1.07554100E+6	1.08611800E+6	7.14000000E+3	7.36000000E+3	1.04984576E+0	1.02969952E+0	6.93406170E+3	7.14758993E+3	7.01055363E+3
9.14800000E+3	7.32961334E+1	-1.07731800E+6	1.08789000E+6	7.36900000E+3	7.61700000E+3	1.04947168E+0	1.02741568E+0	7.17236474E+3	7.41361024E+3	7.25793763E+3
9.14900000E+3	7.32751102E+1	-1.07909100E+6	1.08965800E+6	7.10600000E+3	7.34200000E+3	1.05025952E+0	1.02955232E+0	6.90202903E+3	7.13117346E+3	6.99065313E+3
9.15000000E+3	7.32541173E+1	-1.08086100E+6	1.09142200E+6	7.08800000E+3	7.31700000E+3	1.04974944E+0	1.02422624E+0	6.92034604E+3	7.14387361E+3	6.97023473E+3
9.15100000E+3	7.32331548E+1	-1.08262700E+6	1.09318400E+6	7.06000000E+3	7.29200000E+3	1.04958304E+0	1.02809120E+0	6.86709506E+3	7.09274094E+3	6.94752080E+3
9.15200000E+3	7.32122225E+1	-1.08439000E+6	1.09494100E+6	7.02400000E+3	7.25400000E+3	1.04975776E+0	1.02433120E+0	6.85715714E+3	7.08156096E+3	6.91016564E+3
9.15300000E+3	7.31913203E+1	-1.08614900E+6	1.09669600E+6	6.99000000E+3	7.20400000E+3	1.04952064E+0	1.02961376E+0	6.78895356E+3	6.99677093E+3	6.86408607E+3
9.15400000E+3	7.31704481E+1	-1.08790500E+6	1.09844700E+6	7.04100000E+3	7.27600000E+3	1.05025856E+0	1.02724576E+0	6.85425073E+3	7.08292098E+3	6.92781785E+3
9.15500000E+3	7.31496057E+1	-1.08965800E+6	1.10019500E+6	7.06100000E+3	7.25300000E+3	1.05021856E+0	1.03228288E+0	6.84017931E+3	7.02602198E+3	6.90618151E+3
9.15600000E+3	7.31287930E+1	-1.09140800E+6	1.10193900E+6	6.93700000E+3	7.15400000E+3	1.05007872E+0	1.02577952E+0	6.76266182E+3	6.97418553E+3	6.81282257E+3
9.15700000E+3	7.31080100E+1	-1.09315400E+6	1.10368000E+6	7.05800000E+3	7.27900000E+3	1.04954464E+0	1.02330016E+0	6.89729199E+3	7.11312975E+3	6.93538867E+3
9.15800000E+3	7.30872565E+1	-1.09489700E+6	1.10541800E+6	6.80100000E+3	7.02300000E+3	1.05026080E+0	1.02739584E+0	6.61964915E+3	6.83559504E+3	6.68691053E+3
9.15900000E+3	7.30665325E+1	-1.09663600E+6	1.10715200E+6	6.98900000E+3	7.24000000E+3	1.05019776E+0	1.02985440E+0	6.78639621E+3	7.03011798E+3	6.89393967E+3
9.16000000E+3	7.30458377E+1	-1.09837200E+6	1.10888300E+6	6.98900000E+3	7.24000000E+3	1.04996736E+0	1.02517632E+0	6.81736387E+3	7.06216091E+3	6.89545245E+3
9.16100000E+3	7.30251721E+1	-1.10010500E+6	1.11061100E+6	6.93400000E+3	7.15200000E+3	1.04969952E+0	1.02755456E+0	6.74806017E+3	6.96011071E+3	6.81337837E+3
9.16200000E+3	7.30045356E+1	-1.10183500E+6	1.11233600E+6	6.93600000E+3	7.14100000E+3	1.04993120E+0	1.02654208E+0	6.75666408E+3	6.95630653E+3	6.80139803E+3
9.16300000E+3	7.29839281E+1	-1.10356100E+6	1.11405700E+6	6.89400000E+3	7.13200000E+3	1.04954080E+0	1.02773440E+0	6.70795879E+3	6.93941160E+3	6.79535279E+3
9.16400000E+3	7.29633494E+1	-1.10528400E+6	1.11577500E+6	6.75600000E+3	6.99400000E+3	1.04974752E+0	1.02560608E+0	6.58732444E+3	6.81927644E+3	6.66255444E+3
9.16500000E+3	7.29427996E+1	-1.10700400E+6	1.11749000E+6	6.74500000E+3	6.97200000E+3	1.04983552E+0	1.02529984E+0	6.57856340E+3	6.79988526E+3	6.64104030E+3
9.16600000E+3	7.29222783E+1	-1.10872100E+6	1.11920100E+6	6.79900000E+3	7.03200000E+3	1.04954048E+0	1.02893792E+0	6.60778446E+3	6.83418749E+3	6.70007507E+3
9.16700000E+3	7.29017857E+1	-1.11043400E+6	1.12091000E+6	6.73000000E+3	6.94700000E+3	1.04992064E+0	1.02697440E+0	6.55323054E+3	6.76439766E+3	6.61669057E+3
9.16800000E+3	7.28813215E+1	-1.11214500E+6	1.12261500E+6	6.66400000E+3	6.89300000E+3	1.04993920E+0	1.02552704E+0	6.49812218E+3	6.72130222E+3	6.56514206E+3
9.16900000E+3	7.28608856E+1	-1.11385200E+6	1.12431700E+6	6.83300000E+3	7.06100000E+3	1.04933760E+0	1.02449664E+0	6.66961680E+3	6.89208244E+3	6.72900695E+3
9.17000000E+3	7.28404779E+1	-1.11555500E+6	1.12601600E+6	6.89600000E+3	7.14400000E+3	1.04951520E+0	1.02438752E+0	6.73182742E+3	6.97374808E+3	6.80695239E+3
9.17100000E+3	7.28200985E+1	-1.11725600E+6	1.12771100E+6	6.69400000E+3	6.92200000E+3	1.04985696E+0	1.02760160E+0	6.51419772E+3	6.73606342E+3	6.59327915E+3
9.17200000E+3	7.27997470E+1	-1.11895400E+6	1.12940400E+6	6.66700000E+3	6.88000000E+3	1.05020352E+0	1.02620512E+0	6.49675184E+3	6.70414017E+3	6.55111116E+3
9.17300000E+3	7.27794235E+1	-1.12064800E+6	1.13109300E+6	6.66500000E+3	6.87000000E+3	1.04965888E+0	1.02988512E+0	6.47159559E+3	6.67063259E+3	6.54498345E+3
9.17400000E+3	7.27591278E+1	-1.12233900E+6	1.13277900E+6	6.76600000E+3	6.99200000E+3	1.04990176E+0	1.03002848E+0	6.56875041E+3	6.78805056E+3	6.65967071E+3
9.17500000E+3	7.27388599E+1	-1.12402800E+6	1.13446300E+6	6.76900000E+3	6.98300000E+3	1.04999488E+0	1.02836896E+0	6.58226791E+3	6.79025348E+3	6.65050862E+3
9.17600000E+3	7.27186195E+1	-1.12571300E+6	1.13614300E+6	6.81800000E+3	7.04700000E+3	1.05011008E+0	1.02980128E+0	6.62069482E+3	6.84287835E+3	6.71072503E+3
9.17700000E+3	7.26984068E+1	-1.12739500E+6	1.13781900E+6	6.78400000E+3	7.01200000E+3	1.04980608E+0	1.02847232E+0	6.59619114E+3	6.81776191E+3	6.67932881E+3
9.17800000E+3	7.26782214E+1	-1.12907300E+6	1.13949300E+6	6.75900000E+3	6.97500000E+3	1.04985216E+0	1.02420768E+0	6.59924753E+3	6.80999206E+3	6.64379259E+3
9.17900000E+3	7.26580635E+1	-1.13074900E+6	1.14116400E+6	6.60800000E+3	6.82800000E+3	1.05036960E+0	1.02725696E+0	6.43266510E+3	6.64682164E+3	6.50056894E+3
9.18000000E+3	7.26379327E+1	-1.13242200E+6	1.14283200E+6	6.78700000E+3	6.99800000E+3	1.05014240E+0	1.02703040E+0	6.60837303E+3	6.81375160E+3	6.66385816E+3
9.18100000E+3	7.26178291E+1	-1.13409100E+6	1.14449600E+6	6.62200000E+3	6.85100000E+3	1.04986720E+0	1.02995936E+0	6.42937989E+3	6.65152664E+3	6.52558724E+3
9.18200000E+3	7.25977526E+1	-1.13575800E+6	1.14615800E+6	6.50200000E+3	6.72900000E+3	1.04968512E+0	1.02929440E+0	6.31694878E+3	6.53738940E+3	6.41049384E+3
9.18300000E+3	7.25777030E+1	-1.13742200E+6	1.14781600E+6	6.55700000E+3	6.79000000E+3	1.05009312E+0	1.02657664E+0	6.38724840E+3	6.61418971E+3	6.46609322E+3
9.18400000E+3	7.25576803E+1	-1.13908200E+6	1.14947200E+6	6.62600000E+3	6.86700000E+3	1.04991936E+0	1.03165184E+0	6.42270943E+3	6.65623751E+3	6.54050231E+3
9.18500000E+3	7.25376844E+1	-1.14074000E+6	1.15112400E+6	6.46200000E+3	6.67000000E+3	1.04946016E+0	1.03070240E+0	6.26951097E+3	6.47124005E+3	6.35564860E+3
9.18600000E+3	7.25177151E+1	-1.14239400E+6	1.15277400E+6	6.58500000E+3	6.81400000E+3	1.04941024E+0	1.03255744E+0	6.37736919E+3	6.59913369E+3	6.49317087E+3
9.18700000E+3	7.24977724E+1	-1.14404600E+6	1.15442000E+6	6.53800000E+3	6.76900000E+3	1.04990816E+0	1.02718688E+0	6.36495669E+3	6.58964637E+3	6.44723058E+3
9.18800000E+3	7.24778562E+1	-1.14569400E+6	1.15606300E+6	6.49500000E+3	6.71600000E+3	1.04974880E+0	1.03122304E+0	6.29834648E+3	6.51251793E+3	6.39772105E+3
9.18900000E+3	7.24579664E+1	-1.14734000E+6	1.15770400E+6	6.37100000E+3	6.56800000E+3	1.05047456E+0	1.02505600E+0	6.21527019E+3	6.40733688E+3	6.25241224E+3
9.19000000E+3	7.24381029E+1	-1.14898200E+6	1.15934100E+6	6.52000000E+3	6.74900000E+3	1.04977184E+0	1.02745408E+0	6.34578238E+3	6.56864865E+3	6.42901604E+3
9.19100000E+3	7.24182656E+1	-1.15062200E+6	1.16097600E+6	6.37400000E+3	6.60700000E+3	1.05038720E+0	1.02711328E+0	6.20574198E+3	6.43247437E+3	6.29006142E+3
9.19200000E+3	7.23984545E+1	-1.15225800E+6	1.16260800E+6	6.33000000E+3	6.53700000E+3	1.04995712E+0	1.02870720E+0	6.15335442E+3	6.35441467E+3	6.22596854E+3
9.19300000E+3	7.23786694E+1	-1.15389200E+6	1.16423600E+6	6.37200000E+3	6.59200000E+3	1.05002208E+0	1.02876960E+0	6.19380666E+3	6.40745588E+3	6.27796322E+3
9.19400000E+3	7.23589102E+1	-1.15552300E+6	1.16586200E+6	6.28400000E+3	6.48200000E+3	1.04930720E+0	1.03029728E+0	6.09921051E+3	6.29136974E+3	6.17740925E+3
9.19500000E+3	7.23391769E+1	-1.15715100E+6	1.16748500E+6	6.41100000E+3	6.62800000E+3	1.05010176E+0	1.02905280E+0	6.23000103E+3	6.44083059E+3	6.31176925E+3
9.19600000E+3	7.23194694E+1	-1.15877500E+6	1.16910500E+6	6.27900000E+3	6.48500000E+3	1.04978944E+0	1.02999456E+0	6.09614870E+3	6.29599185E+3	6.17742926E+3
9.19700000E+3	7.22997875E+1	-1.16039700E+6	1.17072200E+6	6.23300000E+3	6.44400000E+3	1.04977632E+0	1.03106528E+0	6.04520404E+3	6.24970803E+3	6.13845052E+3
9.19800000E+3	7.22801313E+1	-1.16201700E+6	1.17233600E+6	6.27100000E+3	6.49000000E+3	1.04953952E+0	1.02995168E+0	6.08863515E+3	6.30122092E+3	6.18366424E+3
9.19900000E+3	7.22605005E+1	-1.16363300E+6	1.17394700E+6	6.40700000E+3	6.61500000E+3	1.05023424E+0	1.03044768E+0	6.21768589E+3	6.41952506E+3	6.29859487E+3
9.20000000E+3	7.22408952E+1	-1.16524600E+6	1.17555500E+6	6.30400000E+3	6.51500000E+3	1.05010528E+0	1.02717632E+0	6.13721313E+3	6.34250770E+3	6.20413984E+3
9.20100000E+3	7.22213152E+1	-1.16685700E+6	1.17716100E+6	6.15800000E+3	6.38200000E+3	1.04963392E+0	1.02835072E+0	5.98822939E+3	6.20599593E+3	6.08021509E+3
9.20200000E+3	7.22017605E+1	-1.16846400E+6	1.17876400E+6	6.19200000E+3	6.40200000E+3	1.04988032E+0	1.02673344E+0	6.03077660E+3	6.23528720E+3	6.09783789E+3
9.20300000E+3	7.21822309E+1	-1.17006900E+6	1.18036300E+6	6.14800000E+3	6.37000000E+3	1.05014720E+0	1.02665888E+0	5.98835711E+3	6.20441889E+3	6.06581630E+3
9.20400000E+3	7.21627264E+1	-1.17167100E+6	1.18196000E+6	6.18100000E+3	6.38400000E+3	1.05009728E+0	1.03210080E+0	5.98875614E+3	6.18531934E+3	6.07943675E+3
9.20500000E+3	7.21432469E+1	-1.17327000E+6	1.18355400E+6	6.13100000E+3	6.36500000E+3	1.05005888E+0	1.02983744E+0	5.95336678E+3	6.18050250E+3	6.06156485E+3
9.20600000E+3	7.21237924E+1	-1.17486700E+6	1.18514600E+6	6.16800000E+3	6.37500000E+3	1.05014848E+0	1.02900704E+0	5.99412809E+3	6.19516856E+3	6.07057013E+3
9.20700000E+3	7.21043626E+1	-1.17646000E+6	1.18673400E+6	6.13400000E+3	6.35700000E+3	1.05024288E+0	1.02995680E+0	5.95558959E+3	6.17196296E+3	6.05288560E+3
9.20800000E+3	7.20849576E+1	-1.17805100E+6	1.18832000E+6	5.99400000E+3	6.19500000E+3	1.05009504E+0	1.02777568E+0	5.83201190E+3	6.02739557E+3	5.89946601E+3
9.20900000E+3	7.20655773E+1	-1.17963900E+6	1.18990300E+6	6.15300000E+3	6.36100000E+3	1.04953376E+0	1.02814240E+0	5.98457957E+3	6.18682415E+3	6.06078646E+3
9.21000000E+3	7.20462216E+1	-1.18122400E+6	1.19148300E+6	6.15800000E+3	6.38800000E+3	1.04957376E+0	1.02718496E+0	5.99502547E+3	6.21886464E+3	6.08628021E+3
9.21100000E+3	7.20268904E+1	-1.18280600E+6	1.19306100E+6	6.02300000E+3	6.21400000E+3	1.04951232E+0	1.02824160E+0	5.85757277E+3	6.04327477E+3	5.92084522E+3
9.21200000E+3	7.20075836E+1	-1.18438600E+6	1.19463500E+6	6.07300000E+3	6.29500000E+3	1.04970016E+0	1.03088608E+0	5.89104860E+3	6.10631317E+3	5.99695060E+3
9.21300000E+3	7.19883011E+1	-1.18596300E+6	1.19620700E+6	6.14900000E+3	6.38700000E+3	1.05021120E+0	1.02818656E+0	5.98043219E+3	6.21188000E+3	6.08163387E+3
9.21400000E+3	7.19690429E+1	-1.18753700E+6	1.19777600E+6	6.12900000E+3	6.35700000E+3	1.04958816E+0	1.02943552E+0	5.95374832E+3	6.17509335E+3	6.05666131E+3
9.21500000E+3	7.19498089E+1	-1.18910800E+6	1.19934200E+6	6.03600000E+3	6.22400000E+3	1.04939424E+0	1.02700800E+0	5.87726678E+3	6.06017064E+3	5.93104075E+3
9.21600000E+3	7.19305990E+1	-1.19067700E+6	1.20090600E+6	5.98000000E+3	6.18000000E+3	1.05008640E+0	1.02787584E+0	5.81782329E+3	6.01229542E+3	5.88523002E+3
9.21700000E+3	7.19114132E+1	-1.19224300E+6	1.20246700E+6	5.94800000E+3	6.15900000E+3	1.04972416E+0	1.02749600E+0	5.78883032E+3	5.99412719E+3	5.86725564E+3
9.21800000E+3	7.18922512E+1	-1.19380600E+6	1.20402500E+6	5.90200000E+3	6.12800000E+3	1.05010336E+0	1.02838336E+0	5.73910492E+3	5.95871817E+3	5.83561603E+3
9.21900000E+3	7.18731132E+1	-1.19536600E+6	1.20558100E+6	5.97300000E+3	6.19000000E+3	1.05002912E+0	1.02962240E+0	5.80115584E+3	6.01179112E+3	5.89507461E+3
9.22000000E+3	7.18539990E+1	-1.19692400E+6	1.20713400E+6	5.96500000E+3	6.18400000E+3	1.05026432E+0	1.02849152E+0	5.79975613E+3	6.01264364E+3	5.88804159E+3
9.22100000E+3	7.18349085E+1	-1.19847900E+6	1.20868400E+6	5.80800000E+3	5.99800000E+3	1.04985376E+0	1.03047072E+0	5.63625913E+3	5.82049676E+3	5.71317666E+3
9.22200000E+3	7.18158416E+1	-1.20003200E+6	1.21023100E+6	5.93300000E+3	6.12700000E+3	1.04946464E+0	1.03313024E+0	5.74274159E+3	5.93051373E+3	5.83821481E+3
9.22300000E+3	7.17967983E+1	-1.20158200E+6	1.21177600E+6	5.90000000E+3	6.12400000E+3	1.04972640E+0	1.02886272E+0	5.73448710E+3	5.95312612E+3	5.83485373E+3
9.22400000E+3	7.17777785E+1	-1.20312900E+6	1.21331800E+6	5.86400000E+3	6.08400000E+3	1.04977184E+0	1.03294880E+0	5.67695127E+3	5.88987255E+3	5.79554506E+3
9.22500000E+3	7.17587821E+1	-1.20467300E+6	1.21485800E+6	5.91300000E+3	6.11500000E+3	1.04978944E+0	1.02983328E+0	5.74170607E+3	5.93782713E+3	5.82497763E+3
9.22600000E+3	7.17398090E+1	-1.20621500E+6	1.21639400E+6	5.84200000E+3	6.04900000E+3	1.04982432E+0	1.02772736E+0	5.68438696E+3	5.88569198E+3	5.76191643E+3
9.22700000E+3	7.17208592E+1	-1.20775400E+6	1.21792900E+6	5.86000000E+3	6.07400000E+3	1.04985856E+0	1.03028512E+0	5.68774593E+3	5.89527969E+3	5.78554124E+3
9.22800000E+3	7.17019326E+1	-1.20929100E+6	1.21946000E+6	5.83500000E+3	6.03800000E+3	1.04939712E+0	1.02951040E+0	5.66774265E+3	5.86488884E+3	5.75377985E+3
9.22900000E+3	7.16830292E+1	-1.21082400E+6	1.22098900E+6	5.80200000E+3	6.03100000E+3	1.05018432E+0	1.03052672E+0	5.63013058E+3	5.85229747E+3	5.74280142E+3
9.23000000E+3	7.16641488E+1	-1.21235600E+6	1.22251500E+6	5.77000000E+3	5.98100000E+3	1.04985824E+0	1.02935264E+0	5.60546481E+3	5.81040663E+3	5.69695962E+3
9.23100000E+3	7.16452913E+1	-1.21388400E+6	1.22403900E+6	5.89300000E+3	6.08300000E+3	1.05015488E+0	1.03196352E+0	5.71047318E+3	5.89446279E+3	5.79247892E+3
9.23200000E+3	7.16264568E+1	-1.21541100E+6	1.22556000E+6	5.85100000E+3	6.05000000E+3	1.04978368E+0	1.03063968E+0	5.67705680E+3	5.87001034E+3	5.76309207E+3
9.23300000E+3	7.16076451E+1	-1.21693400E+6	1.22707900E+6	5.75700000E+3	5.96100000E+3	1.05045824E+0	1.02736128E+0	5.60367625E+3	5.80219631E+3	5.67466632E+3
9.23400000E+3	7.15888562E+1	-1.21845500E+6	1.22859500E+6	5.77000000E+3	5.97300000E+3	1.04954560E+0	1.02986688E+0	5.60266585E+3	5.79973907E+3	5.69103429E+3
9.23500000E+3	7.15700899E+1	-1.21997300E+6	1.23010800E+6	5.86300000E+3	6.05300000E+3	1.04999616E+0	1.02808288E+0	5.70284761E+3	5.88761770E+3	5.76478299E+3
9.23600000E+3	7.15513463E+1	-1.22148900E+6	1.23161900E+6	5.80700000E+3	6.01000000E+3	1.04983456E+0	1.02949760E+0	5.64061538E+3	5.83774581E+3	5.72471152E+3
9.23700000E+3	7.15326252E+1	-1.22300200E+6	1.23312700E+6	5.88100000E+3	6.11100000E+3	1.04984224E+0	1.02940160E+0	5.71302784E+3	5.93641097E+3	5.82087457E+3
9.23800000E+3	7.15139266E+1	-1.22451300E+6	1.23463300E+6	5.82800000E+3	6.04300000E+3	1.04938624E+0	1.02946496E+0	5.66119317E+3	5.86987635E+3	5.75860419E+3
9.23900000E+3	7.14952505E+1	-1.22602100E+6	1.23613600E+6	5.58700000E+3	5.80900000E+3	1.05027264E+0	1.02947840E+0	5.42702013E+3	5.64250349E+3	5.53094480E+3
9.24000000E+3	7.14765966E+1	-1.22752700E+6	1.23763700E+6	5.64000000E+3	5.82700000E+3	1.04993984E+0	1.03058368E+0	5.47262693E+3	5.65395247E+3	5.54984179E+3
9.24100000E+3	7.14579650E+1	-1.22903000E+6	1.23913500E+6	5.79900000E+3	6.04300000E+3	1.05027584E+0	1.02954944E+0	5.63256098E+3	5.86942299E+3	5.75372656E+3
9.24200000E+3	7.14393557E+1	-1.23053000E+6	1.24063000E+6	5.63200000E+3	5.83700000E+3	1.05036864E+0	1.03071360E+0	5.46417550E+3	5.66302667E+3	5.55709660E+3
9.24300000E+3	7.14207684E+1	-1.23202800E+6	1.24212300E+6	5.50100000E+3	5.69100000E+3	1.05043328E+0	1.03295584E+0	5.32549388E+3	5.50932814E+3	5.41776437E+3
9.24400000E+3	7.14022033E+1	-1.23352400E+6	1.24361400E+6	5.51900000E+3	5.71200000E+3	1.04998912E+0	1.03428192E+0	5.33606930E+3	5.52257484E+3	5.44005637E+3
9.24500000E+3	7.13836601E+1	-1.23501700E+6	1.24510200E+6	5.68200000E+3	5.88200000E+3	1.04990304E+0	1.03076128E+0	5.51243058E+3	5.70631233E+3	5.60242211E+3
9.24600000E+3	7.13651389E+1	-1.23650700E+6	1.24658800E+6	5.42100000E+3	5.62100000E+3	1.04993888E+0	1.03583296E+0	5.23346930E+3	5.42644329E+3	5.35364497E+3
9.24700000E+3	7.13466395E+1	-1.23799500E+6	1.24807100E+6	5.51500000E+3	5.72600000E+3	1.04960128E+0	1.03423040E+0	5.33246750E+3	5.53635083E+3	5.45540493E+3
9.24800000E+3	7.13281620E+1	-1.23948100E+6	1.24955100E+6	5.42300000E+3	5.65200000E+3	1.04980544E+0	1.02759360E+0	5.27737814E+3	5.50020375E+3	5.38385475E+3
9.24900000E+3	7.13097061E+1	-1.24096400E+6	1.25102900E+6	5.38400000E+3	5.58300000E+3	1.05042304E+0	1.03015040E+0	5.22642131E+3	5.41947086E+3	5.31500147E+3
9.25000000E+3	7.12912720E+1	-1.24244400E+6	1.25250500E+6	5.40400000E+3	5.62800000E+3	1.04969344E+0	1.02848992E+0	5.25430526E+3	5.47209446E+3	5.36156537E+3
9.25100000E+3	7.12728594E+1	-1.24392300E+6	1.25397800E+6	5.46100000E+3	5.68700000E+3	1.04965952E+0	1.02962848E+0	5.30385484E+3	5.52324108E+3	5.41794734E+3
9.25200000E+3	7.12544684E+1	-1.24539800E+6	1.25544900E+6	5.56700000E+3	5.76000000E+3	1.04967104E+0	1.02802752E+0	5.41522468E+3	5.60278826E+3	5.48743347E+3
9.25300000E+3	7.12360988E+1	-1.24687200E+6	1.25691800E+6	5.49900000E+3	5.70900000E+3	1.05025536E+0	1.03309664E+0	5.32283214E+3	5.52598278E+3	5.43582087E+3
9.25400000E+3	7.12177507E+1	-1.24834200E+6	1.25838300E+6	5.45500000E+3	5.65700000E+3	1.04939360E+0	1.03050720E+0	5.29350984E+3	5.48939272E+3	5.39073232E+3
9.25500000E+3	7.11994239E+1	-1.24981100E+6	1.25984700E+6	5.49600000E+3	5.70400000E+3	1.04951392E+0	1.02777984E+0	5.34744873E+3	5.54974726E+3	5.43489695E+3
9.25600000E+3	7.11811184E+1	-1.25127700E+6	1.26130800E+6	5.48000000E+3	5.69500000E+3	1.04991008E+0	1.02992928E+0	5.32075367E+3	5.52933562E+3	5.42427405E+3
9.25700000E+3	7.11628341E+1	-1.25274000E+6	1.26276700E+6	5.48600000E+3	5.69400000E+3	1.04968928E+0	1.03252672E+0	5.31317969E+3	5.51454986E+3	5.42446237E+3
9.25800000E+3	7.11445710E+1	-1.25420100E+6	1.26422300E+6	5.42300000E+3	5.62800000E+3	1.04955008E+0	1.03193920E+0	5.25515457E+3	5.45378049E+3	5.36229772E+3
9.25900000E+3	7.11263289E+1	-1.25566000E+6	1.26567700E+6	5.50200000E+3	5.71200000E+3	1.04972416E+0	1.03230880E+0	5.32980054E+3	5.53308403E+3	5.44142949E+3
9.26000000E+3	7.11081079E+1	-1.25711700E+6	1.26712800E+6	5.42300000E+3	5.61500000E+3	1.05013056E+0	1.02775456E+0	5.27655163E+3	5.46320336E+3	5.34695419E+3
9.26100000E+3	7.10899079E+1	-1.25857100E+6	1.26857700E+6	5.36300000E+3	5.57100000E+3	1.05025632E+0	1.03087232E+0	5.20239015E+3	5.40400893E+3	5.30441940E+3
9.26200000E+3	7.10717287E+1	-1.26002200E+6	1.27002400E+6	5.35400000E+3	5.51900000E+3	1.05027744E+0	1.02761312E+0	5.21013200E+3	5.37055597E+3	5.25480201E+3
9.26300000E+3	7.10535704E+1	-1.26147100E+6	1.27146800E+6	5.33700000E+3	5.53200000E+3	1.05052672E+0	1.03247488E+0	5.16913303E+3	5.35784779E+3	5.26592984E+3
9.26400000E+3	7.10354329E+1	-1.26291800E+6	1.27291000E+6	5.35200000E+3	5.54700000E+3	1.04983008E+0	1.03423328E+0	5.17484798E+3	5.36324939E+3	5.28371220E+3
9.26500000E+3	7.10173161E+1	-1.26436300E+6	1.27435000E+6	5.42900000E+3	5.61300000E+3	1.05022080E+0	1.03169600E+0	5.26220902E+3	5.44045795E+3	5.34459039E+3
9.26600000E+3	7.09992200E+1	-1.26580500E+6	1.27578700E+6	5.34300000E+3	5.51600000E+3	1.05004256E+0	1.02907808E+0	5.19202586E+3	5.36003406E+3	5.25312041E+3
9.26700000E+3	7.09811445E+1	-1.26724500E+6	1.27722200E+6	5.22000000E+3	5.44500000E+3	1.04986976E+0	1.03334592E+0	5.05155137E+3	5.26920336E+3	5.18635759E+3
9.26800000E+3	7.09630895E+1	-1.26868200E+6	1.27865500E+6	5.30500000E+3	5.49500000E+3	1.04955648E+0	1.02904064E+0	5.15528716E+3	5.33982836E+3	5.23554483E+3
9.26900000E+3	7.09450550E+1	-1.27011700E+6	1.28008500E+6	5.39700000E+3	5.62700000E+3	1.05035104E+0	1.03130496E+0	5.23317565E+3	5.45613644E+3	5.35725656E+3
9.27000000E+3	7.09270409E+1	-1.27155000E+6	1.28151300E+6	5.41500000E+3	5.61500000E+3	1.04951296E+0	1.03067808E+0	5.25382280E+3	5.44779023E+3	5.35010068E+3
9.27100000E+3	7.09090472E+1	-1.27298100E+6	1.28293800E+6	5.23600000E+3	5.48100000E+3	1.04964256E+0	1.03097088E+0	5.07870795E+3	5.31633744E+3	5.22177759E+3
9.27200000E+3	7.08910738E+1	-1.27440900E+6	1.28436200E+6	5.19300000E+3	5.41800000E+3	1.04963424E+0	1.03016320E+0	5.04094885E+3	5.25933001E+3	5.16179808E+3
9.27300000E+3	7.08731206E+1	-1.27583500E+6	1.28578300E+6	5.34000000E+3	5.55900000E+3	1.05035104E+0	1.03073792E+0	5.18075439E+3	5.39321825E+3	5.29251630E+3
9.27400000E+3	7.08551877E+1	-1.27725800E+6	1.28720100E+6	5.24000000E+3	5.44300000E+3	1.05013536E+0	1.03378624E+0	5.06874613E+3	5.26510093E+3	5.18314134E+3
9.27500000E+3	7.08372748E+1	-1.27868000E+6	1.28861800E+6	5.26000000E+3	5.44100000E+3	1.04990528E+0	1.03090304E+0	5.10232272E+3	5.27787189E+3	5.18237226E+3
9.27600000E+3	7.08193820E+1	-1.28009900E+6	1.29003200E+6	5.21100000E+3	5.40300000E+3	1.05026560E+0	1.03483968E+0	5.03556261E+3	5.22106978E+3	5.14441299E+3
9.27700000E+3	7.08015093E+1	-1.28151500E+6	1.29144400E+6	5.08400000E+3	5.25900000E+3	1.05041920E+0	1.03182624E+0	4.92718619E+3	5.09667086E+3	5.00657261E+3
9.27800000E+3	7.07836565E+1	-1.28293000E+6	1.29285300E+6	5.31600000E+3	5.50900000E+3	1.05045952E+0	1.02973056E+0	5.16251552E+3	5.34988781E+3	5.24437153E+3
9.27900000E+3	7.07658236E+1	-1.28434200E+6	1.29426000E+6	5.30400000E+3	5.52100000E+3	1.04956960E+0	1.03453472E+0	5.12694248E+3	5.33663420E+3	5.26025144E+3
9.28000000E+3	7.07480105E+1	-1.28575200E+6	1.29566500E+6	5.29600000E+3	5.49000000E+3	1.05024384E+0	1.03522752E+0	5.11578363E+3	5.30304671E+3	5.22735749E+3
9.28100000E+3	7.07302172E+1	-1.28715900E+6	1.29706800E+6	5.10300000E+3	5.30600000E+3	1.04955488E+0	1.02980512E+0	4.95530650E+3	5.15233508E+3	5.05547647E+3
9.28200000E+3	7.07124437E+1	-1.28856500E+6	1.29846900E+6	5.12200000E+3	5.35000000E+3	1.05010432E+0	1.03173696E+0	4.96444365E+3	5.18532190E+3	5.09473192E+3
9.28300000E+3	7.06946898E+1	-1.28996800E+6	1.29986700E+6	5.15900000E+3	5.38700000E+3	1.04995104E+0	1.02892832E+0	5.01395471E+3	5.23552998E+3	5.13071543E+3
9.28400000E+3	7.06769556E+1	-1.29136900E+6	1.30126300E+6	5.15600000E+3	5.36000000E+3	1.04935584E+0	1.02881248E+0	5.01160328E+3	5.20975186E+3	5.10789553E+3
9.28500000E+3	7.06592409E+1	-1.29276800E+6	1.30265700E+6	5.24800000E+3	5.45100000E+3	1.04975712E+0	1.03149056E+0	5.08778287E+3	5.28448944E+3	5.19262970E+3
9.28600000E+3	7.06415458E+1	-1.29416400E+6	1.30404800E+6	5.19500000E+3	5.37300000E+3	1.05023680E+0	1.03008128E+0	5.04329134E+3	5.21594270E+3	5.11598908E+3
9.28700000E+3	7.06238701E+1	-1.29555800E+6	1.30543800E+6	5.22500000E+3	5.42000000E+3	1.05046592E+0	1.02686592E+0	5.08829819E+3	5.27813160E+3	5.15961527E+3
9.28800000E+3	7.06062137E+1	-1.29695000E+6	1.30682500E+6	5.14200000E+3	5.35700000E+3	1.05016576E+0	1.03266336E+0	4.97935745E+3	5.18754818E+3	5.10109947E+3
9.28900000E+3	7.05885768E+1	-1.29834000E+6	1.30821000E+6	5.14300000E+3	5.36300000E+3	1.04990624E+0	1.03258304E+0	4.98071322E+3	5.19368546E+3	5.10807517E+3
9.29000000E+3	7.05709591E+1	-1.29972800E+6	1.30959300E+6	5.11900000E+3	5.32400000E+3	1.04932704E+0	1.03573536E+0	4.94238219E+3	5.14018399E+3	5.07372802E+3
9.29100000E+3	7.05533607E+1	-1.30111300E+6	1.31097300E+6	5.05900000E+3	5.26400000E+3	1.05013440E+0	1.03069792E+0	4.90832464E+3	5.10719248E+3	5.01269171E+3
9.29200000E+3	7.05357815E+1	-1.30249600E+6	1.31235200E+6	4.94000000E+3	5.14600000E+3	1.04956256E+0	1.03105920E+0	4.79118949E+3	4.99089865E+3	4.90299502E+3
9.29300000E+3	7.05182214E+1	-1.30387700E+6	1.31372800E+6	4.95900000E+3	5.17000000E+3	1.05001088E+0	1.03207904E+0	4.80486456E+3	5.00926748E+3	4.92375850E+3
9.29400000E+3	7.05006803E+1	-1.30525600E+6	1.31510200E+6	5.06300000E+3	5.25300000E+3	1.05004096E+0	1.03008576E+0	4.91512474E+3	5.09942856E+3	5.00266199E+3
9.29500000E+3	7.04831583E+1	-1.30663300E+6	1.31647400E+6	5.01600000E+3	5.24200000E+3	1.05017408E+0	1.02853888E+0	4.87682099E+3	5.09646225E+3	4.99155340E+3
9.29600000E+3	7.04656553E+1	-1.30800700E+6	1.31784300E+6	4.98600000E+3	5.20800000E+3	1.04968320E+0	1.02974240E+0	4.84198767E+3	5.05756659E+3	4.96149695E+3
9.29700000E+3	7.04481712E+1	-1.30938000E+6	1.31921100E+6	5.05600000E+3	5.28900000E+3	1.04951328E+0	1.03197184E+0	4.89935849E+3	5.12502465E+3	5.03947887E+3
9.29800000E+3	7.04307060E+1	-1.31075000E+6	1.32057600E+6	4.99000000E+3	5.21300000E+3	1.05005824E+0	1.03074528E+0	4.84115726E+3	5.05736731E+3	4.96448654E+3
9.29900000E+3	7.04132596E+1	-1.31211800E+6	1.32193900E+6	4.97100000E+3	5.17300000E+3	1.05049792E+0	1.03324224E+0	4.81106928E+3	5.00655237E+3	4.92433150E+3
9.30000000E+3	7.03958319E+1	-1.31348400E+6	1.32330000E+6	4.91600000E+3	5.11800000E+3	1.04980832E+0	1.02955680E+0	4.77487012E+3	4.97103957E+3	4.87517569E+3
9.30100000E+3	7.03784230E+1	-1.31484800E+6	1.32465900E+6	4.93200000E+3	5.12900000E+3	1.04951200E+0	1.03252256E+0	4.77665108E+3	4.96742393E+3	4.88703321E+3
9.30200000E+3	7.03610328E+1	-1.31620900E+6	1.32601600E+6	4.98200000E+3	5.18500000E+3	1.05015904E+0	1.03481952E+0	4.81436608E+3	5.01045607E+3	4.93734739E+3
9.30300000E+3	7.03436611E+1	-1.31756900E+6	1.32737100E+6	5.03200000E+3	5.24200000E+3	1.05072512E+0	1.02896672E+0	4.89034281E+3	5.09434362E+3	4.98893564E+3
9.30400000E+3	7.03263080E+1	-1.31892600E+6	1.32872300E+6	5.02700000E+3	5.21700000E+3	1.05022912E+0	1.02790304E+0	4.89053909E+3	5.07530560E+3	4.96748748E+3
9.30500000E+3	7.03089735E+1	-1.32028200E+6	1.33007400E+6	4.95000000E+3	5.14400000E+3	1.05102368E+0	1.03228288E+0	4.79519722E+3	4.98310280E+3	4.89427603E+3
9.30600000E+3	7.02916574E+1	-1.32163500E+6	1.33142200E+6	4.88100000E+3	5.08800000E+3	1.05036480E+0	1.03366720E+0	4.72202272E+3	4.92216648E+3	4.84403133E+3
9.30700000E+3	7.02743597E+1	-1.32298600E+6	1.33276800E+6	5.00500000E+3	5.20700000E+3	1.04960288E+0	1.03357760E+0	4.84240371E+3	5.03769109E+3	4.96092389E+3
9.30800000E+3	7.02570804E+1	-1.32433500E+6	1.33411300E+6	4.93500000E+3	5.13700000E+3	1.05029056E+0	1.02932640E+0	4.79439758E+3	4.99052925E+3	4.89102749E+3
9.30900000E+3	7.02398194E+1	-1.32568200E+6	1.33545500E+6	4.87300000E+3	5.07400000E+3	1.05027552E+0	1.02969440E+0	4.73247208E+3	4.92752420E+3	4.83111327E+3
9.31000000E+3	7.02225766E+1	-1.32702700E+6	1.33679500E+6	4.90400000E+3	5.09300000E+3	1.05065792E+0	1.03051040E+0	4.75880690E+3	4.94212123E+3	4.84743883E+3
9.31100000E+3	7.02053521E+1	-1.32836900E+6	1.33813300E+6	5.01900000E+3	5.22300000E+3	1.05070400E+0	1.03172128E+0	4.86468594E+3	5.06225815E+3	4.97095281E+3
9.31200000E+3	7.01881458E+1	-1.32971000E+6	1.33946800E+6	4.81200000E+3	4.99600000E+3	1.05059488E+0	1.03122720E+0	4.66628499E+3	4.84469082E+3	4.75540105E+3
9.31300000E+3	7.01709575E+1	-1.33104900E+6	1.34080200E+6	4.83600000E+3	5.03300000E+3	1.04984832E+0	1.03316672E+0	4.68075472E+3	4.87129854E+3	4.79402586E+3
9.31400000E+3	7.01537874E+1	-1.33238500E+6	1.34213400E+6	4.85900000E+3	5.03800000E+3	1.05025440E+0	1.02856096E+0	4.72407586E+3	4.89802945E+3	4.79693301E+3
9.31500000E+3	7.01366353E+1	-1.33371900E+6	1.34346300E+6	4.99100000E+3	5.19100000E+3	1.05032992E+0	1.03072448E+0	4.84222515E+3	5.03619040E+3	4.94225662E+3
9.31600000E+3	7.01195011E+1	-1.33505200E+6	1.34479100E+6	4.83600000E+3	5.04900000E+3	1.04946848E+0	1.03021856E+0	4.69414956E+3	4.90075887E+3	4.81100681E+3
9.31700000E+3	7.01023849E+1	-1.33638200E+6	1.34611600E+6	4.81800000E+3	4.99200000E+3	1.04947360E+0	1.03131904E+0	4.67168724E+3	4.84028232E+3	4.75667039E+3
9.31800000E+3	7.00852865E+1	-1.33771000E+6	1.34744000E+6	4.91200000E+3	5.11200000E+3	1.05015744E+0	1.03325376E+0	4.75391447E+3	4.94732718E+3	4.86784153E+3
9.31900000E+3	7.00682060E+1	-1.33903700E+6	1.34876100E+6	4.88000000E+3	5.08500000E+3	1.04964800E+0	1.02892928E+0	4.74279437E+3	4.94190208E+3	4.84448120E+3
9.32000000E+3	7.00511433E+1	-1.34036100E+6	1.35008100E+6	4.71600000E+3	4.92600000E+3	1.05031040E+0	1.02897344E+0	4.58320868E+3	4.78729279E+3	4.69004211E+3
9.32100000E+3	7.00340983E+1	-1.34168300E+6	1.35139800E+6	4.89000000E+3	5.10600000E+3	1.05052576E+0	1.03122880E+0	4.74191566E+3	4.95124784E+3	4.86042341E+3
9.32200000E+3	7.00170710E+1	-1.34300300E+6	1.35271300E+6	4.74600000E+3	4.92100000E+3	1.05049536E+0	1.02998592E+0	4.60782998E+3	4.77772629E+3	4.68445667E+3
9.32300000E+3	7.00000614E+1	-1.34432100E+6	1.35402700E+6	4.80100000E+3	5.00700000E+3	1.05050752E+0	1.02910176E+0	4.66523349E+3	4.86536958E+3	4.76626764E+3
9.32400000E+3	6.99830694E+1	-1.34563800E+6	1.35533800E+6	4.90200000E+3	5.09700000E+3	1.05023424E+0	1.03429056E+0	4.73948056E+3	4.92788957E+3	4.85320303E+3
9.32500000E+3	6.99660949E+1	-1.34695200E+6	1.35664700E+6	4.80400000E+3	4.97600000E+3	1.04989504E+0	1.03204096E+0	4.65485401E+3	4.82143598E+3	4.73952139E+3
9.32600000E+3	6.99491379E+1	-1.34826400E+6	1.35795500E+6	4.71600000E+3	4.90300000E+3	1.05027136E+0	1.02905344E+0	4.58285237E+3	4.76454783E+3	4.66831734E+3
9.32700000E+3	6.99321984E+1	-1.34957400E+6	1.35926000E+6	4.86600000E+3	5.06700000E+3	1.05042208E+0	1.03180000E+0	4.71603024E+3	4.91073839E+3	4.82377522E+3
9.32800000E+3	6.99152763E+1	-1.35088200E+6	1.36056300E+6	4.79600000E+3	4.99900000E+3	1.05002592E+0	1.02840256E+0	4.66354343E+3	4.86078899E+3	4.76083486E+3
9.32900000E+3	6.98983716E+1	-1.35218800E+6	1.36186500E+6	4.69400000E+3	4.88600000E+3	1.04977792E+0	1.02931680E+0	4.56030641E+3	4.74766313E+3	4.65527033E+3
9.33000000E+3	6.98814842E+1	-1.35349200E+6	1.36316400E+6	4.85100000E+3	5.05400000E+3	1.04972000E+0	1.03168384E+0	4.70202189E+3	4.89876957E+3	4.81461723E+3
9.33100000E+3	6.98646141E+1	-1.35479500E+6	1.36446100E+6	4.75100000E+3	4.95800000E+3	1.04943232E+0	1.02949184E+0	4.61489816E+3	4.81584984E+3	4.72445903E+3
9.33200000E+3	6.98477613E+1	-1.35609500E+6	1.36575700E+6	4.82900000E+3	5.07100000E+3	1.04970624E+0	1.03087328E+0	4.68437789E+3	4.91900772E+3	4.83087535E+3
9.33300000E+3	6.98309256E+1	-1.35739300E+6	1.36705000E+6	4.82000000E+3	4.99900000E+3	1.05037312E+0	1.03362432E+0	4.66320297E+3	4.83637807E+3	4.75926117E+3
9.33400000E+3	6.98141071E+1	-1.35868900E+6	1.36834200E+6	4.74400000E+3	4.94600000E+3	1.04956768E+0	1.03104096E+0	4.60117511E+3	4.79706461E+3	4.71241645E+3
9.33500000E+3	6.97973057E+1	-1.35998400E+6	1.36963100E+6	4.81100000E+3	5.01200000E+3	1.04994080E+0	1.03176608E+0	4.66287862E+3	4.85761078E+3	4.77360247E+3
9.33600000E+3	6.97805213E+1	-1.36127600E+6	1.37091900E+6	4.65700000E+3	4.84200000E+3	1.04968960E+0	1.03216576E+0	4.51187220E+3	4.69101635E+3	4.61279220E+3
9.33700000E+3	6.97637540E+1	-1.36256600E+6	1.37220400E+6	4.78000000E+3	4.98200000E+3	1.05007840E+0	1.03327168E+0	4.62608246E+3	4.82157448E+3	4.74440766E+3
9.33800000E+3	6.97470037E+1	-1.36385500E+6	1.37348800E+6	4.81300000E+3	5.01700000E+3	1.04948032E+0	1.03699200E+0	4.64130871E+3	4.83796353E+3	4.78046125E+3
9.33900000E+3	6.97302703E+1	-1.36514100E+6	1.37477000E+6	4.65600000E+3	4.86400000E+3	1.04973440E+0	1.03214464E+0	4.51099567E+3	4.71238933E+3	4.63355302E+3
9.34000000E+3	6.97135538E+1	-1.36642600E+6	1.37605000E+6	4.63700000E+3	4.82400000E+3	1.04948128E+0	1.03456416E+0	4.48208065E+3	4.66274936E+3	4.59655650E+3
9.34100000E+3	6.96968541E+1	-1.36770900E+6	1.37732800E+6	4.82400000E+3	5.04400000E+3	1.05002272E+0	1.03493344E+0	4.66116932E+3	4.87362676E+3	4.80370558E+3
9.34200000E+3	6.96801712E+1	-1.36898900E+6	1.37860400E+6	4.86400000E+3	5.06500000E+3	1.05002848E+0	1.03364192E+0	4.70569150E+3	4.90012629E+3	4.82367869E+3
9.34300000E+3	6.96635051E+1	-1.37026800E+6	1.37987800E+6	4.60700000E+3	4.78700000E+3	1.04952640E+0	1.03041056E+0	4.47103337E+3	4.64564437E+3	4.56110489E+3
9.34400000E+3	6.96468557E+1	-1.37154500E+6	1.38115000E+6	4.85700000E+3	5.02200000E+3	1.04991200E+0	1.03536352E+0	4.69110598E+3	4.85036981E+3	4.78325803E+3
9.34500000E+3	6.96302230E+1	-1.37282000E+6	1.38242000E+6	4.67400000E+3	4.86400000E+3	1.05032096E+0	1.03254560E+0	4.52667659E+3	4.71063704E+3	4.63096538E+3
9.34600000E+3	6.96136070E+1	-1.37409300E+6	1.38368800E+6	4.69600000E+3	4.88900000E+3	1.04979136E+0	1.03228512E+0	4.54913077E+3	4.73603361E+3	4.65711587E+3
9.34700000E+3	6.95970075E+1	-1.37536400E+6	1.38495500E+6	4.78600000E+3	4.96700000E+3	1.05023584E+0	1.03435648E+0	4.62703149E+3	4.80192686E+3	4.72941392E+3
9.34800000E+3	6.95804246E+1	-1.37663400E+6	1.38621900E+6	4.59000000E+3	4.78000000E+3	1.04995232E+0	1.03251424E+0	4.44545927E+3	4.63031475E+3	4.55354011E+3
9.34900000E+3	6.95638582E+1	-1.37790100E+6	1.38748200E+6	4.62000000E+3	4.80400000E+3	1.05018400E+0	1.03091008E+0	4.48147718E+3	4.65983225E+3	4.57443648E+3
9.35000000E+3	6.95473083E+1	-1.37916600E+6	1.38874200E+6	4.67500000E+3	4.84400000E+3	1.05018208E+0	1.03375936E+0	4.52232907E+3	4.68571485E+3	4.61253348E+3
9.35100000E+3	6.95307748E+1	-1.38043000E+6	1.39000100E+6	4.66500000E+3	4.83900000E+3	1.04984576E+0	1.03363040E+0	4.51321865E+3	4.68144864E+3	4.60924851E+3
9.35200000E+3	6.95142576E+1	-1.38169200E+6	1.39125800E+6	4.70200000E+3	4.89200000E+3	1.05011072E+0	1.03158784E+0	4.55802193E+3	4.74216217E+3	4.65855639E+3
9.35300000E+3	6.94977569E+1	-1.38295200E+6	1.39251300E+6	4.66800000E+3	4.86700000E+3	1.05008096E+0	1.03354688E+0	4.51648599E+3	4.70890176E+3	4.63488072E+3
9.35400000E+3	6.94812724E+1	-1.38421000E+6	1.39376700E+6	4.76200000E+3	4.95400000E+3	1.04973568E+0	1.03138016E+0	4.61711422E+3	4.80320517E+3	4.71928324E+3
9.35500000E+3	6.94648042E+1	-1.38546600E+6	1.39501800E+6	4.59300000E+3	4.79700000E+3	1.05017920E+0	1.03240928E+0	4.44881704E+3	4.64627657E+3	4.56779186E+3
9.35600000E+3	6.94483523E+1	-1.38672000E+6	1.39626800E+6	4.63200000E+3	4.81300000E+3	1.04969344E+0	1.02982208E+0	4.49786433E+3	4.67359320E+3	4.58514821E+3
9.35700000E+3	6.94319165E+1	-1.38797300E+6	1.39751500E+6	4.50400000E+3	4.68700000E+3	1.04945376E+0	1.03329248E+0	4.35888201E+3	4.53595899E+3	4.46613293E+3
9.35800000E+3	6.94154969E+1	-1.38922300E+6	1.39876100E+6	4.61900000E+3	4.81300000E+3	1.05050016E+0	1.03361312E+0	4.46879002E+3	4.65647510E+3	4.58162710E+3
9.35900000E+3	6.93990933E+1	-1.39047200E+6	1.40000500E+6	4.58300000E+3	4.77100000E+3	1.05012256E+0	1.03057184E+0	4.44704563E+3	4.62946011E+3	4.54327921E+3
9.36000000E+3	6.93827059E+1	-1.39171900E+6	1.40124700E+6	4.73900000E+3	4.93400000E+3	1.04999392E+0	1.03417088E+0	4.58241485E+3	4.77096034E+3	4.69907483E+3
9.36100000E+3	6.93663345E+1	-1.39296400E+6	1.40248700E+6	4.49000000E+3	4.66900000E+3	1.04993120E+0	1.02894464E+0	4.36369444E+3	4.53764887E+3	4.44695805E+3
9.36200000E+3	6.93499790E+1	-1.39420700E+6	1.40372600E+6	4.51800000E+3	4.70000000E+3	1.04960800E+0	1.03106912E+0	4.38185948E+3	4.55832875E+3	4.47786221E+3
9.36300000E+3	6.93336396E+1	-1.39544800E+6	1.40496200E+6	4.49700000E+3	4.69000000E+3	1.04977984E+0	1.03250304E+0	4.35543512E+3	4.54228010E+3	4.46760342E+3
9.36400000E+3	6.93173160E+1	-1.39668800E+6	1.40619700E+6	4.56400000E+3	4.74200000E+3	1.05010688E+0	1.03199744E+0	4.42249159E+3	4.59491237E+3	4.51573082E+3
9.36500000E+3	6.93010083E+1	-1.39792600E+6	1.40743000E+6	4.51900000E+3	4.70800000E+3	1.04946048E+0	1.02786016E+0	4.39651246E+3	4.58035304E+3	4.48611462E+3
9.36600000E+3	6.92847164E+1	-1.39916200E+6	1.40866100E+6	4.56500000E+3	4.74800000E+3	1.04991104E+0	1.03040640E+0	4.43029081E+3	4.60783931E+3	4.52228791E+3
9.36700000E+3	6.92684404E+1	-1.40039600E+6	1.40989100E+6	4.57900000E+3	4.77300000E+3	1.04978208E+0	1.03149312E+0	4.43919587E+3	4.62720378E+3	4.54665791E+3
9.36800000E+3	6.92521801E+1	-1.40162800E+6	1.41111800E+6	4.56600000E+3	4.75200000E+3	1.04953088E+0	1.03371072E+0	4.41709650E+3	4.59697143E+3	4.52773719E+3
9.36900000E+3	6.92359355E+1	-1.40285800E+6	1.41234400E+6	4.53900000E+3	4.73500000E+3	1.04924096E+0	1.03189152E+0	4.39871819E+3	4.58854991E+3	4.51278608E+3
9.37000000E+3	6.92197066E+1	-1.40408700E+6	1.41356800E+6	4.37700000E+3	4.56300000E+3	1.04971424E+0	1.03498944E+0	4.22902866E+3	4.40864285E+3	4.34689730E+3
9.37100000E+3	6.92034933E+1	-1.40531400E+6	1.41479000E+6	4.54500000E+3	4.73100000E+3	1.04963072E+0	1.03055552E+0	4.41024274E+3	4.59066810E+3	4.50729948E+3
9.37200000E+3	6.91872957E+1	-1.40653900E+6	1.41601100E+6	4.49000000E+3	4.68100000E+3	1.04981856E+0	1.03320224E+0	4.34571261E+3	4.53054582E+3	4.45886573E+3
9.37300000E+3	6.91711136E+1	-1.40776200E+6	1.41722900E+6	4.61300000E+3	4.79800000E+3	1.05033760E+0	1.03490496E+0	4.45741414E+3	4.63617177E+3	4.56805507E+3
9.37400000E+3	6.91549471E+1	-1.40898400E+6	1.41844600E+6	4.58900000E+3	4.75800000E+3	1.04970080E+0	1.03559680E+0	4.43126128E+3	4.59435954E+3	4.53272018E+3
9.37500000E+3	6.91387960E+1	-1.41020400E+6	1.41966100E+6	4.65800000E+3	4.82600000E+3	1.04989152E+0	1.03115936E+0	4.51724552E+3	4.68015406E+3	4.59666538E+3
9.37600000E+3	6.91226604E+1	-1.41142200E+6	1.42087400E+6	4.55600000E+3	4.74900000E+3	1.05001344E+0	1.03184928E+0	4.41537353E+3	4.60234377E+3	4.52279925E+3
9.37700000E+3	6.91065402E+1	-1.41263800E+6	1.42208600E+6	4.62900000E+3	4.82900000E+3	1.04962336E+0	1.03473120E+0	4.47362561E+3	4.66691007E+3	4.60069791E+3
9.37800000E+3	6.90904355E+1	-1.41385200E+6	1.42329500E+6	4.55600000E+3	4.75200000E+3	1.04983072E+0	1.03172224E+0	4.41591721E+3	4.60581756E+3	4.52644403E+3
9.37900000E+3	6.90743460E+1	-1.41506500E+6	1.42450300E+6	4.59700000E+3	4.77500000E+3	1.04989248E+0	1.03289280E+0	4.45060707E+3	4.62290240E+3	4.54808477E+3
9.38000000E+3	6.90582719E+1	-1.41627600E+6	1.42571000E+6	4.46700000E+3	4.65600000E+3	1.05009632E+0	1.03081600E+0	4.33346009E+3	4.51671304E+3	4.43387898E+3
9.38100000E+3	6.90422130E+1	-1.41748500E+6	1.42691400E+6	4.49000000E+3	4.66400000E+3	1.05033120E+0	1.03623264E+0	4.33300383E+3	4.50086795E+3	4.44050410E+3
9.38200000E+3	6.90261694E+1	-1.41869300E+6	1.42811700E+6	4.49300000E+3	4.70200000E+3	1.04968544E+0	1.03292160E+0	4.34979770E+3	4.55208964E+3	4.47943719E+3
9.38300000E+3	6.90101410E+1	-1.41989800E+6	1.42931800E+6	4.43000000E+3	4.61600000E+3	1.05004096E+0	1.02883232E+0	4.30585229E+3	4.48661731E+3	4.39601899E+3
9.38400000E+3	6.89941278E+1	-1.42110200E+6	1.43051700E+6	4.48300000E+3	4.66200000E+3	1.05017216E+0	1.03673088E+0	4.32416945E+3	4.49669778E+3	4.43927213E+3
9.38500000E+3	6.89781297E+1	-1.42230400E+6	1.43171400E+6	4.45800000E+3	4.66600000E+3	1.04953824E+0	1.03285920E+0	4.31617398E+3	4.51844104E+3	4.44671744E+3
9.38600000E+3	6.89621467E+1	-1.42350500E+6	1.43291000E+6	4.23900000E+3	4.41800000E+3	1.04922784E+0	1.02972128E+0	4.11664795E+3	4.29043315E+3	4.21071557E+3
9.38700000E+3	6.89461787E+1	-1.42470400E+6	1.43410400E+6	4.49100000E+3	4.69700000E+3	1.04975584E+0	1.02645856E+0	4.37523752E+3	4.57579788E+3	4.47437377E+3
9.38800000E+3	6.89302258E+1	-1.42590100E+6	1.43529600E+6	4.52700000E+3	4.73600000E+3	1.05044160E+0	1.03350848E+0	4.38022531E+3	4.58244690E+3	4.50858001E+3
9.38900000E+3	6.89142879E+1	-1.42709600E+6	1.43648700E+6	4.46600000E+3	4.66200000E+3	1.04926656E+0	1.03543072E+0	4.31318090E+3	4.50244603E+3	4.44310357E+3
9.39000000E+3	6.88983649E+1	-1.42828900E+6	1.43767600E+6	4.42100000E+3	4.62400000E+3	1.04954304E+0	1.03586272E+0	4.26794006E+3	4.46379781E+3	4.40572690E+3
9.39100000E+3	6.88824568E+1	-1.42948100E+6	1.43886300E+6	4.36300000E+3	4.53800000E+3	1.04948768E+0	1.03233408E+0	4.22634502E+3	4.39583251E+3	4.32401455E+3
9.39200000E+3	6.88665637E+1	-1.43067100E+6	1.44004900E+6	4.40400000E+3	4.62000000E+3	1.05021376E+0	1.03634432E+0	4.24955289E+3	4.45789822E+3	4.39910443E+3
9.39300000E+3	6.88506853E+1	-1.43186000E+6	1.44123200E+6	4.21800000E+3	4.41500000E+3	1.04996512E+0	1.03433760E+0	4.07797222E+3	4.26840412E+3	4.20490159E+3
9.39400000E+3	6.88348218E+1	-1.43304700E+6	1.44241400E+6	4.45800000E+3	4.61300000E+3	1.04975200E+0	1.03423456E+0	4.31043418E+3	4.46023183E+3	4.39437124E+3
9.39500000E+3	6.88189731E+1	-1.43423200E+6	1.44359500E+6	4.48200000E+3	4.68200000E+3	1.04997952E+0	1.03205856E+0	4.34277683E+3	4.53651105E+3	4.45913459E+3
9.39600000E+3	6.88031392E+1	-1.43541500E+6	1.44477300E+6	4.49500000E+3	4.69500000E+3	1.04934400E+0	1.03095776E+0	4.36002344E+3	4.55394574E+3	4.47422390E+3
9.39700000E+3	6.87873199E+1	-1.43659700E+6	1.44595000E+6	4.37000000E+3	4.56100000E+3	1.04988160E+0	1.03532960E+0	4.22087807E+3	4.40528651E+3	4.34429940E+3
9.39800000E+3	6.87715153E+1	-1.43777700E+6	1.44712600E+6	4.29100000E+3	4.47500000E+3	1.05019936E+0	1.03064576E+0	4.16340916E+3	4.34187043E+3	4.26109572E+3
9.39900000E+3	6.87557254E+1	-1.43895500E+6	1.44829900E+6	4.43100000E+3	4.63300000E+3	1.05041920E+0	1.03560992E+0	4.27863804E+3	4.47368357E+3	4.41062006E+3
9.40000000E+3	6.87399501E+1	-1.44013200E+6	1.44947100E+6	4.40200000E+3	4.61300000E+3	1.05030432E+0	1.03301568E+0	4.26130995E+3	4.46552372E+3	4.39206039E+3
