1069_I0_Cu_edge     30 scans
***************************
Energy_(eV)	theta_(deg)	source_(ustep)	detect_(ustep)	ROI_counts	total_counts	real_time	live_time	cnts_per_live	ICR_(cnts/sec)	OCR_(cnts/sec)
8.92000000E+3	7.92723267E+1	-5.42588000E+5	5.54368000E+5	1.17430000E+4	1.21080000E+4	1.05043584E+0	1.01640352E+0	1.15534822E+4	1.19122670E+4	1.15266440E+4
8.92100000E+3	7.92380699E+1	-5.45805000E+5	5.57580000E+5	1.16050000E+4	1.19360000E+4	1.05033184E+0	1.01916416E+0	1.13867819E+4	1.17113266E+4	1.13640276E+4
8.92200000E+3	7.92039294E+1	-5.49011000E+5	5.60779000E+5	1.17430000E+4	1.20880000E+4	1.05079264E+0	1.01972352E+0	1.15158666E+4	1.18541122E+4	1.15036969E+4
8.92300000E+3	7.91699042E+1	-5.52203000E+5	5.63967000E+5	1.14900000E+4	1.18300000E+4	1.05051840E+0	1.01677280E+0	1.13004597E+4	1.16346664E+4	1.12611069E+4
8.92400000E+3	7.91359931E+1	-5.55384000E+5	5.67142000E+5	1.13460000E+4	1.16470000E+4	1.05066144E+0	1.01758656E+0	1.11499114E+4	1.14453690E+4	1.10853978E+4
8.92500000E+3	7.91021951E+1	-5.58552000E+5	5.70305000E+5	1.12730000E+4	1.15800000E+4	1.05112928E+0	1.01830240E+0	1.10703854E+4	1.13716200E+4	1.10167229E+4
8.92600000E+3	7.90685091E+1	-5.61709000E+5	5.73456000E+5	1.11640000E+4	1.15110000E+4	1.05076992E+0	1.01774656E+0	1.09693321E+4	1.13100699E+4	1.09548244E+4
8.92700000E+3	7.90349341E+1	-5.64854000E+5	5.76595000E+5	1.10940000E+4	1.14060000E+4	1.05100992E+0	1.01768800E+0	1.09011799E+4	1.12076234E+4	1.08524190E+4
8.92800000E+3	7.90014690E+1	-5.67986000E+5	5.79722000E+5	1.12110000E+4	1.15490000E+4	1.05084128E+0	1.02144032E+0	1.09756780E+4	1.13063157E+4	1.09902420E+4
8.92900000E+3	7.89681128E+1	-5.71108000E+5	5.82838000E+5	1.11560000E+4	1.14950000E+4	1.05032320E+0	1.01993472E+0	1.09379549E+4	1.12700028E+4	1.09442503E+4
8.93000000E+3	7.89348645E+1	-5.74217000E+5	5.85942000E+5	1.11090000E+4	1.14070000E+4	1.05018944E+0	1.02045312E+0	1.08863404E+4	1.11783565E+4	1.08618498E+4
8.93100000E+3	7.89017231E+1	-5.77316000E+5	5.89035000E+5	1.10050000E+4	1.13110000E+4	1.05081984E+0	1.02018016E+0	1.07873104E+4	1.10872151E+4	1.07639764E+4
8.93200000E+3	7.88686878E+1	-5.80403000E+5	5.92117000E+5	1.11160000E+4	1.14270000E+4	1.05093024E+0	1.01836864E+0	1.09154972E+4	1.12208396E+4	1.08732241E+4
8.93300000E+3	7.88357574E+1	-5.83478000E+5	5.95187000E+5	1.09530000E+4	1.12670000E+4	1.05043040E+0	1.01717984E+0	1.07680074E+4	1.10764076E+4	1.07260795E+4
8.93400000E+3	7.88029311E+1	-5.86543000E+5	5.98246000E+5	1.10280000E+4	1.13350000E+4	1.05023712E+0	1.02001888E+0	1.08115646E+4	1.11123241E+4	1.07928008E+4
8.93500000E+3	7.87702079E+1	-5.89596000E+5	6.01294000E+5	1.11400000E+4	1.14730000E+4	1.05083264E+0	1.01607776E+0	1.09637278E+4	1.12914270E+4	1.09180088E+4
8.93600000E+3	7.87375870E+1	-5.92639000E+5	6.04331000E+5	1.06870000E+4	1.10020000E+4	1.05094944E+0	1.02303232E+0	1.04463953E+4	1.07539862E+4	1.04686292E+4
8.93700000E+3	7.87050674E+1	-5.95671000E+5	6.07357000E+5	1.09420000E+4	1.12480000E+4	1.05078016E+0	1.01808256E+0	1.07476549E+4	1.10479465E+4	1.07044275E+4
8.93800000E+3	7.86726483E+1	-5.98691000E+5	6.10373000E+5	1.08450000E+4	1.11500000E+4	1.05040160E+0	1.01856992E+0	1.06472808E+4	1.09465919E+4	1.06149876E+4
8.93900000E+3	7.86403288E+1	-6.01702000E+5	6.13377000E+5	1.08340000E+4	1.11380000E+4	1.05091136E+0	1.01833056E+0	1.06389815E+4	1.09372533E+4	1.05984200E+4
8.94000000E+3	7.86081080E+1	-6.04701000E+5	6.16371000E+5	1.05490000E+4	1.08500000E+4	1.05101248E+0	1.02141408E+0	1.03278388E+4	1.06224695E+4	1.03233788E+4
8.94100000E+3	7.85759850E+1	-6.07690000E+5	6.19355000E+5	1.05750000E+4	1.09250000E+4	1.05036000E+0	1.02247008E+0	1.03426009E+4	1.06848149E+4	1.04011958E+4
8.94200000E+3	7.85439592E+1	-6.10669000E+5	6.22328000E+5	1.08800000E+4	1.12060000E+4	1.05125536E+0	1.02109984E+0	1.06551775E+4	1.09743783E+4	1.06596365E+4
8.94300000E+3	7.85120295E+1	-6.13638000E+5	6.25291000E+5	1.10180000E+4	1.13020000E+4	1.05061600E+0	1.01854624E+0	1.08173783E+4	1.10959271E+4	1.07574985E+4
8.94400000E+3	7.84801952E+1	-6.16596000E+5	6.28244000E+5	1.05440000E+4	1.08460000E+4	1.05069120E+0	1.02162048E+0	1.03208581E+4	1.06163916E+4	1.03227285E+4
8.94500000E+3	7.84484556E+1	-6.19544000E+5	6.31186000E+5	1.07220000E+4	1.10390000E+4	1.05053312E+0	1.01852288E+0	1.05270095E+4	1.08382099E+4	1.05079981E+4
8.94600000E+3	7.84168098E+1	-6.22481000E+5	6.34119000E+5	1.06160000E+4	1.09190000E+4	1.05091840E+0	1.02280896E+0	1.03792599E+4	1.06754552E+4	1.03899599E+4
8.94700000E+3	7.83852570E+1	-6.25409000E+5	6.37041000E+5	1.06440000E+4	1.09570000E+4	1.05015584E+0	1.02029120E+0	1.04323158E+4	1.07390580E+4	1.04336895E+4
8.94800000E+3	7.83537965E+1	-6.28327000E+5	6.39954000E+5	1.06880000E+4	1.09840000E+4	1.05080384E+0	1.02103104E+0	1.04678502E+4	1.07574891E+4	1.04529500E+4
8.94900000E+3	7.83224276E+1	-6.31235000E+5	6.42856000E+5	1.06890000E+4	1.09840000E+4	1.05101568E+0	1.02270368E+0	1.04517078E+4	1.07400480E+4	1.04508431E+4
8.95000000E+3	7.82911494E+1	-6.34134000E+5	6.45749000E+5	1.03090000E+4	1.06380000E+4	1.05030208E+0	1.02107040E+0	1.00962676E+4	1.04183402E+4	1.01285146E+4
8.95100000E+3	7.82599613E+1	-6.37022000E+5	6.48632000E+5	1.05510000E+4	1.08630000E+4	1.05015360E+0	1.02303584E+0	1.03134217E+4	1.06181700E+4	1.03442011E+4
8.95200000E+3	7.82288625E+1	-6.39901000E+5	6.51506000E+5	1.05730000E+4	1.08470000E+4	1.05131584E+0	1.02326784E+0	1.03325831E+4	1.06000480E+4	1.03175464E+4
8.95300000E+3	7.81978523E+1	-6.42771000E+5	6.54370000E+5	1.06360000E+4	1.09270000E+4	1.05037312E+0	1.02224928E+0	1.04045072E+4	1.06889373E+4	1.04029699E+4
8.95400000E+3	7.81669300E+1	-6.45631000E+5	6.57225000E+5	1.06000000E+4	1.08930000E+4	1.05075072E+0	1.02087232E+0	1.03832769E+4	1.06699618E+4	1.03668737E+4
8.95500000E+3	7.81360949E+1	-6.48481000E+5	6.60070000E+5	1.06460000E+4	1.09250000E+4	1.05056864E+0	1.02263712E+0	1.04103399E+4	1.06829744E+4	1.03991301E+4
8.95600000E+3	7.81053463E+1	-6.51323000E+5	6.62906000E+5	1.04780000E+4	1.07710000E+4	1.05065024E+0	1.02111552E+0	1.02613267E+4	1.05479820E+4	1.02517466E+4
8.95700000E+3	7.80746835E+1	-6.54155000E+5	6.65732000E+5	1.05280000E+4	1.08270000E+4	1.05016384E+0	1.01901120E+0	1.03315842E+4	1.06248281E+4	1.03098198E+4
8.95800000E+3	7.80441059E+1	-6.56978000E+5	6.68550000E+5	1.05130000E+4	1.08380000E+4	1.05071904E+0	1.02148896E+0	1.02918391E+4	1.06097909E+4	1.03148412E+4
8.95900000E+3	7.80136129E+1	-6.59791000E+5	6.71358000E+5	1.05950000E+4	1.09260000E+4	1.05063424E+0	1.02149056E+0	1.03720978E+4	1.06960533E+4	1.03994326E+4
8.96000000E+3	7.79832037E+1	-6.62596000E+5	6.74157000E+5	1.06180000E+4	1.09470000E+4	1.05049824E+0	1.01973600E+0	1.04124989E+4	1.07350894E+4	1.04207695E+4
8.96100000E+3	7.79528777E+1	-6.65392000E+5	6.76947000E+5	1.04870000E+4	1.07930000E+4	1.05061088E+0	1.02331872E+0	1.02480291E+4	1.05467280E+4	1.02730708E+4
8.96200000E+3	7.79226342E+1	-6.68178000E+5	6.79729000E+5	1.05120000E+4	1.08180000E+4	1.05021696E+0	1.01888256E+0	1.03171851E+4	1.06173968E+4	1.03007287E+4
8.96300000E+3	7.78924728E+1	-6.70956000E+5	6.82501000E+5	1.04710000E+4	1.07790000E+4	1.05060320E+0	1.02249664E+0	1.02406204E+4	1.05415652E+4	1.02598203E+4
8.96400000E+3	7.78623926E+1	-6.73726000E+5	6.85265000E+5	1.05050000E+4	1.07950000E+4	1.05114592E+0	1.02058336E+0	1.02931327E+4	1.05769571E+4	1.02697445E+4
8.96500000E+3	7.78323932E+1	-6.76486000E+5	6.88020000E+5	1.03880000E+4	1.06920000E+4	1.05013952E+0	1.01715456E+0	1.02128038E+4	1.05114521E+4	1.01815043E+4
8.96600000E+3	7.78024739E+1	-6.79238000E+5	6.90766000E+5	1.06350000E+4	1.09390000E+4	1.05076512E+0	1.02285888E+0	1.03973287E+4	1.06943495E+4	1.04105092E+4
8.96700000E+3	7.77726341E+1	-6.81981000E+5	6.93504000E+5	1.04500000E+4	1.07410000E+4	1.05078688E+0	1.02217280E+0	1.02233204E+4	1.05078441E+4	1.02218634E+4
8.96800000E+3	7.77428733E+1	-6.84716000E+5	6.96233000E+5	1.05850000E+4	1.08880000E+4	1.05005472E+0	1.01825792E+0	1.03952052E+4	1.06925315E+4	1.03689834E+4
8.96900000E+3	7.77131908E+1	-6.87442000E+5	6.98954000E+5	1.04690000E+4	1.07910000E+4	1.05014208E+0	1.01972352E+0	1.02665083E+4	1.05820162E+4	1.02757524E+4
8.97000000E+3	7.76835861E+1	-6.90159000E+5	7.01666000E+5	5.04220000E+4	5.17860000E+4	5.04957952E+0	4.90238336E+0	1.02852014E+4	1.05632136E+4	1.02555074E+4
8.97050000E+3	7.76688127E+1	-6.91515000E+5	7.03019000E+5	5.06960000E+4	5.21300000E+4	5.04994560E+0	4.90691936E+0	1.03315331E+4	1.06234646E+4	1.03228835E+4
8.97100000E+3	7.76540586E+1	-6.92869000E+5	7.04370000E+5	5.07810000E+4	5.20880000E+4	5.05054816E+0	4.89817920E+0	1.03673218E+4	1.06342732E+4	1.03133360E+4
8.97150000E+3	7.76393237E+1	-6.94220000E+5	7.05719000E+5	5.05750000E+4	5.19510000E+4	5.05065920E+0	4.89890656E+0	1.03237323E+4	1.06045822E+4	1.02859841E+4
8.97200000E+3	7.76246078E+1	-6.95570000E+5	7.07066000E+5	5.07510000E+4	5.21740000E+4	5.05011872E+0	4.90422496E+0	1.03484241E+4	1.06386093E+4	1.03312423E+4
8.97250000E+3	7.76099109E+1	-6.96917000E+5	7.08411000E+5	5.09990000E+4	5.24340000E+4	5.04928256E+0	4.90680896E+0	1.03935165E+4	1.06859931E+4	1.03844456E+4
8.97300000E+3	7.75952330E+1	-6.98263000E+5	7.09753000E+5	5.13860000E+4	5.28170000E+4	5.05011616E+0	4.90648000E+0	1.04730887E+4	1.07644721E+4	1.04585713E+4
8.97350000E+3	7.75805740E+1	-6.99606000E+5	7.11094000E+5	5.14710000E+4	5.29300000E+4	5.05047552E+0	4.89978016E+0	1.05047570E+4	1.08025749E+4	1.04803993E+4
8.97400000E+3	7.75659338E+1	-7.00947000E+5	7.12433000E+5	5.15460000E+4	5.29550000E+4	5.04934368E+0	4.90724320E+0	1.05040647E+4	1.07913488E+4	1.04875016E+4
8.97450000E+3	7.75513124E+1	-7.02287000E+5	7.13769000E+5	5.16600000E+4	5.31100000E+4	5.05079744E+0	4.90922016E+0	1.05230563E+4	1.08183178E+4	1.05151712E+4
8.97500000E+3	7.75367097E+1	-7.03624000E+5	7.15104000E+5	5.15110000E+4	5.29020000E+4	5.05056512E+0	4.89677568E+0	1.05193710E+4	1.08033559E+4	1.04744714E+4
8.97550000E+3	7.75221255E+1	-7.04959000E+5	7.16436000E+5	5.19740000E+4	5.33750000E+4	5.04919456E+0	4.89894208E+0	1.06092293E+4	1.08951746E+4	1.05709929E+4
8.97600000E+3	7.75075600E+1	-7.06292000E+5	7.17767000E+5	5.16950000E+4	5.31770000E+4	5.05054368E+0	4.90710688E+0	1.05347206E+4	1.08368957E+4	1.05291635E+4
8.97650000E+3	7.74930129E+1	-7.07624000E+5	7.19095000E+5	5.17320000E+4	5.31730000E+4	5.04977824E+0	4.90019904E+0	1.05571222E+4	1.08513128E+4	1.05297693E+4
8.97700000E+3	7.74784842E+1	-7.08953000E+5	7.20422000E+5	5.10850000E+4	5.24670000E+4	5.05007584E+0	4.90582880E+0	1.04131233E+4	1.06949183E+4	1.03893489E+4
8.97750000E+3	7.74639739E+1	-7.10280000E+5	7.21747000E+5	5.13500000E+4	5.27780000E+4	5.04964352E+0	4.88887744E+0	1.05034337E+4	1.07955456E+4	1.04518269E+4
8.97800000E+3	7.74494819E+1	-7.11605000E+5	7.23069000E+5	5.11000000E+4	5.24640000E+4	5.05020640E+0	4.90234912E+0	1.04235742E+4	1.07017951E+4	1.03884863E+4
8.97850000E+3	7.74350081E+1	-7.12929000E+5	7.24390000E+5	5.10620000E+4	5.25460000E+4	5.04944224E+0	4.90493536E+0	1.04103309E+4	1.07130614E+4	1.04062979E+4
8.97900000E+3	7.74205525E+1	-7.14250000E+5	7.25708000E+5	5.07040000E+4	5.21100000E+4	5.05043776E+0	4.90653984E+0	1.03339628E+4	1.06204498E+4	1.03179175E+4
8.97950000E+3	7.74061150E+1	-7.15569000E+5	7.27025000E+5	4.97730000E+4	5.11780000E+4	5.04965248E+0	4.89783552E+0	1.01622441E+4	1.04487873E+4	1.01349549E+4
8.98000000E+3	7.73916955E+1	-7.16887000E+5	7.28340000E+5	4.97060000E+4	5.11040000E+4	5.05038688E+0	4.90254560E+0	1.01388144E+4	1.04238188E+4	1.01188288E+4
8.98050000E+3	7.73772940E+1	-7.18202000E+5	7.29652000E+5	5.02400000E+4	5.16710000E+4	5.05061216E+0	4.89783328E+0	1.02575970E+4	1.05496467E+4	1.02306410E+4
8.98100000E+3	7.73629105E+1	-7.19516000E+5	7.30963000E+5	4.97950000E+4	5.11710000E+4	5.05074592E+0	4.91611712E+0	1.01289287E+4	1.04089764E+4	1.01313748E+4
8.98150000E+3	7.73485447E+1	-7.20827000E+5	7.32272000E+5	4.95630000E+4	5.09560000E+4	5.05061920E+0	4.90120096E+0	1.01124195E+4	1.03964090E+4	1.00890600E+4
8.98200000E+3	7.73341968E+1	-7.22137000E+5	7.33579000E+5	4.97400000E+4	5.11670000E+4	5.04950688E+0	4.91534336E+0	1.01193338E+4	1.04094398E+4	1.01330687E+4
8.98250000E+3	7.73198666E+1	-7.23445000E+5	7.34884000E+5	4.94330000E+4	5.08590000E+4	5.04971520E+0	4.91032384E+0	1.00671568E+4	1.03573832E+4	1.00716571E+4
8.98300000E+3	7.73055540E+1	-7.24750000E+5	7.36187000E+5	4.88080000E+4	5.01910000E+4	5.05051648E+0	4.90935968E+0	9.94182606E+3	1.02235391E+4	9.93779551E+3
8.98350000E+3	7.72912591E+1	-7.26054000E+5	7.37488000E+5	4.93400000E+4	5.06630000E+4	5.05102176E+0	4.91356288E+0	1.00415933E+4	1.03107306E+4	1.00302478E+4
8.98400000E+3	7.72769817E+1	-7.27356000E+5	7.38787000E+5	4.93180000E+4	5.06480000E+4	5.04966432E+0	4.91569088E+0	1.00327708E+4	1.03031107E+4	1.00299736E+4
8.98450000E+3	7.72627218E+1	-7.28656000E+5	7.40085000E+5	4.96430000E+4	5.10010000E+4	5.04931040E+0	4.91190496E+0	1.01066695E+4	1.03834068E+4	1.01007852E+4
8.98500000E+3	7.72484794E+1	-7.29954000E+5	7.41380000E+5	4.91370000E+4	5.04610000E+4	5.05001600E+0	4.90206688E+0	1.00237311E+4	1.02938115E+4	9.99224557E+3
8.98550000E+3	7.72342543E+1	-7.31251000E+5	7.42674000E+5	4.92480000E+4	5.05740000E+4	5.05068864E+0	4.91217568E+0	1.00257001E+4	1.02957513E+4	1.00132880E+4
8.98600000E+3	7.72200465E+1	-7.32545000E+5	7.43966000E+5	4.86810000E+4	5.00330000E+4	5.05009920E+0	4.91121056E+0	9.91222009E+3	1.01877068E+4	9.90733014E+3
8.98650000E+3	7.72058559E+1	-7.33838000E+5	7.45255000E+5	4.85150000E+4	4.98650000E+4	5.04928576E+0	4.90823744E+0	9.88440364E+3	1.01595512E+4	9.87565418E+3
8.98700000E+3	7.71916826E+1	-7.35128000E+5	7.46543000E+5	4.90090000E+4	5.03270000E+4	5.05075200E+0	4.91282240E+0	9.97573208E+3	1.02438950E+4	9.96425879E+3
8.98750000E+3	7.71775264E+1	-7.36417000E+5	7.47830000E+5	4.86540000E+4	4.99980000E+4	5.04964448E+0	4.90727168E+0	9.91467422E+3	1.01885429E+4	9.90129111E+3
8.98800000E+3	7.71633873E+1	-7.37704000E+5	7.49114000E+5	4.91240000E+4	5.05150000E+4	5.04938720E+0	4.90866336E+0	1.00076123E+4	1.02911341E+4	1.00041843E+4
8.98850000E+3	7.71492652E+1	-7.38989000E+5	7.50396000E+5	4.87630000E+4	5.01090000E+4	5.05012736E+0	4.90731712E+0	9.93679414E+3	1.02109688E+4	9.92232402E+3
8.98900000E+3	7.71351600E+1	-7.40272000E+5	7.51677000E+5	4.84580000E+4	4.97700000E+4	5.05009472E+0	4.90459680E+0	9.88011899E+3	1.01475381E+4	9.85526069E+3
8.98950000E+3	7.71210718E+1	-7.41554000E+5	7.52956000E+5	4.84910000E+4	4.98920000E+4	5.05018240E+0	4.91464576E+0	9.86663177E+3	1.01517867E+4	9.87924713E+3
8.99000000E+3	7.71070004E+1	-7.42833000E+5	7.54232000E+5	4.81190000E+4	4.94730000E+4	5.04967712E+0	4.90368544E+0	9.81282356E+3	1.00889907E+4	9.79726007E+3
8.99050000E+3	7.70929459E+1	-7.44111000E+5	7.55507000E+5	4.81090000E+4	4.95700000E+4	5.05042432E+0	4.90575104E+0	9.80665338E+3	1.01046537E+4	9.81501689E+3
8.99100000E+3	7.70789080E+1	-7.45387000E+5	7.56781000E+5	4.82650000E+4	4.95920000E+4	5.04911040E+0	4.90439648E+0	9.84117010E+3	1.01118975E+4	9.82192824E+3
8.99150000E+3	7.70648869E+1	-7.46661000E+5	7.58052000E+5	4.81670000E+4	4.95100000E+4	5.04948512E+0	4.90458656E+0	9.82080740E+3	1.00943943E+4	9.80496007E+3
8.99200000E+3	7.70508824E+1	-7.47933000E+5	7.59322000E+5	4.81640000E+4	4.94700000E+4	5.05066304E+0	4.91541760E+0	9.79855710E+3	1.00643563E+4	9.79475360E+3
8.99250000E+3	7.70368944E+1	-7.49204000E+5	7.60590000E+5	4.78240000E+4	4.91540000E+4	5.05078080E+0	4.90955488E+0	9.74100528E+3	1.00120752E+4	9.73196065E+3
8.99300000E+3	7.70229230E+1	-7.50473000E+5	7.61856000E+5	4.77230000E+4	4.91230000E+4	5.04922624E+0	4.91322208E+0	9.71317787E+3	9.99800254E+3	9.72881738E+3
8.99350000E+3	7.70089681E+1	-7.51740000E+5	7.63120000E+5	4.82480000E+4	4.95980000E+4	5.05040256E+0	4.91256832E+0	9.82133924E+3	1.00962422E+4	9.82080129E+3
8.99400000E+3	7.69950295E+1	-7.53005000E+5	7.64382000E+5	4.73920000E+4	4.87350000E+4	5.05011520E+0	4.89922368E+0	9.67336931E+3	9.94736856E+3	9.65027491E+3
8.99450000E+3	7.69811073E+1	-7.54268000E+5	7.65643000E+5	4.78050000E+4	4.90870000E+4	5.04968128E+0	4.90773248E+0	9.74075099E+3	1.00018219E+4	9.72081153E+3
8.99500000E+3	7.69672015E+1	-7.55530000E+5	7.66902000E+5	4.71180000E+4	4.84340000E+4	5.05051968E+0	4.91201440E+0	9.59239859E+3	9.86041685E+3	9.59010222E+3
8.99550000E+3	7.69533119E+1	-7.56789000E+5	7.68159000E+5	4.78220000E+4	4.91840000E+4	5.05086016E+0	4.91401536E+0	9.73175631E+3	1.00090624E+4	9.73774732E+3
8.99600000E+3	7.69394385E+1	-7.58047000E+5	7.69414000E+5	4.78150000E+4	4.91060000E+4	5.04944640E+0	4.91439456E+0	9.72958101E+3	9.99201909E+3	9.72502649E+3
8.99650000E+3	7.69255812E+1	-7.59304000E+5	7.70668000E+5	4.76210000E+4	4.90550000E+4	5.04921472E+0	4.90988288E+0	9.69900936E+3	9.99085298E+3	9.71537214E+3
8.99700000E+3	7.69117400E+1	-7.60558000E+5	7.71920000E+5	4.72600000E+4	4.85890000E+4	5.05051232E+0	4.91322752E+0	9.61893171E+3	9.88932154E+3	9.62060815E+3
8.99750000E+3	7.68979149E+1	-7.61811000E+5	7.73170000E+5	4.70640000E+4	4.84510000E+4	5.04917472E+0	4.90602880E+0	9.59309493E+3	9.87592636E+3	9.59582559E+3
8.99800000E+3	7.68841058E+1	-7.63062000E+5	7.74418000E+5	4.66760000E+4	4.79240000E+4	5.05057152E+0	4.92071936E+0	9.48560497E+3	9.73942905E+3	9.48902512E+3
8.99850000E+3	7.68703126E+1	-7.64311000E+5	7.75665000E+5	4.65460000E+4	4.79110000E+4	5.05032416E+0	4.91990688E+0	9.46074817E+3	9.73833785E+3	9.48671778E+3
8.99900000E+3	7.68565354E+1	-7.65559000E+5	7.76910000E+5	4.71590000E+4	4.84510000E+4	5.05034528E+0	4.90906368E+0	9.60651625E+3	9.86991680E+3	9.59379950E+3
8.99950000E+3	7.68427739E+1	-7.66805000E+5	7.78153000E+5	4.70000000E+4	4.83590000E+4	5.05063520E+0	4.89647968E+0	9.59873278E+3	9.87611330E+3	9.57483526E+3
9.00000000E+3	7.68290283E+1	-7.68049000E+5	7.79394000E+5	4.70120000E+4	4.83910000E+4	5.05024864E+0	4.90489216E+0	9.58471633E+3	9.86570194E+3	9.58190447E+3
9.00050000E+3	7.68152984E+1	-7.69291000E+5	7.80634000E+5	4.69490000E+4	4.82480000E+4	5.04920992E+0	4.92166976E+0	9.53924223E+3	9.80312484E+3	9.55555439E+3
9.00100000E+3	7.68015842E+1	-7.70532000E+5	7.81872000E+5	4.69410000E+4	4.82720000E+4	5.05045696E+0	4.90996864E+0	9.56034619E+3	9.83152919E+3	9.55794701E+3
9.00150000E+3	7.67878856E+1	-7.71771000E+5	7.83108000E+5	4.70580000E+4	4.83980000E+4	5.05028064E+0	4.91507424E+0	9.57421957E+3	9.84657136E+3	9.58322981E+3
9.00200000E+3	7.67742026E+1	-7.73008000E+5	7.84343000E+5	4.70410000E+4	4.84330000E+4	5.04926848E+0	4.91532512E+0	9.57027233E+3	9.85343432E+3	9.59208253E+3
9.00250000E+3	7.67605352E+1	-7.74244000E+5	7.85576000E+5	4.70410000E+4	4.83190000E+4	5.04993632E+0	4.91456256E+0	9.57175729E+3	9.83163490E+3	9.56823947E+3
9.00300000E+3	7.67468833E+1	-7.75478000E+5	7.86807000E+5	4.69880000E+4	4.83070000E+4	5.05002496E+0	4.91438176E+0	9.56132476E+3	9.82956434E+3	9.56569530E+3
9.00350000E+3	7.67332468E+1	-7.76710000E+5	7.88036000E+5	4.66780000E+4	4.79980000E+4	5.04959328E+0	4.91368544E+0	9.49959060E+3	9.76844061E+3	9.50551804E+3
9.00400000E+3	7.67196257E+1	-7.77940000E+5	7.89264000E+5	4.68820000E+4	4.82120000E+4	5.05012800E+0	4.90807456E+0	9.55201463E+3	9.82291313E+3	9.54668872E+3
9.00450000E+3	7.67060200E+1	-7.79169000E+5	7.90490000E+5	4.63470000E+4	4.76990000E+4	5.05062080E+0	4.91754400E+0	9.42482670E+3	9.69982350E+3	9.44418555E+3
9.00500000E+3	7.66924295E+1	-7.80396000E+5	7.91715000E+5	4.62470000E+4	4.75420000E+4	5.05034784E+0	4.91289792E+0	9.41338508E+3	9.67687449E+3	9.41360902E+3
9.00550000E+3	7.66788544E+1	-7.81622000E+5	7.92938000E+5	4.64520000E+4	4.77450000E+4	5.04932320E+0	4.91878912E+0	9.44378766E+3	9.70646025E+3	9.45572270E+3
9.00600000E+3	7.66652944E+1	-7.82846000E+5	7.94159000E+5	4.66660000E+4	4.79440000E+4	5.05037920E+0	4.91497952E+0	9.49464790E+3	9.75452486E+3	9.49314855E+3
9.00650000E+3	7.66517496E+1	-7.84068000E+5	7.95378000E+5	4.66610000E+4	4.79670000E+4	5.04908576E+0	4.91359104E+0	9.49631331E+3	9.76209325E+3	9.50013572E+3
9.00700000E+3	7.66382199E+1	-7.85288000E+5	7.96596000E+5	4.62330000E+4	4.75410000E+4	5.05066080E+0	4.91481280E+0	9.40686897E+3	9.67315399E+3	9.41302572E+3
9.00750000E+3	7.66247053E+1	-7.86507000E+5	7.97812000E+5	4.62580000E+4	4.75770000E+4	5.05006176E+0	4.91709376E+0	9.40758958E+3	9.67580334E+3	9.42107290E+3
9.00800000E+3	7.66112057E+1	-7.87724000E+5	7.99027000E+5	4.65670000E+4	4.78680000E+4	5.05070016E+0	4.91214144E+0	9.47997947E+3	9.74483198E+3	9.47769586E+3
9.00850000E+3	7.65977211E+1	-7.88940000E+5	8.00240000E+5	4.63030000E+4	4.75420000E+4	5.04967680E+0	4.91051488E+0	9.42935744E+3	9.68170765E+3	9.41485998E+3
9.00900000E+3	7.65842514E+1	-7.90154000E+5	8.01451000E+5	4.64170000E+4	4.77280000E+4	5.05064576E+0	4.91346944E+0	9.44688892E+3	9.71357920E+3	9.44988072E+3
9.00950000E+3	7.65707966E+1	-7.91366000E+5	8.02661000E+5	4.63730000E+4	4.77150000E+4	5.05086464E+0	4.91249952E+0	9.43979736E+3	9.71305241E+3	9.44689739E+3
9.01000000E+3	7.65573566E+1	-7.92577000E+5	8.03869000E+5	4.55840000E+4	4.68990000E+4	5.05078368E+0	4.91397856E+0	9.27639375E+3	9.54386229E+3	9.28548973E+3
9.01050000E+3	7.65439315E+1	-7.93786000E+5	8.05075000E+5	4.64770000E+4	4.77550000E+4	5.04947488E+0	4.91415520E+0	9.45778025E+3	9.71771285E+3	9.45741907E+3
9.01100000E+3	7.65305210E+1	-7.94994000E+5	8.06280000E+5	4.64570000E+4	4.77530000E+4	5.04922144E+0	4.91237440E+0	9.45713747E+3	9.72097421E+3	9.45769572E+3
9.01150000E+3	7.65171253E+1	-7.96200000E+5	8.07483000E+5	4.60300000E+4	4.73120000E+4	5.05037792E+0	4.91240224E+0	9.37016102E+3	9.63107932E+3	9.36801181E+3
9.01200000E+3	7.65037443E+1	-7.97404000E+5	8.08685000E+5	4.64040000E+4	4.76580000E+4	5.05007648E+0	4.91308064E+0	9.44499051E+3	9.70034642E+3	9.43708480E+3
9.01250000E+3	7.64903779E+1	-7.98607000E+5	8.09885000E+5	4.60760000E+4	4.74100000E+4	5.05020320E+0	4.91543840E+0	9.37373155E+3	9.64485954E+3	9.38774107E+3
9.01300000E+3	7.64770260E+1	-7.99808000E+5	8.11084000E+5	4.59490000E+4	4.72280000E+4	5.05012576E+0	4.91451200E+0	9.34965669E+3	9.60983285E+3	9.35184632E+3
9.01350000E+3	7.64636887E+1	-8.01007000E+5	8.12280000E+5	4.56620000E+4	4.69590000E+4	5.05052224E+0	4.91884704E+0	9.28306972E+3	9.54674231E+3	9.29785035E+3
9.01400000E+3	7.64503658E+1	-8.02205000E+5	8.13476000E+5	4.56080000E+4	4.68720000E+4	5.05121760E+0	4.92202272E+0	9.26610920E+3	9.52262933E+3	9.27934683E+3
9.01450000E+3	7.64370574E+1	-8.03401000E+5	8.14669000E+5	4.58400000E+4	4.70820000E+4	5.05023072E+0	4.91530112E+0	9.32598001E+3	9.57862225E+3	9.32294040E+3
9.01500000E+3	7.64237634E+1	-8.04596000E+5	8.15861000E+5	4.55880000E+4	4.68820000E+4	5.04963552E+0	4.91538304E+0	9.27455696E+3	9.53766997E+3	9.28423444E+3
9.01550000E+3	7.64104838E+1	-8.05789000E+5	8.17052000E+5	4.57390000E+4	4.70410000E+4	5.05059712E+0	4.91127488E+0	9.31306048E+3	9.57807954E+3	9.31394821E+3
9.01600000E+3	7.63972184E+1	-8.06981000E+5	8.18241000E+5	4.58000000E+4	4.70470000E+4	5.04924288E+0	4.90869504E+0	9.33038203E+3	9.58437451E+3	9.31783262E+3
9.01650000E+3	7.63839674E+1	-8.08171000E+5	8.19428000E+5	4.54940000E+4	4.67110000E+4	5.04947232E+0	4.91829152E+0	9.24996003E+3	9.49720179E+3	9.25066958E+3
9.01700000E+3	7.63707305E+1	-8.09360000E+5	8.20614000E+5	4.53810000E+4	4.66870000E+4	5.04987264E+0	4.91283552E+0	9.23723170E+3	9.50300393E+3	9.24518366E+3
9.01750000E+3	7.63575079E+1	-8.10547000E+5	8.21798000E+5	4.52220000E+4	4.65260000E+4	5.05062432E+0	4.92372672E+0	9.18450649E+3	9.44916381E+3	9.21193046E+3
9.01800000E+3	7.63442994E+1	-8.11732000E+5	8.22981000E+5	4.55710000E+4	4.68320000E+4	5.05052096E+0	4.91704576E+0	9.26796337E+3	9.52442588E+3	9.27270679E+3
9.01850000E+3	7.63311050E+1	-8.12916000E+5	8.24162000E+5	4.55570000E+4	4.67900000E+4	5.05037632E+0	4.91330240E+0	9.27217506E+3	9.52333895E+3	9.26485415E+3
9.01900000E+3	7.63179247E+1	-8.14098000E+5	8.25342000E+5	4.56490000E+4	4.69350000E+4	5.05026208E+0	4.91831712E+0	9.28142673E+3	9.54260844E+3	9.29357710E+3
9.01950000E+3	7.63047584E+1	-8.15279000E+5	8.26520000E+5	4.51810000E+4	4.64500000E+4	5.05045824E+0	4.92561920E+0	9.17265387E+3	9.43021652E+3	9.19718524E+3
9.02000000E+3	7.62916060E+1	-8.16458000E+5	8.27697000E+5	4.50610000E+4	4.63470000E+4	5.05101824E+0	4.91543520E+0	9.16724525E+3	9.42900446E+3	9.17577364E+3
9.02050000E+3	7.62784677E+1	-8.17636000E+5	8.28872000E+5	4.49940000E+4	4.62340000E+4	5.05007744E+0	4.92266368E+0	9.14017348E+3	9.39198301E+3	9.15510713E+3
9.02100000E+3	7.62653432E+1	-8.18812000E+5	8.30045000E+5	4.49980000E+4	4.62790000E+4	5.05047904E+0	4.92848544E+0	9.13018828E+3	9.39022754E+3	9.16328919E+3
9.02150000E+3	7.62522325E+1	-8.19987000E+5	8.31217000E+5	4.47790000E+4	4.60700000E+4	5.05097952E+0	4.92944576E+0	9.08398270E+3	9.34601111E+3	9.12100313E+3
9.02200000E+3	7.62391357E+1	-8.21160000E+5	8.32388000E+5	4.51100000E+4	4.63870000E+4	5.04989152E+0	4.91708576E+0	9.17413326E+3	9.43402833E+3	9.18574188E+3
9.02250000E+3	7.62260527E+1	-8.22332000E+5	8.33557000E+5	4.45550000E+4	4.58240000E+4	5.04928288E+0	4.91800320E+0	9.05957117E+3	9.31732844E+3	9.07534814E+3
9.02300000E+3	7.62129834E+1	-8.23502000E+5	8.34724000E+5	4.48110000E+4	4.60870000E+4	5.04999264E+0	4.91634560E+0	9.11469690E+3	9.37411960E+3	9.12615191E+3
9.02350000E+3	7.61999278E+1	-8.24671000E+5	8.35890000E+5	4.42610000E+4	4.55350000E+4	5.05057408E+0	4.92023104E+0	8.99571578E+3	9.25476879E+3	9.01580677E+3
9.02400000E+3	7.61868859E+1	-8.25838000E+5	8.37055000E+5	4.45320000E+4	4.58040000E+4	5.05032832E+0	4.91557184E+0	9.05937324E+3	9.31816126E+3	9.06950937E+3
9.02450000E+3	7.61738576E+1	-8.27003000E+5	8.38218000E+5	4.43900000E+4	4.56300000E+4	5.05057472E+0	4.91486016E+0	9.03179308E+3	9.28392665E+3	9.03461537E+3
9.02500000E+3	7.61608428E+1	-8.28168000E+5	8.39379000E+5	4.44290000E+4	4.57640000E+4	5.05203328E+0	4.92577024E+0	9.01970612E+3	9.29105351E+3	9.05872892E+3
9.02550000E+3	7.61478417E+1	-8.29330000E+5	8.40540000E+5	4.43420000E+4	4.55880000E+4	5.04928064E+0	4.92107264E+0	9.01063716E+3	9.26383654E+3	9.02861284E+3
9.02600000E+3	7.61348540E+1	-8.30491000E+5	8.41698000E+5	4.39920000E+4	4.52730000E+4	5.05056320E+0	4.91692832E+0	8.94704928E+3	9.20759808E+3	8.96395079E+3
9.02650000E+3	7.61218798E+1	-8.31651000E+5	8.42855000E+5	4.43160000E+4	4.55750000E+4	5.05054368E+0	4.91703840E+0	9.01274230E+3	9.26880911E+3	9.02378098E+3
9.02700000E+3	7.61089190E+1	-8.32809000E+5	8.44011000E+5	4.40010000E+4	4.52670000E+4	5.04980480E+0	4.92147840E+0	8.94060614E+3	9.19777141E+3	8.96410887E+3
9.02750000E+3	7.60959716E+1	-8.33966000E+5	8.45165000E+5	4.41720000E+4	4.54410000E+4	5.04961216E+0	4.91890944E+0	8.98003928E+3	9.23796118E+3	8.99890894E+3
9.02800000E+3	7.60830375E+1	-8.35122000E+5	8.46318000E+5	4.42680000E+4	4.54750000E+4	5.05040992E+0	4.92622656E+0	8.98618841E+3	9.23115081E+3	9.00421960E+3
9.02850000E+3	7.60701168E+1	-8.36275000E+5	8.47469000E+5	4.36320000E+4	4.49300000E+4	5.04985760E+0	4.92204864E+0	8.86460155E+3	9.12847152E+3	8.89728059E+3
9.02900000E+3	7.60572094E+1	-8.37428000E+5	8.48619000E+5	4.39040000E+4	4.51700000E+4	5.05054496E+0	4.92621312E+0	8.91232249E+3	9.16907296E+3	8.94358933E+3
9.02950000E+3	7.60443152E+1	-8.38579000E+5	8.49767000E+5	4.36150000E+4	4.48420000E+4	5.04986752E+0	4.92315008E+0	8.85916523E+3	9.10846307E+3	8.87983691E+3
9.03000000E+3	7.60314341E+1	-8.39728000E+5	8.50914000E+5	4.40780000E+4	4.53490000E+4	5.05076416E+0	4.92425760E+0	8.95119703E+3	9.20967870E+3	8.97883935E+3
9.03050000E+3	7.60185663E+1	-8.40876000E+5	8.52059000E+5	4.44930000E+4	4.57040000E+4	5.04998080E+0	4.91710656E+0	9.04861415E+3	9.29503412E+3	9.05033144E+3
9.03100000E+3	7.60057116E+1	-8.42023000E+5	8.53203000E+5	4.41770000E+4	4.54480000E+4	5.05094048E+0	4.92239168E+0	8.97470231E+3	9.23295757E+3	8.99792824E+3
9.03150000E+3	7.59928700E+1	-8.43168000E+5	8.54346000E+5	4.41000000E+4	4.53800000E+4	5.04905632E+0	4.91676000E+0	8.96932126E+3	9.22970905E+3	8.98781814E+3
9.03200000E+3	7.59800414E+1	-8.44312000E+5	8.55487000E+5	4.37310000E+4	4.49570000E+4	5.05039488E+0	4.91906688E+0	8.89010072E+3	9.13952490E+3	8.90168018E+3
9.03250000E+3	7.59672258E+1	-8.45454000E+5	8.56626000E+5	4.41360000E+4	4.54240000E+4	5.04958080E+0	4.91722656E+0	8.97579143E+3	9.23765665E+3	8.99559821E+3
9.03300000E+3	7.59544233E+1	-8.46595000E+5	8.57765000E+5	4.41550000E+4	4.54320000E+4	5.04981088E+0	4.92143584E+0	8.97197514E+3	9.23161201E+3	8.99677257E+3
9.03350000E+3	7.59416337E+1	-8.47735000E+5	8.58901000E+5	4.42080000E+4	4.55080000E+4	5.05002176E+0	4.91719328E+0	8.99049468E+3	9.25497161E+3	9.01164434E+3
9.03400000E+3	7.59288569E+1	-8.48873000E+5	8.60037000E+5	4.40230000E+4	4.52690000E+4	5.04967424E+0	4.91676992E+0	8.95364248E+3	9.20710066E+3	8.96473670E+3
9.03450000E+3	7.59160931E+1	-8.50009000E+5	8.61171000E+5	4.40120000E+4	4.52700000E+4	5.05029376E+0	4.92106368E+0	8.94359489E+3	9.19936122E+3	8.96383501E+3
9.03500000E+3	7.59033421E+1	-8.51144000E+5	8.62303000E+5	4.40990000E+4	4.53980000E+4	5.05046240E+0	4.92552416E+0	8.95315880E+3	9.21693425E+3	8.98887991E+3
9.03550000E+3	7.58906039E+1	-8.52278000E+5	8.63434000E+5	4.42030000E+4	4.54330000E+4	5.05053280E+0	4.92064704E+0	8.98316820E+3	9.23312889E+3	8.99568457E+3
9.03600000E+3	7.58778785E+1	-8.53411000E+5	8.64564000E+5	4.40010000E+4	4.52440000E+4	5.05021056E+0	4.91486944E+0	8.95262845E+3	9.20565539E+3	8.95903239E+3
9.03650000E+3	7.58651658E+1	-8.54542000E+5	8.65693000E+5	4.40430000E+4	4.52570000E+4	5.05040960E+0	4.92157536E+0	8.94896385E+3	9.19580399E+3	8.96105536E+3
9.03700000E+3	7.58524659E+1	-8.55671000E+5	8.66820000E+5	4.39650000E+4	4.51330000E+4	5.05116704E+0	4.92211296E+0	8.93213958E+3	9.16941915E+3	8.93516283E+3
9.03750000E+3	7.58397785E+1	-8.56799000E+5	8.67945000E+5	4.39350000E+4	4.52040000E+4	5.05019968E+0	4.91817184E+0	8.93319742E+3	9.19116830E+3	8.95093320E+3
9.03800000E+3	7.58271039E+1	-8.57926000E+5	8.69069000E+5	4.35070000E+4	4.47510000E+4	5.05003296E+0	4.92361504E+0	8.83639351E+3	9.08880487E+3	8.86152632E+3
9.03850000E+3	7.58144418E+1	-8.59052000E+5	8.70192000E+5	4.40870000E+4	4.53440000E+4	5.04947264E+0	4.92191648E+0	8.95728324E+3	9.21250256E+3	8.97994766E+3
9.03900000E+3	7.58017922E+1	-8.60176000E+5	8.71314000E+5	4.37830000E+4	4.50700000E+4	5.05056352E+0	4.91033344E+0	8.91650242E+3	9.17856882E+3	8.92375669E+3
9.03950000E+3	7.57891552E+1	-8.61298000E+5	8.72434000E+5	4.34870000E+4	4.47580000E+4	5.05091680E+0	4.92349728E+0	8.83254271E+3	9.09080589E+3	8.86136157E+3
9.04000000E+3	7.57765307E+1	-8.62420000E+5	8.73552000E+5	4.37190000E+4	4.49720000E+4	5.04961024E+0	4.91468192E+0	8.89559095E+3	9.15050276E+3	8.90603390E+3
9.04050000E+3	7.57639187E+1	-8.63540000E+5	8.74670000E+5	4.40360000E+4	4.53180000E+4	5.04963200E+0	4.91861952E+0	8.95291856E+3	9.21373161E+3	8.97451537E+3
9.04100000E+3	7.57513191E+1	-8.64658000E+5	8.75785000E+5	4.35320000E+4	4.47630000E+4	5.05019520E+0	4.91758496E+0	8.85231274E+3	9.10278927E+3	8.86361779E+3
9.04150000E+3	7.57387319E+1	-8.65775000E+5	8.76900000E+5	4.33400000E+4	4.45770000E+4	5.05016032E+0	4.92027744E+0	8.80844638E+3	9.05994044E+3	8.82684849E+3
9.04200000E+3	7.57261570E+1	-8.66891000E+5	8.78013000E+5	4.33090000E+4	4.45010000E+4	5.04982432E+0	4.93069344E+0	8.78355155E+3	9.02505782E+3	8.81238577E+3
9.04250000E+3	7.57135945E+1	-8.68006000E+5	8.79125000E+5	4.32360000E+4	4.45730000E+4	5.04960672E+0	4.91293696E+0	8.80043859E+3	9.07262668E+3	8.82702406E+3
9.04300000E+3	7.57010442E+1	-8.69119000E+5	8.80236000E+5	4.34160000E+4	4.47530000E+4	5.05041024E+0	4.91607680E+0	8.83143241E+3	9.10315783E+3	8.86126035E+3
9.04350000E+3	7.56885062E+1	-8.70231000E+5	8.81345000E+5	4.36570000E+4	4.49210000E+4	5.05004128E+0	4.92393504E+0	8.86628269E+3	9.12297441E+3	8.89517481E+3
9.04400000E+3	7.56759805E+1	-8.71341000E+5	8.82452000E+5	4.36030000E+4	4.48630000E+4	5.04970880E+0	4.92590912E+0	8.85176704E+3	9.10737325E+3	8.88427467E+3
9.04450000E+3	7.56634669E+1	-8.72450000E+5	8.83559000E+5	4.34370000E+4	4.46920000E+4	5.04962528E+0	4.92207232E+0	8.82494144E+3	9.07993823E+3	8.85055772E+3
9.04500000E+3	7.56509656E+1	-8.73558000E+5	8.84664000E+5	4.32330000E+4	4.44300000E+4	5.04949088E+0	4.92721792E+0	8.77432269E+3	9.01737140E+3	8.79890687E+3
9.04550000E+3	7.56384763E+1	-8.74664000E+5	8.85768000E+5	4.33620000E+4	4.46170000E+4	5.04925920E+0	4.92409216E+0	8.80609026E+3	9.06090120E+3	8.83634574E+3
9.04600000E+3	7.56259991E+1	-8.75769000E+5	8.86870000E+5	4.36500000E+4	4.48900000E+4	5.04906080E+0	4.92007232E+0	8.87182081E+3	9.12375261E+3	8.89076242E+3
9.04650000E+3	7.56135341E+1	-8.76873000E+5	8.87971000E+5	4.30420000E+4	4.42600000E+4	5.04957600E+0	4.92607136E+0	8.73759165E+3	8.98494970E+3	8.76509236E+3
9.04700000E+3	7.56010810E+1	-8.77976000E+5	8.89071000E+5	4.29630000E+4	4.42340000E+4	5.05016448E+0	4.92231360E+0	8.72821268E+3	8.98624974E+3	8.75892264E+3
9.04750000E+3	7.55886400E+1	-8.79077000E+5	8.90170000E+5	4.32550000E+4	4.44650000E+4	5.04917824E+0	4.91329408E+0	8.80366599E+3	9.04985182E+3	8.80638351E+3
9.04800000E+3	7.55762109E+1	-8.80177000E+5	8.91267000E+5	4.31270000E+4	4.43120000E+4	5.04989024E+0	4.92391136E+0	8.75868732E+3	8.99932049E+3	8.77484418E+3
9.04850000E+3	7.55637938E+1	-8.81275000E+5	8.92363000E+5	4.29320000E+4	4.41690000E+4	5.04981152E+0	4.92364896E+0	8.71954933E+3	8.97074226E+3	8.74666308E+3
9.04900000E+3	7.55513885E+1	-8.82372000E+5	8.93457000E+5	4.27460000E+4	4.39900000E+4	5.05061664E+0	4.92427488E+0	8.68066894E+3	8.93329432E+3	8.70982756E+3
9.04950000E+3	7.55389952E+1	-8.83468000E+5	8.94550000E+5	4.30260000E+4	4.42970000E+4	5.04942400E+0	4.92675328E+0	8.73313469E+3	8.99117882E+3	8.77268378E+3
9.05000000E+3	7.55266137E+1	-8.84563000E+5	8.95642000E+5	4.26850000E+4	4.39430000E+4	5.04997056E+0	4.91812992E+0	8.67911192E+3	8.93470984E+3	8.70163489E+3
9.05050000E+3	7.55142440E+1	-8.85656000E+5	8.96733000E+5	4.28210000E+4	4.40720000E+4	5.04932800E+0	4.91755552E+0	8.70778171E+3	8.96211585E+3	8.72829018E+3
9.05100000E+3	7.55018862E+1	-8.86748000E+5	8.97822000E+5	4.29560000E+4	4.41540000E+4	5.05026208E+0	4.93006080E+0	8.71307713E+3	8.95610420E+3	8.74291261E+3
9.05150000E+3	7.54895400E+1	-8.87838000E+5	8.98910000E+5	4.28550000E+4	4.40440000E+4	5.05019744E+0	4.91668480E+0	8.71623904E+3	8.95808666E+3	8.72124318E+3
9.05200000E+3	7.54772056E+1	-8.88928000E+5	8.99997000E+5	4.26990000E+4	4.39520000E+4	5.05089280E+0	4.93569856E+0	8.65105506E+3	8.90507205E+3	8.70182792E+3
9.05250000E+3	7.54648829E+1	-8.90016000E+5	9.01082000E+5	4.32030000E+4	4.44160000E+4	5.05067840E+0	4.92016064E+0	8.78081086E+3	9.02738141E+3	8.79406616E+3
9.05300000E+3	7.54525719E+1	-8.91103000E+5	9.02166000E+5	4.24140000E+4	4.35620000E+4	5.05021760E+0	4.92249696E+0	8.61635880E+3	8.84965497E+3	8.62576694E+3
9.05350000E+3	7.54402725E+1	-8.92188000E+5	9.03249000E+5	4.26990000E+4	4.39600000E+4	5.04995232E+0	4.91164032E+0	8.69342973E+3	8.95014055E+3	8.70503268E+3
9.05400000E+3	7.54279847E+1	-8.93272000E+5	9.04331000E+5	4.23260000E+4	4.36020000E+4	5.05013856E+0	4.92633920E+0	8.59177541E+3	8.85084923E+3	8.63382251E+3
9.05450000E+3	7.54157084E+1	-8.94355000E+5	9.05411000E+5	4.23690000E+4	4.36110000E+4	5.05050752E+0	4.92542464E+0	8.60210096E+3	8.85417378E+3	8.63497378E+3
9.05500000E+3	7.54034438E+1	-8.95437000E+5	9.06490000E+5	4.28090000E+4	4.40160000E+4	5.05019296E+0	4.92019392E+0	8.70067333E+3	8.94591238E+3	8.71570658E+3
9.05550000E+3	7.53911906E+1	-8.96517000E+5	9.07568000E+5	4.21150000E+4	4.33380000E+4	5.04934400E+0	4.92103520E+0	8.55815866E+3	8.80657108E+3	8.58289711E+3
9.05600000E+3	7.53789489E+1	-8.97596000E+5	9.08644000E+5	4.19590000E+4	4.32200000E+4	5.04935616E+0	4.92106112E+0	8.52641310E+3	8.78278419E+3	8.55950712E+3
9.05650000E+3	7.53667187E+1	-8.98674000E+5	9.09720000E+5	4.22320000E+4	4.33480000E+4	5.04951104E+0	4.92714336E+0	8.57129515E+3	8.79783790E+3	8.58459357E+3
9.05700000E+3	7.53544999E+1	-8.99751000E+5	9.10794000E+5	4.22230000E+4	4.34090000E+4	5.04998368E+0	4.93372832E+0	8.55803102E+3	8.79843468E+3	8.59586936E+3
9.05750000E+3	7.53422925E+1	-9.00826000E+5	9.11866000E+5	4.25730000E+4	4.38060000E+4	5.05056544E+0	4.92363936E+0	8.64665279E+3	8.89713150E+3	8.67348429E+3
9.05800000E+3	7.53300965E+1	-9.01900000E+5	9.12938000E+5	4.17800000E+4	4.29880000E+4	5.05070112E+0	4.92481568E+0	8.48356623E+3	8.72858686E+3	8.51129358E+3
9.05850000E+3	7.53179119E+1	-9.02973000E+5	9.14008000E+5	4.18630000E+4	4.30630000E+4	5.05002272E+0	4.92396544E+0	8.50188745E+3	8.74540098E+3	8.52728837E+3
9.05900000E+3	7.53057385E+1	-9.04044000E+5	9.15077000E+5	4.19700000E+4	4.31740000E+4	5.05107584E+0	4.92794784E+0	8.51672975E+3	8.76088183E+3	8.54748599E+3
9.05950000E+3	7.52935764E+1	-9.05115000E+5	9.16145000E+5	4.20020000E+4	4.31780000E+4	5.05048416E+0	4.92191360E+0	8.53367276E+3	8.77256030E+3	8.54927936E+3
9.06000000E+3	7.52814256E+1	-9.06184000E+5	9.17211000E+5	4.20200000E+4	4.32380000E+4	5.04941216E+0	4.92815776E+0	8.52651276E+3	8.77366014E+3	8.56297696E+3
9.06050000E+3	7.52692860E+1	-9.07252000E+5	9.18276000E+5	4.19570000E+4	4.30770000E+4	5.05064640E+0	4.92191648E+0	8.52452498E+3	8.75183983E+3	8.52900730E+3
9.06100000E+3	7.52571576E+1	-9.08318000E+5	9.19340000E+5	4.21830000E+4	4.34190000E+4	5.04916288E+0	4.92023776E+0	8.57336618E+3	8.82436386E+3	8.59924725E+3
9.06150000E+3	7.52450404E+1	-9.09384000E+5	9.20403000E+5	4.19580000E+4	4.31020000E+4	5.05099104E+0	4.92215008E+0	8.52432358E+3	8.75670755E+3	8.53337487E+3
9.06200000E+3	7.52329344E+1	-9.10448000E+5	9.21464000E+5	4.15590000E+4	4.27750000E+4	5.04954656E+0	4.91798880E+0	8.45040558E+3	8.69780925E+3	8.47105765E+3
9.06250000E+3	7.52208394E+1	-9.11511000E+5	9.22525000E+5	4.17840000E+4	4.30320000E+4	5.05031008E+0	4.92038944E+0	8.49201075E+3	8.74581847E+3	8.52066493E+3
9.06300000E+3	7.52087556E+1	-9.12572000E+5	9.23584000E+5	4.16910000E+4	4.28410000E+4	5.04911104E+0	4.92450912E+0	8.46602148E+3	8.69970553E+3	8.48485994E+3
9.06350000E+3	7.51966828E+1	-9.13633000E+5	9.24642000E+5	4.19490000E+4	4.31920000E+4	5.05027872E+0	4.92530336E+0	8.51703884E+3	8.76940030E+3	8.55239926E+3
9.06400000E+3	7.51846210E+1	-9.14692000E+5	9.25698000E+5	4.15360000E+4	4.27850000E+4	5.05008160E+0	4.92282944E+0	8.43742415E+3	8.69087916E+3	8.47214033E+3
9.06450000E+3	7.51725702E+1	-9.15750000E+5	9.26754000E+5	4.19330000E+4	4.31530000E+4	5.04954304E+0	4.92783168E+0	8.50942214E+3	8.75709666E+3	8.54592181E+3
9.06500000E+3	7.51605305E+1	-9.16807000E+5	9.27808000E+5	4.17590000E+4	4.29650000E+4	5.04924256E+0	4.92741152E+0	8.47483508E+3	8.71938822E+3	8.50919707E+3
9.06550000E+3	7.51485016E+1	-9.17862000E+5	9.28861000E+5	4.15270000E+4	4.27500000E+4	5.04988928E+0	4.92170688E+0	8.43751995E+3	8.68594653E+3	8.46553214E+3
9.06600000E+3	7.51364837E+1	-9.18917000E+5	9.29912000E+5	4.14700000E+4	4.26740000E+4	5.05034816E+0	4.91876928E+0	8.43097077E+3	8.67583268E+3	8.44971448E+3
9.06650000E+3	7.51244767E+1	-9.19970000E+5	9.30963000E+5	4.13930000E+4	4.25440000E+4	5.04986272E+0	4.91414880E+0	8.42322886E+3	8.65756844E+3	8.42478348E+3
9.06700000E+3	7.51124806E+1	-9.21022000E+5	9.32012000E+5	4.11650000E+4	4.23820000E+4	5.04977024E+0	4.92476064E+0	8.35878188E+3	8.60604148E+3	8.39305513E+3
9.06750000E+3	7.51004953E+1	-9.22073000E+5	9.33060000E+5	4.13460000E+4	4.25330000E+4	5.05053664E+0	4.92919040E+0	8.38799004E+3	8.62891545E+3	8.42148133E+3
9.06800000E+3	7.50885209E+1	-9.23122000E+5	9.34107000E+5	4.15730000E+4	4.27940000E+4	5.05076288E+0	4.92853632E+0	8.43516154E+3	8.68289063E+3	8.47277946E+3
9.06850000E+3	7.50765572E+1	-9.24171000E+5	9.35153000E+5	4.14500000E+4	4.26230000E+4	5.04935456E+0	4.91937600E+0	8.42586539E+3	8.66433665E+3	8.44127690E+3
9.06900000E+3	7.50646043E+1	-9.25218000E+5	9.36198000E+5	4.14940000E+4	4.26450000E+4	5.05064576E+0	4.93062944E+0	8.41555840E+3	8.64898971E+3	8.44367276E+3
9.06950000E+3	7.50526621E+1	-9.26264000E+5	9.37241000E+5	4.10290000E+4	4.22300000E+4	5.05043456E+0	4.92664480E+0	8.32798013E+3	8.57190918E+3	8.36165670E+3
9.07000000E+3	7.50407307E+1	-9.27309000E+5	9.38283000E+5	4.09670000E+4	4.21800000E+4	5.05079008E+0	4.91723712E+0	8.33130455E+3	8.57809846E+3	8.35136668E+3
9.07050000E+3	7.50288099E+1	-9.28352000E+5	9.39324000E+5	4.13830000E+4	4.26530000E+4	5.05038912E+0	4.93059552E+0	8.39310380E+3	8.65085099E+3	8.44548786E+3
9.07100000E+3	7.50168998E+1	-9.29395000E+5	9.40364000E+5	4.12880000E+4	4.24200000E+4	5.05041952E+0	4.93237984E+0	8.37080706E+3	8.60040764E+3	8.39930224E+3
9.07150000E+3	7.50050004E+1	-9.30436000E+5	9.41403000E+5	4.07630000E+4	4.19580000E+4	5.05074496E+0	4.92464928E+0	8.27734072E+3	8.52016916E+3	8.30728939E+3
9.07200000E+3	7.49931115E+1	-9.31476000E+5	9.42440000E+5	4.10470000E+4	4.22140000E+4	5.05018432E+0	4.92709184E+0	8.33087779E+3	8.56763687E+3	8.35890283E+3
9.07250000E+3	7.49812333E+1	-9.32515000E+5	9.43477000E+5	4.07090000E+4	4.19600000E+4	5.04890592E+0	4.92838656E+0	8.26010693E+3	8.51400756E+3	8.31071140E+3
9.07300000E+3	7.49693655E+1	-9.33553000E+5	9.44512000E+5	4.10930000E+4	4.22440000E+4	5.04976928E+0	4.93086528E+0	8.33383142E+3	8.56730182E+3	8.36553071E+3
9.07350000E+3	7.49575084E+1	-9.34589000E+5	9.45546000E+5	4.05890000E+4	4.17590000E+4	5.04969312E+0	4.92717120E+0	8.23778967E+3	8.47521545E+3	8.26961144E+3
9.07400000E+3	7.49456617E+1	-9.35625000E+5	9.46579000E+5	4.08780000E+4	4.20980000E+4	5.04949760E+0	4.91984576E+0	8.30879706E+3	8.55668567E+3	8.33706704E+3
9.07450000E+3	7.49338255E+1	-9.36659000E+5	9.47610000E+5	4.10920000E+4	4.22360000E+4	5.04973568E+0	4.92697056E+0	8.34021626E+3	8.57220568E+3	8.36400213E+3
9.07500000E+3	7.49219998E+1	-9.37692000E+5	9.48641000E+5	4.07750000E+4	4.19590000E+4	5.05030048E+0	4.93171776E+0	8.26791029E+3	8.50794222E+3	8.30821852E+3
9.07550000E+3	7.49101845E+1	-9.38724000E+5	9.49670000E+5	4.07050000E+4	4.19470000E+4	5.05069504E+0	4.93005632E+0	8.25649797E+3	8.50841885E+3	8.30519358E+3
9.07600000E+3	7.48983796E+1	-9.39755000E+5	9.50698000E+5	4.06040000E+4	4.18250000E+4	5.04953408E+0	4.93381824E+0	8.22973162E+3	8.47720706E+3	8.28294241E+3
9.07650000E+3	7.48865852E+1	-9.40784000E+5	9.51725000E+5	4.06820000E+4	4.18690000E+4	5.05034976E+0	4.92431712E+0	8.26145007E+3	8.50228784E+3	8.29031691E+3
9.07700000E+3	7.48748010E+1	-9.41813000E+5	9.52751000E+5	4.07950000E+4	4.19900000E+4	5.04974112E+0	4.93402656E+0	8.26809493E+3	8.51025347E+3	8.31527775E+3
9.07750000E+3	7.48630272E+1	-9.42840000E+5	9.53776000E+5	4.04480000E+4	4.16310000E+4	5.05076192E+0	4.93060512E+0	8.20345556E+3	8.44351166E+3	8.24251878E+3
9.07800000E+3	7.48512637E+1	-9.43867000E+5	9.54799000E+5	4.02640000E+4	4.14450000E+4	5.05002720E+0	4.93031936E+0	8.16661094E+3	8.40615505E+3	8.20688649E+3
9.07850000E+3	7.48395105E+1	-9.44892000E+5	9.55822000E+5	4.03190000E+4	4.15000000E+4	5.05013024E+0	4.92726688E+0	8.18283259E+3	8.42265851E+3	8.21760985E+3
9.07900000E+3	7.48277676E+1	-9.45915000E+5	9.56843000E+5	4.04960000E+4	4.17250000E+4	5.04985984E+0	4.92903168E+0	8.21581248E+3	8.46539721E+3	8.26280359E+3
9.07950000E+3	7.48160349E+1	-9.46938000E+5	9.57863000E+5	4.02830000E+4	4.14840000E+4	5.05037696E+0	4.92695392E+0	8.17604562E+3	8.41976052E+3	8.21404032E+3
9.08000000E+3	7.48043124E+1	-9.47960000E+5	9.58882000E+5	8.23600000E+3	8.46700000E+3	1.05032576E+0	1.02374400E+0	8.04497999E+3	8.27040181E+3	8.06130852E+3
9.08100000E+3	7.47808980E+1	-9.50000000E+5	9.60917000E+5	8.51100000E+3	8.74800000E+3	1.05016160E+0	1.02353120E+0	8.31533030E+3	8.54673413E+3	8.33014652E+3
9.08200000E+3	7.47575241E+1	-9.52035000E+5	9.62947000E+5	8.30700000E+3	8.54400000E+3	1.05050816E+0	1.02400512E+0	8.11226413E+3	8.34365940E+3	8.13320669E+3
9.08300000E+3	7.47341907E+1	-9.54066000E+5	9.64973000E+5	8.45400000E+3	8.70600000E+3	1.05041632E+0	1.02660960E+0	8.23487332E+3	8.48023633E+3	8.28814236E+3
9.08400000E+3	7.47108974E+1	-9.56093000E+5	9.66994000E+5	8.29000000E+3	8.55700000E+3	1.05091424E+0	1.02425856E+0	8.09365948E+3	8.35424596E+3	8.14243415E+3
9.08500000E+3	7.46876441E+1	-9.58115000E+5	9.69011000E+5	8.32300000E+3	8.53300000E+3	1.05061792E+0	1.02556064E+0	8.11556107E+3	8.32008276E+3	8.12188697E+3
9.08600000E+3	7.46644306E+1	-9.60132000E+5	9.71023000E+5	8.05300000E+3	8.30800000E+3	1.05025024E+0	1.02414208E+0	7.86316680E+3	8.11208021E+3	7.91049569E+3
9.08700000E+3	7.46412568E+1	-9.62145000E+5	9.73031000E+5	8.46200000E+3	8.68100000E+3	1.05080576E+0	1.02422816E+0	8.26183104E+3	8.47563808E+3	8.26127942E+3
9.08800000E+3	7.46181225E+1	-9.64154000E+5	9.75035000E+5	8.05300000E+3	8.27000000E+3	1.05059200E+0	1.02209504E+0	7.87891506E+3	8.09110624E+3	7.87175231E+3
9.08900000E+3	7.45950274E+1	-9.66159000E+5	9.77034000E+5	8.02700000E+3	8.26000000E+3	1.04986080E+0	1.02612608E+0	7.82262546E+3	8.04964974E+3	7.86770970E+3
9.09000000E+3	7.45719714E+1	-9.68159000E+5	9.79029000E+5	8.19900000E+3	8.43500000E+3	1.05061120E+0	1.02496416E+0	7.99930409E+3	8.22955271E+3	8.02865989E+3
9.09100000E+3	7.45489543E+1	-9.70155000E+5	9.81020000E+5	8.06500000E+3	8.30400000E+3	1.05068480E+0	1.02118752E+0	7.89766800E+3	8.13169799E+3	7.90341690E+3
9.09200000E+3	7.45259760E+1	-9.72146000E+5	9.83006000E+5	8.12200000E+3	8.34100000E+3	1.05045024E+0	1.02316096E+0	7.93814494E+3	8.15200551E+3	7.94040468E+3
9.09300000E+3	7.45030362E+1	-9.74133000E+5	9.84988000E+5	7.95900000E+3	8.21700000E+3	1.05098560E+0	1.02311936E+0	7.77915101E+3	8.03116891E+3	7.81837544E+3
9.09400000E+3	7.44801349E+1	-9.76116000E+5	9.86966000E+5	8.00900000E+3	8.22600000E+3	1.05107840E+0	1.02673792E+0	7.80043266E+3	8.01174509E+3	7.82624779E+3
9.09500000E+3	7.44572717E+1	-9.78095000E+5	9.88939000E+5	8.17900000E+3	8.41100000E+3	1.05007776E+0	1.02440288E+0	7.98416342E+3	8.21038746E+3	8.00988300E+3
9.09600000E+3	7.44344466E+1	-9.80069000E+5	9.90909000E+5	8.05100000E+3	8.30800000E+3	1.05055840E+0	1.02800864E+0	7.83164624E+3	8.08161866E+3	7.90817531E+3
9.09700000E+3	7.44116594E+1	-9.82040000E+5	9.92874000E+5	8.04200000E+3	8.27600000E+3	1.05088416E+0	1.02954080E+0	7.81124944E+3	8.03848156E+3	7.87527333E+3
9.09800000E+3	7.43889099E+1	-9.84006000E+5	9.94834000E+5	8.04100000E+3	8.27400000E+3	1.05079296E+0	1.02976352E+0	7.80858891E+3	8.03463241E+3	7.87405351E+3
9.09900000E+3	7.43661980E+1	-9.85967000E+5	9.96791000E+5	8.09400000E+3	8.33800000E+3	1.05089984E+0	1.02167904E+0	7.92225316E+3	8.16084230E+3	7.93415289E+3
9.10000000E+3	7.43435234E+1	-9.87925000E+5	9.98744000E+5	7.95800000E+3	8.20000000E+3	1.05018912E+0	1.02539968E+0	7.76087623E+3	7.99675596E+3	7.80811746E+3
9.10100000E+3	7.43208860E+1	-9.89879000E+5	1.00069200E+6	8.02700000E+3	8.27500000E+3	1.05077440E+0	1.02626400E+0	7.82157418E+3	8.06307414E+3	7.87514427E+3
9.10200000E+3	7.42982857E+1	-9.91828000E+5	1.00263600E+6	7.91700000E+3	8.15200000E+3	1.04989696E+0	1.02623008E+0	7.71464426E+3	7.94344807E+3	7.76457149E+3
9.10300000E+3	7.42757223E+1	-9.93773000E+5	1.00457600E+6	7.91600000E+3	8.11000000E+3	1.05059840E+0	1.02965376E+0	7.68802126E+3	7.87625494E+3	7.71941020E+3
9.10400000E+3	7.42531956E+1	-9.95715000E+5	1.00651200E+6	7.73500000E+3	7.97500000E+3	1.05094112E+0	1.02486464E+0	7.54733815E+3	7.78147090E+3	7.58843654E+3
9.10500000E+3	7.42307055E+1	-9.97652000E+5	1.00844400E+6	7.75600000E+3	8.02900000E+3	1.05051584E+0	1.02726720E+0	7.55012912E+3	7.81582137E+3	7.64291189E+3
9.10600000E+3	7.42082518E+1	-9.99585000E+5	1.01037200E+6	7.81000000E+3	8.02800000E+3	1.05125248E+0	1.02678752E+0	7.60624749E+3	7.81835280E+3	7.63660505E+3
9.10700000E+3	7.41858344E+1	-1.00151400E+6	1.01229600E+6	7.86800000E+3	8.10300000E+3	1.05091712E+0	1.02554048E+0	7.67205211E+3	7.90109051E+3	7.71040822E+3
9.10800000E+3	7.41634530E+1	-1.00343900E+6	1.01421600E+6	7.84200000E+3	8.05400000E+3	1.05015296E+0	1.02582496E+0	7.64457905E+3	7.85122894E+3	7.66935895E+3
9.10900000E+3	7.41411076E+1	-1.00536000E+6	1.01613200E+6	7.76900000E+3	8.01200000E+3	1.05090176E+0	1.02359168E+0	7.58994055E+3	7.82715805E+3	7.62392862E+3
9.11000000E+3	7.41187980E+1	-1.00727700E+6	1.01804400E+6	7.83000000E+3	8.07800000E+3	1.05014080E+0	1.02726016E+0	7.62221714E+3	7.86344539E+3	7.69230183E+3
9.11100000E+3	7.40965240E+1	-1.00919000E+6	1.01995200E+6	7.78600000E+3	8.01500000E+3	1.05017280E+0	1.02605536E+0	7.58828452E+3	7.81132644E+3	7.63207731E+3
9.11200000E+3	7.40742855E+1	-1.01109900E+6	1.02185600E+6	7.66600000E+3	7.92600000E+3	1.05114944E+0	1.02503136E+0	7.47879558E+3	7.73229802E+3	7.54031701E+3
9.11300000E+3	7.40520823E+1	-1.01300400E+6	1.02375500E+6	7.71600000E+3	7.94300000E+3	1.05009760E+0	1.02911552E+0	7.49770055E+3	7.71814145E+3	7.56405881E+3
9.11400000E+3	7.40299143E+1	-1.01490500E+6	1.02565200E+6	7.58800000E+3	7.81700000E+3	1.05065696E+0	1.02719872E+0	7.38708086E+3	7.60985042E+3	7.44010681E+3
9.11500000E+3	7.40077813E+1	-1.01680300E+6	1.02754400E+6	7.71900000E+3	7.94800000E+3	1.05031520E+0	1.02613344E+0	7.52241346E+3	7.74538620E+3	7.56725219E+3
9.11600000E+3	7.39856833E+1	-1.01869600E+6	1.02943200E+6	7.61900000E+3	7.84800000E+3	1.05050592E+0	1.02846400E+0	7.40813485E+3	7.63070217E+3	7.47068612E+3
9.11700000E+3	7.39636199E+1	-1.02058600E+6	1.03131600E+6	7.61800000E+3	7.85600000E+3	1.05104288E+0	1.02557312E+0	7.42804180E+3	7.65986756E+3	7.47448097E+3
9.11800000E+3	7.39415912E+1	-1.02247100E+6	1.03319700E+6	7.59600000E+3	7.82200000E+3	1.05023488E+0	1.02562080E+0	7.40624605E+3	7.62636815E+3	7.44785776E+3
9.11900000E+3	7.39195969E+1	-1.02435300E+6	1.03507400E+6	7.47300000E+3	7.68300000E+3	1.05013344E+0	1.02339456E+0	7.30216897E+3	7.50725826E+3	7.31621307E+3
9.12000000E+3	7.38976369E+1	-1.02623100E+6	1.03694600E+6	7.57100000E+3	7.80700000E+3	1.04992672E+0	1.02588320E+0	7.37998244E+3	7.60985830E+3	7.43575704E+3
9.12100000E+3	7.38757111E+1	-1.02810500E+6	1.03881500E+6	7.61800000E+3	7.83700000E+3	1.05021856E+0	1.02869664E+0	7.40548739E+3	7.61821593E+3	7.46225624E+3
9.12200000E+3	7.38538193E+1	-1.02997600E+6	1.04068100E+6	7.55800000E+3	7.78500000E+3	1.05077440E+0	1.02865152E+0	7.34748343E+3	7.56803834E+3	7.40882153E+3
9.12300000E+3	7.38319614E+1	-1.03184200E+6	1.04254200E+6	7.51300000E+3	7.74300000E+3	1.05069856E+0	1.03077600E+0	7.28868348E+3	7.51166158E+3	7.36938290E+3
9.12400000E+3	7.38101372E+1	-1.03370500E+6	1.04440000E+6	7.46900000E+3	7.67400000E+3	1.05013120E+0	1.02558912E+0	7.28264356E+3	7.48231415E+3	7.30765832E+3
9.12500000E+3	7.37883466E+1	-1.03556400E+6	1.04625400E+6	7.57800000E+3	7.82300000E+3	1.05007552E+0	1.02790496E+0	7.37227691E+3	7.61053043E+3	7.44994036E+3
9.12600000E+3	7.37665895E+1	-1.03741900E+6	1.04810400E+6	7.35000000E+3	7.56500000E+3	1.05070688E+0	1.02711136E+0	7.15599134E+3	7.36524378E+3	7.19991478E+3
9.12700000E+3	7.37448657E+1	-1.03927100E+6	1.04995000E+6	7.50900000E+3	7.74800000E+3	1.05089056E+0	1.02775744E+0	7.30619863E+3	7.53873928E+3	7.37279437E+3
9.12800000E+3	7.37231751E+1	-1.04111900E+6	1.05179300E+6	7.44400000E+3	7.64900000E+3	1.05029056E+0	1.02435136E+0	7.26703775E+3	7.46697702E+3	7.28274660E+3
9.12900000E+3	7.37015176E+1	-1.04296300E+6	1.05363200E+6	7.39000000E+3	7.63100000E+3	1.05060384E+0	1.02964960E+0	7.17719892E+3	7.41110489E+3	7.26344195E+3
9.13000000E+3	7.36798930E+1	-1.04480300E+6	1.05546700E+6	7.43800000E+3	7.68200000E+3	1.05061312E+0	1.02438912E+0	7.26091273E+3	7.49893567E+3	7.31192087E+3
9.13100000E+3	7.36583012E+1	-1.04664000E+6	1.05729900E+6	7.30900000E+3	7.54600000E+3	1.05030976E+0	1.02660576E+0	7.11957821E+3	7.35025214E+3	7.18454716E+3
9.13200000E+3	7.36367421E+1	-1.04847300E+6	1.05912700E+6	7.43000000E+3	7.67700000E+3	1.05040032E+0	1.02640064E+0	7.23888871E+3	7.47940788E+3	7.30864210E+3
9.13300000E+3	7.36152155E+1	-1.05030300E+6	1.06095100E+6	7.40700000E+3	7.64000000E+3	1.05065216E+0	1.02902144E+0	7.19810075E+3	7.42437268E+3	7.27167400E+3
9.13400000E+3	7.35937212E+1	-1.05212900E+6	1.06277200E+6	7.28400000E+3	7.51500000E+3	1.05079904E+0	1.02783904E+0	7.08671272E+3	7.31141359E+3	7.15170048E+3
9.13500000E+3	7.35722593E+1	-1.05395100E+6	1.06458900E+6	7.37400000E+3	7.56700000E+3	1.05035296E+0	1.02810656E+0	7.17240828E+3	7.36011565E+3	7.20424494E+3
9.13600000E+3	7.35508295E+1	-1.05577000E+6	1.06640300E+6	7.24100000E+3	7.46500000E+3	1.05021056E+0	1.02622848E+0	7.05593359E+3	7.27406732E+3	7.10809840E+3
9.13700000E+3	7.35294317E+1	-1.05758500E+6	1.06821300E+6	7.20900000E+3	7.44300000E+3	1.05013664E+0	1.02491712E+0	7.03373947E+3	7.26189015E+3	7.08764909E+3
9.13800000E+3	7.35080658E+1	-1.05939600E+6	1.07001900E+6	7.39900000E+3	7.61700000E+3	1.05073376E+0	1.02640768E+0	7.20863663E+3	7.42097491E+3	7.24921982E+3
9.13900000E+3	7.34867317E+1	-1.06120400E+6	1.07182200E+6	7.33100000E+3	7.56300000E+3	1.05048384E+0	1.02540896E+0	7.14934264E+3	7.37547858E+3	7.19953960E+3
9.14000000E+3	7.34654292E+1	-1.06300900E+6	1.07362100E+6	7.28400000E+3	7.48900000E+3	1.05010336E+0	1.02680320E+0	7.09386180E+3	7.29342873E+3	7.13167892E+3
9.14100000E+3	7.34441582E+1	-1.06481000E+6	1.07541700E+6	7.35500000E+3	7.56000000E+3	1.05065280E+0	1.02736192E+0	7.15911292E+3	7.35948898E+3	7.19647823E+3
9.14200000E+3	7.34229186E+1	-1.06660700E+6	1.07720900E+6	7.18200000E+3	7.39200000E+3	1.05006496E+0	1.02568736E+0	7.00213367E+3	7.20675739E+3	7.03956449E+3
9.14300000E+3	7.34017103E+1	-1.06840100E+6	1.07899800E+6	7.05700000E+3	7.30800000E+3	1.05018720E+0	1.02444320E+0	6.88862008E+3	7.13355091E+3	6.95875935E+3
9.14400000E+3	7.33805331E+1	-1.07019100E+6	1.08078300E+6	7.05500000E+3	7.28400000E+3	1.05083360E+0	1.02776576E+0	6.86440459E+3	7.08718614E+3	6.93163980E+3
9.14500000E+3	7.33593869E+1	-1.07197800E+6	1.08256500E+6	7.38700000E+3	7.62900000E+3	1.05071168E+0	1.03218176E+0	7.15668527E+3	7.39108604E+3	7.26079299E+3
9.14600000E+3	7.33382717E+1	-1.07376100E+6	1.08434400E+6	7.04800000E+3	7.26000000E+3	1.05018848E+0	1.02270464E+0	6.89153029E+3	7.09861722E+3	6.91304479E+3
9.14700000E+3	7.33171872E+1	-1.07554100E+6	1.08611800E+6	7.02200000E+3	7.24200000E+3	1.05016416E+0	1.02641472E+0	6.84128926E+3	7.05554547E+3	6.89606471E+3
9.14800000E+3	7.32961334E+1	-1.07731800E+6	1.08789000E+6	7.07200000E+3	7.29400000E+3	1.05021312E+0	1.02656512E+0	6.88899307E+3	7.10507644E+3	6.94525698E+3
9.14900000E+3	7.32751102E+1	-1.07909100E+6	1.08965800E+6	7.12100000E+3	7.33600000E+3	1.05022240E+0	1.02340832E+0	6.95812205E+3	7.16819929E+3	6.98518714E+3
9.15000000E+3	7.32541173E+1	-1.08086100E+6	1.09142200E+6	7.05600000E+3	7.27100000E+3	1.05085120E+0	1.02959264E+0	6.85319584E+3	7.06193897E+3	6.91915278E+3
9.15100000E+3	7.32331548E+1	-1.08262700E+6	1.09318400E+6	7.04800000E+3	7.27200000E+3	1.05065600E+0	1.02537568E+0	6.87357828E+3	7.09188211E+3	6.92139006E+3
9.15200000E+3	7.32122225E+1	-1.08439000E+6	1.09494100E+6	7.10400000E+3	7.34000000E+3	1.05105952E+0	1.02618368E+0	6.92273726E+3	7.15268550E+3	6.98342944E+3
9.15300000E+3	7.31913203E+1	-1.08614900E+6	1.09669600E+6	7.04800000E+3	7.28300000E+3	1.05043200E+0	1.03206336E+0	6.82903809E+3	7.05653744E+3	6.93333790E+3
9.15400000E+3	7.31704481E+1	-1.08790500E+6	1.09844700E+6	7.09500000E+3	7.30200000E+3	1.05060576E+0	1.02913504E+0	6.89413898E+3	7.09523298E+3	6.95027600E+3
9.15500000E+3	7.31496057E+1	-1.08965800E+6	1.10019500E+6	7.06800000E+3	7.27300000E+3	1.05004768E+0	1.03029888E+0	6.86014528E+3	7.05904176E+3	6.92635214E+3
9.15600000E+3	7.31287930E+1	-1.09140800E+6	1.10193900E+6	7.07800000E+3	7.32200000E+3	1.05031328E+0	1.02683040E+0	6.89305654E+3	7.13067890E+3	6.97125338E+3
9.15700000E+3	7.31080100E+1	-1.09315400E+6	1.10368000E+6	6.98600000E+3	7.20200000E+3	1.05071424E+0	1.02818848E+0	6.79447410E+3	7.00454333E+3	6.85438507E+3
9.15800000E+3	7.30872565E+1	-1.09489700E+6	1.10541800E+6	6.98600000E+3	7.21500000E+3	1.05068480E+0	1.02719136E+0	6.80106967E+3	7.02394833E+3	6.86695001E+3
9.15900000E+3	7.30665325E+1	-1.09663600E+6	1.10715200E+6	6.88000000E+3	7.09900000E+3	1.05068224E+0	1.02642912E+0	6.70284958E+3	6.91615556E+3	6.75656229E+3
9.16000000E+3	7.30458377E+1	-1.09837200E+6	1.10888300E+6	7.03000000E+3	7.25600000E+3	1.05075008E+0	1.02566880E+0	6.85406439E+3	7.07439221E+3	6.90554313E+3
9.16100000E+3	7.30251721E+1	-1.10010500E+6	1.11061100E+6	6.83100000E+3	7.06100000E+3	1.05032160E+0	1.02755392E+0	6.64782633E+3	6.87154057E+3	6.72270284E+3
9.16200000E+3	7.30045356E+1	-1.10183500E+6	1.11233600E+6	6.82500000E+3	7.05000000E+3	1.05023328E+0	1.02901088E+0	6.63258293E+3	6.85107865E+3	6.71279432E+3
9.16300000E+3	7.29839281E+1	-1.10356100E+6	1.11405700E+6	6.82300000E+3	7.05400000E+3	1.05035296E+0	1.03066304E+0	6.62001036E+3	6.84405229E+3	6.71583769E+3
9.16400000E+3	7.29633494E+1	-1.10528400E+6	1.11577500E+6	6.81100000E+3	7.02300000E+3	1.05097184E+0	1.02285696E+0	6.65880007E+3	6.86593814E+3	6.68238647E+3
9.16500000E+3	7.29427996E+1	-1.10700400E+6	1.11749000E+6	6.76700000E+3	6.98300000E+3	1.05022208E+0	1.02529280E+0	6.60006585E+3	6.81052707E+3	6.64906988E+3
9.16600000E+3	7.29222783E+1	-1.10872100E+6	1.11920100E+6	6.68500000E+3	6.89900000E+3	1.05091552E+0	1.02987680E+0	6.49106767E+3	6.69978759E+3	6.56570378E+3
9.16700000E+3	7.29017857E+1	-1.11043400E+6	1.12091000E+6	6.86600000E+3	7.09700000E+3	1.05022272E+0	1.02866496E+0	6.67467083E+3	6.89916444E+3	6.75761423E+3
9.16800000E+3	7.28813215E+1	-1.11214500E+6	1.12261500E+6	6.74600000E+3	6.96800000E+3	1.05016288E+0	1.02755968E+0	6.56506880E+3	6.78109655E+3	6.63516120E+3
9.16900000E+3	7.28608856E+1	-1.11385200E+6	1.12431700E+6	6.78200000E+3	7.02900000E+3	1.05028512E+0	1.02704832E+0	6.60338941E+3	6.84383504E+3	6.69246842E+3
9.17000000E+3	7.28404779E+1	-1.11555500E+6	1.12601600E+6	6.72000000E+3	6.96200000E+3	1.05045856E+0	1.02902304E+0	6.53046602E+3	6.76558033E+3	6.62758177E+3
9.17100000E+3	7.28200985E+1	-1.11725600E+6	1.12771100E+6	6.77200000E+3	7.01600000E+3	1.05048160E+0	1.03067392E+0	6.57045829E+3	6.80710516E+3	6.67884140E+3
9.17200000E+3	7.27997470E+1	-1.11895400E+6	1.12940400E+6	6.78600000E+3	7.01600000E+3	1.05066496E+0	1.02679200E+0	6.60893345E+3	6.83280957E+3	6.67767582E+3
9.17300000E+3	7.27794235E+1	-1.12064800E+6	1.13109300E+6	6.67300000E+3	6.89400000E+3	1.05024128E+0	1.02788416E+0	6.49197668E+3	6.70687446E+3	6.56420589E+3
9.17400000E+3	7.27591278E+1	-1.12233900E+6	1.13277900E+6	6.76000000E+3	7.01000000E+3	1.05052512E+0	1.02613344E+0	6.58783715E+3	6.83145058E+3	6.67285329E+3
9.17500000E+3	7.27388599E+1	-1.12402800E+6	1.13446300E+6	6.57100000E+3	6.82400000E+3	1.04995328E+0	1.02732704E+0	6.39621050E+3	6.64230120E+3	6.49933681E+3
9.17600000E+3	7.27186195E+1	-1.12571300E+6	1.13614300E+6	6.88500000E+3	7.09300000E+3	1.05039776E+0	1.02743584E+0	6.70114837E+3	6.90356832E+3	6.75268005E+3
9.17700000E+3	7.26984068E+1	-1.12739500E+6	1.13781900E+6	6.65900000E+3	6.88300000E+3	1.05066240E+0	1.03063200E+0	6.46108407E+3	6.67823668E+3	6.55110528E+3
9.17800000E+3	7.26782214E+1	-1.12907300E+6	1.13949300E+6	6.72600000E+3	6.92700000E+3	1.05044288E+0	1.02401984E+0	6.56823212E+3	6.76449037E+3	6.59436142E+3
9.17900000E+3	7.26580635E+1	-1.13074900E+6	1.14116400E+6	6.70100000E+3	6.92800000E+3	1.05011264E+0	1.03278240E+0	6.48829802E+3	6.70801265E+3	6.59738750E+3
9.18000000E+3	7.26379327E+1	-1.13242200E+6	1.14283200E+6	6.50200000E+3	6.71400000E+3	1.05060608E+0	1.02875008E+0	6.32029112E+3	6.52624795E+3	6.39059694E+3
9.18100000E+3	7.26178291E+1	-1.13409100E+6	1.14449600E+6	6.64600000E+3	6.85900000E+3	1.05035616E+0	1.02915712E+0	6.45771172E+3	6.66453056E+3	6.53016592E+3
9.18200000E+3	7.25977526E+1	-1.13575800E+6	1.14615800E+6	6.50000000E+3	6.70800000E+3	1.05050912E+0	1.02818080E+0	6.32184534E+3	6.52409395E+3	6.38547526E+3
9.18300000E+3	7.25777030E+1	-1.13742200E+6	1.14781600E+6	6.70100000E+3	6.90200000E+3	1.05034208E+0	1.03021120E+0	6.50449151E+3	6.69953958E+3	6.57119250E+3
9.18400000E+3	7.25576803E+1	-1.13908200E+6	1.14947200E+6	6.66500000E+3	6.89400000E+3	1.05016736E+0	1.02840352E+0	6.48091909E+3	6.70342718E+3	6.56466794E+3
9.18500000E+3	7.25376844E+1	-1.14074000E+6	1.15112400E+6	6.61900000E+3	6.84200000E+3	1.05024032E+0	1.02790528E+0	6.43930927E+3	6.65617957E+3	6.51469942E+3
9.18600000E+3	7.25177151E+1	-1.14239400E+6	1.15277400E+6	6.37700000E+3	6.59200000E+3	1.05090720E+0	1.03247584E+0	6.17641571E+3	6.38453168E+3	6.27267565E+3
9.18700000E+3	7.24977724E+1	-1.14404600E+6	1.15442000E+6	6.43500000E+3	6.65400000E+3	1.05042976E+0	1.02691936E+0	6.26631482E+3	6.47941754E+3	6.33455016E+3
9.18800000E+3	7.24778562E+1	-1.14569400E+6	1.15606300E+6	6.33300000E+3	6.55700000E+3	1.05051264E+0	1.02830336E+0	6.15868842E+3	6.37649058E+3	6.24171452E+3
9.18900000E+3	7.24579664E+1	-1.14734000E+6	1.15770400E+6	6.38800000E+3	6.60200000E+3	1.05037312E+0	1.03132576E+0	6.19396921E+3	6.40127299E+3	6.28538552E+3
9.19000000E+3	7.24381029E+1	-1.14898200E+6	1.15934100E+6	6.29400000E+3	6.51800000E+3	1.05048416E+0	1.02881760E+0	6.11770250E+3	6.33528273E+3	6.20475800E+3
9.19100000E+3	7.24182656E+1	-1.15062200E+6	1.16097600E+6	6.28500000E+3	6.50700000E+3	1.05065984E+0	1.03057024E+0	6.09856539E+3	6.31379584E+3	6.19325090E+3
9.19200000E+3	7.23984545E+1	-1.15225800E+6	1.16260800E+6	6.27800000E+3	6.51000000E+3	1.05013760E+0	1.02645984E+0	6.11616719E+3	6.34202809E+3	6.19918761E+3
9.19300000E+3	7.23786694E+1	-1.15389200E+6	1.16423600E+6	6.27200000E+3	6.49800000E+3	1.05046944E+0	1.03059200E+0	6.08582252E+3	6.30510579E+3	6.18580584E+3
9.19400000E+3	7.23589102E+1	-1.15552300E+6	1.16586200E+6	6.38000000E+3	6.60700000E+3	1.05095968E+0	1.03017568E+0	6.19311844E+3	6.41333217E+3	6.28663509E+3
9.19500000E+3	7.23391769E+1	-1.15715100E+6	1.16748500E+6	6.12300000E+3	6.33800000E+3	1.05011872E+0	1.02921440E+0	5.94919776E+3	6.15807427E+3	6.03550806E+3
9.19600000E+3	7.23194694E+1	-1.15877500E+6	1.16910500E+6	6.26200000E+3	6.47700000E+3	1.05070048E+0	1.03099424E+0	6.07374877E+3	6.28228191E+3	6.16445897E+3
9.19700000E+3	7.22997875E+1	-1.16039700E+6	1.17072200E+6	6.41300000E+3	6.63900000E+3	1.05066816E+0	1.02441184E+0	6.26017755E+3	6.48073198E+3	6.31883620E+3
9.19800000E+3	7.22801313E+1	-1.16201700E+6	1.17233600E+6	6.25700000E+3	6.46100000E+3	1.05048160E+0	1.02780352E+0	6.08773942E+3	6.28603434E+3	6.15051230E+3
9.19900000E+3	7.22605005E+1	-1.16363300E+6	1.17394700E+6	6.28700000E+3	6.52200000E+3	1.05055456E+0	1.03286784E+0	6.08693558E+3	6.31439867E+3	6.20814972E+3
9.20000000E+3	7.22408952E+1	-1.16524600E+6	1.17555500E+6	6.16200000E+3	6.36000000E+3	1.05030976E+0	1.02866240E+0	5.99030352E+3	6.18272720E+3	6.05535647E+3
9.20100000E+3	7.22213152E+1	-1.16685700E+6	1.17716100E+6	6.22200000E+3	6.43300000E+3	1.05049632E+0	1.02997952E+0	6.04089681E+3	6.24562330E+3	6.12377205E+3
9.20200000E+3	7.22017605E+1	-1.16846400E+6	1.17876400E+6	6.14400000E+3	6.37400000E+3	1.05049856E+0	1.02729536E+0	5.98075319E+3	6.20458299E+3	6.06759518E+3
9.20300000E+3	7.21822309E+1	-1.17006900E+6	1.18036300E+6	6.19100000E+3	6.39300000E+3	1.05079008E+0	1.02794880E+0	6.02267350E+3	6.21917486E+3	6.08399348E+3
9.20400000E+3	7.21627264E+1	-1.17167100E+6	1.18196000E+6	6.20700000E+3	6.41400000E+3	1.05071968E+0	1.03038848E+0	6.02394157E+3	6.22466096E+3	6.10438742E+3
9.20500000E+3	7.21432469E+1	-1.17327000E+6	1.18355400E+6	6.19700000E+3	6.41400000E+3	1.05071904E+0	1.02744416E+0	6.03147134E+3	6.24257259E+3	6.10439114E+3
9.20600000E+3	7.21237924E+1	-1.17486700E+6	1.18514600E+6	6.24400000E+3	6.42700000E+3	1.05035392E+0	1.03275584E+0	6.04595952E+3	6.22299079E+3	6.11888991E+3
9.20700000E+3	7.21043626E+1	-1.17646000E+6	1.18673400E+6	5.96700000E+3	6.18100000E+3	1.05108672E+0	1.02906656E+0	5.79845875E+3	6.00627282E+3	5.88058043E+3
9.20800000E+3	7.20849576E+1	-1.17805100E+6	1.18832000E+6	6.20700000E+3	6.41500000E+3	1.05054080E+0	1.02803584E+0	6.03772724E+3	6.24002549E+3	6.10637873E+3
9.20900000E+3	7.20655773E+1	-1.17963900E+6	1.18990300E+6	6.02900000E+3	6.22700000E+3	1.05094080E+0	1.03104672E+0	5.84745568E+3	6.03947043E+3	5.92516724E+3
9.21000000E+3	7.20462216E+1	-1.18122400E+6	1.19148300E+6	5.98200000E+3	6.16700000E+3	1.05069632E+0	1.02710592E+0	5.82413156E+3	6.00417031E+3	5.86944094E+3
9.21100000E+3	7.20268904E+1	-1.18280600E+6	1.19306100E+6	6.08800000E+3	6.30100000E+3	1.05014528E+0	1.02840608E+0	5.91984054E+3	6.12684311E+3	6.00012219E+3
9.21200000E+3	7.20075836E+1	-1.18438600E+6	1.19463500E+6	6.00800000E+3	6.23700000E+3	1.05096192E+0	1.03311808E+0	5.81540495E+3	6.03704617E+3	5.93456326E+3
9.21300000E+3	7.19883011E+1	-1.18596300E+6	1.19620700E+6	6.14800000E+3	6.38000000E+3	1.05091840E+0	1.03327424E+0	5.95001768E+3	6.17448808E+3	6.07088048E+3
9.21400000E+3	7.19690429E+1	-1.18753700E+6	1.19777600E+6	6.14100000E+3	6.37900000E+3	1.05066624E+0	1.02774400E+0	5.97522340E+3	6.20667910E+3	6.07138571E+3
9.21500000E+3	7.19498089E+1	-1.18910800E+6	1.19934200E+6	6.08800000E+3	6.31800000E+3	1.05031584E+0	1.02779616E+0	5.92335352E+3	6.14707136E+3	6.01533344E+3
9.21600000E+3	7.19305990E+1	-1.19067700E+6	1.20090600E+6	6.04000000E+3	6.24100000E+3	1.04976288E+0	1.02875872E+0	5.87115315E+3	6.06635515E+3	5.94515211E+3
9.21700000E+3	7.19114132E+1	-1.19224300E+6	1.20246700E+6	6.04100000E+3	6.21800000E+3	1.05018656E+0	1.02836544E+0	5.87437089E+3	6.04638957E+3	5.92085277E+3
9.21800000E+3	7.18922512E+1	-1.19380600E+6	1.20402500E+6	6.08400000E+3	6.29800000E+3	1.05035680E+0	1.02973856E+0	5.90829579E+3	6.11604395E+3	5.99605772E+3
9.21900000E+3	7.18731132E+1	-1.19536600E+6	1.20558100E+6	6.05400000E+3	6.26000000E+3	1.05087200E+0	1.03096352E+0	5.87217674E+3	6.07196095E+3	5.95695765E+3
9.22000000E+3	7.18539990E+1	-1.19692400E+6	1.20713400E+6	5.93500000E+3	6.16000000E+3	1.05037984E+0	1.02990816E+0	5.76264975E+3	5.98097894E+3	5.86454515E+3
9.22100000E+3	7.18349085E+1	-1.19847900E+6	1.20868400E+6	6.00400000E+3	6.22000000E+3	1.05048512E+0	1.03294368E+0	5.81251439E+3	6.02161534E+3	5.92107387E+3
9.22200000E+3	7.18158416E+1	-1.20003200E+6	1.21023100E+6	5.78800000E+3	5.98000000E+3	1.05017472E+0	1.02755328E+0	5.63279794E+3	5.81949295E+3	5.69429057E+3
9.22300000E+3	7.17967983E+1	-1.20158200E+6	1.21177600E+6	6.03200000E+3	6.24700000E+3	1.05080096E+0	1.02845280E+0	5.86512089E+3	6.07413603E+3	5.94498886E+3
9.22400000E+3	7.17777785E+1	-1.20312900E+6	1.21331800E+6	6.00600000E+3	6.20100000E+3	1.04970432E+0	1.02819104E+0	5.84132692E+3	6.03097816E+3	5.90737780E+3
9.22500000E+3	7.17587821E+1	-1.20467300E+6	1.21485800E+6	5.85200000E+3	6.06700000E+3	1.05068256E+0	1.03003456E+0	5.68136277E+3	5.89004557E+3	5.77434159E+3
9.22600000E+3	7.17398090E+1	-1.20621500E+6	1.21639400E+6	5.93100000E+3	6.14100000E+3	1.05071168E+0	1.02940480E+0	5.76158184E+3	5.96551418E+3	5.84461001E+3
9.22700000E+3	7.17208592E+1	-1.20775400E+6	1.21792900E+6	5.74200000E+3	5.95400000E+3	1.05077440E+0	1.02853440E+0	5.58270098E+3	5.78870661E+3	5.66629716E+3
9.22800000E+3	7.17019326E+1	-1.20929100E+6	1.21946000E+6	5.96300000E+3	6.14100000E+3	1.05086656E+0	1.03134624E+0	5.78176346E+3	5.95419796E+3	5.84374861E+3
9.22900000E+3	7.16830292E+1	-1.21082400E+6	1.22098900E+6	5.84300000E+3	6.06000000E+3	1.05092448E+0	1.03088096E+0	5.66796772E+3	5.87846285E+3	5.76635155E+3
9.23000000E+3	7.16641488E+1	-1.21235600E+6	1.22251500E+6	5.96000000E+3	6.17300000E+3	1.05020288E+0	1.03272128E+0	5.77116025E+3	5.97731721E+3	5.87791189E+3
9.23100000E+3	7.16452913E+1	-1.21388400E+6	1.22403900E+6	5.93100000E+3	6.15800000E+3	1.05072768E+0	1.02814816E+0	5.76862385E+3	5.98939324E+3	5.86070027E+3
9.23200000E+3	7.16264568E+1	-1.21541100E+6	1.22556000E+6	5.80900000E+3	6.02000000E+3	1.04978848E+0	1.03352256E+0	5.62058365E+3	5.82465340E+3	5.73448853E+3
9.23300000E+3	7.16076451E+1	-1.21693400E+6	1.22707900E+6	5.84100000E+3	6.04600000E+3	1.04998208E+0	1.02734752E+0	5.68551526E+3	5.88497332E+3	5.75819351E+3
9.23400000E+3	7.15888562E+1	-1.21845500E+6	1.22859500E+6	5.70100000E+3	5.91200000E+3	1.05029408E+0	1.02932576E+0	5.53857702E+3	5.74438014E+3	5.62985178E+3
9.23500000E+3	7.15700899E+1	-1.21997300E+6	1.23010800E+6	5.69700000E+3	5.93900000E+3	1.05048032E+0	1.03224736E+0	5.51902598E+3	5.75344719E+3	5.65360425E+3
9.23600000E+3	7.15513463E+1	-1.22148900E+6	1.23161900E+6	5.70600000E+3	5.91300000E+3	1.05057952E+0	1.02959072E+0	5.54200799E+3	5.74302021E+3	5.62832217E+3
9.23700000E+3	7.15326252E+1	-1.22300200E+6	1.23312700E+6	5.71500000E+3	5.91600000E+3	1.05039200E+0	1.02876160E+0	5.55522290E+3	5.75057088E+3	5.63218303E+3
9.23800000E+3	7.15139266E+1	-1.22451300E+6	1.23463300E+6	5.64700000E+3	5.87800000E+3	1.05080832E+0	1.02968480E+0	5.48420254E+3	5.70848667E+3	5.59378898E+3
9.23900000E+3	7.14952505E+1	-1.22602100E+6	1.23613600E+6	5.71700000E+3	5.94100000E+3	1.05089152E+0	1.02793824E+0	5.56161818E+3	5.77951948E+3	5.65329521E+3
9.24000000E+3	7.14765966E+1	-1.22752700E+6	1.23763700E+6	5.62600000E+3	5.82400000E+3	1.04956384E+0	1.02872704E+0	5.46889484E+3	5.66126472E+3	5.54897166E+3
9.24100000E+3	7.14579650E+1	-1.22903000E+6	1.23913500E+6	5.77400000E+3	5.98000000E+3	1.05056512E+0	1.02851712E+0	5.61390753E+3	5.81407675E+3	5.69217451E+3
9.24200000E+3	7.14393557E+1	-1.23053000E+6	1.24063000E+6	5.67400000E+3	5.89000000E+3	1.05012160E+0	1.02984384E+0	5.50957318E+3	5.71918591E+3	5.60887425E+3
9.24300000E+3	7.14207684E+1	-1.23202800E+6	1.24212300E+6	5.62200000E+3	5.83700000E+3	1.05040384E+0	1.02985696E+0	5.45901054E+3	5.66764971E+3	5.55691038E+3
9.24400000E+3	7.14022033E+1	-1.23352400E+6	1.24361400E+6	5.50900000E+3	5.72700000E+3	1.05030816E+0	1.03334752E+0	5.33121713E+3	5.54204816E+3	5.45268543E+3
9.24500000E+3	7.13836601E+1	-1.23501700E+6	1.24510200E+6	5.53700000E+3	5.74200000E+3	1.04969664E+0	1.02837120E+0	5.38424258E+3	5.58357563E+3	5.47015183E+3
9.24600000E+3	7.13651389E+1	-1.23650700E+6	1.24658800E+6	5.46100000E+3	5.68700000E+3	1.05019040E+0	1.03058592E+0	5.29892743E+3	5.51808812E+3	5.41520852E+3
9.24700000E+3	7.13466395E+1	-1.23799500E+6	1.24807100E+6	5.44300000E+3	5.66800000E+3	1.05084256E+0	1.03153984E+0	5.27657759E+3	5.49468561E+3	5.39376707E+3
9.24800000E+3	7.13281620E+1	-1.23948100E+6	1.24955100E+6	5.26900000E+3	5.48000000E+3	1.05102144E+0	1.03044416E+0	5.11332899E+3	5.31793008E+3	5.21397546E+3
9.24900000E+3	7.13097061E+1	-1.24096400E+6	1.25102900E+6	5.42700000E+3	5.63400000E+3	1.05028736E+0	1.03419264E+0	5.24757167E+3	5.44757830E+3	5.36424622E+3
9.25000000E+3	7.12912720E+1	-1.24244400E+6	1.25250500E+6	5.39900000E+3	5.61900000E+3	1.05076224E+0	1.03317984E+0	5.22561493E+3	5.43848402E+3	5.34754656E+3
9.25100000E+3	7.12728594E+1	-1.24392300E+6	1.25397800E+6	5.59800000E+3	5.81000000E+3	1.05060704E+0	1.02785760E+0	5.44627972E+3	5.65247720E+3	5.53013618E+3
9.25200000E+3	7.12544684E+1	-1.24539800E+6	1.25544900E+6	5.75800000E+3	5.96400000E+3	1.05097056E+0	1.03194464E+0	5.57975668E+3	5.77932210E+3	5.67475458E+3
9.25300000E+3	7.12360988E+1	-1.24687200E+6	1.25691800E+6	5.54200000E+3	5.74400000E+3	1.05075680E+0	1.02780384E+0	5.39207948E+3	5.58845401E+3	5.46653612E+3
9.25400000E+3	7.12177507E+1	-1.24834200E+6	1.25838300E+6	5.55500000E+3	5.75500000E+3	1.05124032E+0	1.03041568E+0	5.39102821E+3	5.58497113E+3	5.47448561E+3
9.25500000E+3	7.11994239E+1	-1.24981100E+6	1.25984700E+6	5.53600000E+3	5.72200000E+3	1.05111200E+0	1.03486240E+0	5.34950347E+3	5.52913192E+3	5.44375861E+3
9.25600000E+3	7.11811184E+1	-1.25127700E+6	1.26130800E+6	5.64700000E+3	5.85000000E+3	1.05083168E+0	1.03306432E+0	5.46626177E+3	5.66274969E+3	5.56701907E+3
9.25700000E+3	7.11628341E+1	-1.25274000E+6	1.26276700E+6	5.43900000E+3	5.65600000E+3	1.05034112E+0	1.03101504E+0	5.27538376E+3	5.48576847E+3	5.38491724E+3
9.25800000E+3	7.11445710E+1	-1.25420100E+6	1.26422300E+6	5.51300000E+3	5.72900000E+3	1.05042432E+0	1.03127488E+0	5.34581042E+3	5.55510388E+3	5.45398644E+3
9.25900000E+3	7.11263289E+1	-1.25566000E+6	1.26567700E+6	5.49300000E+3	5.72300000E+3	1.04999200E+0	1.03031104E+0	5.33139973E+3	5.55458639E+3	5.45051772E+3
9.26000000E+3	7.11081079E+1	-1.25711700E+6	1.26712800E+6	5.49200000E+3	5.69500000E+3	1.04989088E+0	1.02976128E+0	5.33327491E+3	5.53025429E+3	5.42437325E+3
9.26100000E+3	7.10899079E+1	-1.25857100E+6	1.26857700E+6	5.44600000E+3	5.65300000E+3	1.05087392E+0	1.02868096E+0	5.29415845E+3	5.49524531E+3	5.37933228E+3
9.26200000E+3	7.10717287E+1	-1.26002200E+6	1.27002400E+6	5.36700000E+3	5.57400000E+3	1.05051776E+0	1.02712896E+0	5.22524455E+3	5.42772038E+3	5.30690695E+3
9.26300000E+3	7.10535704E+1	-1.26147100E+6	1.27146800E+6	5.41300000E+3	5.62200000E+3	1.04988064E+0	1.03266400E+0	5.24178242E+3	5.44400990E+3	5.35489444E+3
9.26400000E+3	7.10354329E+1	-1.26291800E+6	1.27291000E+6	5.36500000E+3	5.55400000E+3	1.05042784E+0	1.03193376E+0	5.19897711E+3	5.38200017E+3	5.28736938E+3
9.26500000E+3	7.10173161E+1	-1.26436300E+6	1.27435000E+6	5.42000000E+3	5.62100000E+3	1.05026848E+0	1.02798016E+0	5.27247530E+3	5.46796304E+3	5.35196486E+3
9.26600000E+3	7.09992200E+1	-1.26580500E+6	1.27578700E+6	5.33700000E+3	5.56500000E+3	1.05016672E+0	1.03108960E+0	5.17607781E+3	5.39708507E+3	5.29915859E+3
9.26700000E+3	7.09811445E+1	-1.26724500E+6	1.27722200E+6	5.33800000E+3	5.54700000E+3	1.05072544E+0	1.03345248E+0	5.16521089E+3	5.36741444E+3	5.27920976E+3
9.26800000E+3	7.09630895E+1	-1.26868200E+6	1.27865500E+6	5.26800000E+3	5.49200000E+3	1.05097216E+0	1.03540160E+0	5.08788088E+3	5.30416438E+3	5.22563795E+3
9.26900000E+3	7.09450550E+1	-1.27011700E+6	1.28008500E+6	5.25200000E+3	5.45900000E+3	1.05111072E+0	1.03638848E+0	5.06759782E+3	5.26730672E+3	5.19355373E+3
9.27000000E+3	7.09270409E+1	-1.27155000E+6	1.28151300E+6	5.36900000E+3	5.55300000E+3	1.05084768E+0	1.03307808E+0	5.19709023E+3	5.37510781E+3	5.28430533E+3
9.27100000E+3	7.09090472E+1	-1.27298100E+6	1.28293800E+6	5.20900000E+3	5.39600000E+3	1.05034752E+0	1.03147232E+0	5.05006281E+3	5.23126561E+3	5.13734730E+3
9.27200000E+3	7.08910738E+1	-1.27440900E+6	1.28436200E+6	5.12100000E+3	5.30700000E+3	1.05029760E+0	1.03199936E+0	4.96221238E+3	5.14236633E+3	5.05285359E+3
9.27300000E+3	7.08731206E+1	-1.27583500E+6	1.28578300E+6	5.34600000E+3	5.57200000E+3	1.05097472E+0	1.03176160E+0	5.18142951E+3	5.40047186E+3	5.30174503E+3
9.27400000E+3	7.08551877E+1	-1.27725800E+6	1.28720100E+6	5.25000000E+3	5.45600000E+3	1.05049920E+0	1.03484256E+0	5.07323549E+3	5.27219029E+3	5.19372123E+3
9.27500000E+3	7.08372748E+1	-1.27868000E+6	1.28861800E+6	5.24600000E+3	5.44900000E+3	1.05037696E+0	1.02835776E+0	5.10133750E+3	5.29871276E+3	5.18766139E+3
9.27600000E+3	7.08193820E+1	-1.28009900E+6	1.29003200E+6	5.28200000E+3	5.49000000E+3	1.05091392E+0	1.03428512E+0	5.10690901E+3	5.30792076E+3	5.22402444E+3
9.27700000E+3	7.08015093E+1	-1.28151500E+6	1.29144400E+6	5.16200000E+3	5.36800000E+3	1.05085568E+0	1.02967552E+0	5.01322980E+3	5.21313507E+3	5.10821810E+3
9.27800000E+3	7.07836565E+1	-1.28293000E+6	1.29285300E+6	5.24800000E+3	5.42100000E+3	1.05089856E+0	1.02978368E+0	5.09621594E+3	5.26420917E+3	5.15844269E+3
9.27900000E+3	7.07658236E+1	-1.28434200E+6	1.29426000E+6	5.30700000E+3	5.48600000E+3	1.05015808E+0	1.03126048E+0	5.14612952E+3	5.31957659E+3	5.22397542E+3
9.28000000E+3	7.07480105E+1	-1.28575200E+6	1.29566500E+6	5.20300000E+3	5.39500000E+3	1.05066112E+0	1.03299808E+0	5.03679542E+3	5.22254125E+3	5.13486213E+3
9.28100000E+3	7.07302172E+1	-1.28715900E+6	1.29706800E+6	5.14300000E+3	5.35900000E+3	1.04984736E+0	1.02885568E+0	4.99875745E+3	5.20854316E+3	5.10455158E+3
9.28200000E+3	7.07124437E+1	-1.28856500E+6	1.29846900E+6	5.13300000E+3	5.32300000E+3	1.05048000E+0	1.03377632E+0	4.96529075E+3	5.14895482E+3	5.06720737E+3
9.28300000E+3	7.06946898E+1	-1.28996800E+6	1.29986700E+6	5.13900000E+3	5.34300000E+3	1.05062816E+0	1.02948640E+0	4.99180951E+3	5.18993899E+3	5.08552902E+3
9.28400000E+3	7.06769556E+1	-1.29136900E+6	1.30126300E+6	5.21300000E+3	5.40400000E+3	1.05108832E+0	1.03125344E+0	5.05501344E+3	5.24021608E+3	5.14133769E+3
9.28500000E+3	7.06592409E+1	-1.29276800E+6	1.30265700E+6	5.18000000E+3	5.37300000E+3	1.05085056E+0	1.03067360E+0	5.02583941E+3	5.21308810E+3	5.11300103E+3
9.28600000E+3	7.06415458E+1	-1.29416400E+6	1.30404800E+6	5.16700000E+3	5.38000000E+3	1.05017376E+0	1.02979360E+0	5.01751030E+3	5.22421834E+3	5.12296175E+3
9.28700000E+3	7.06238701E+1	-1.29555800E+6	1.30543800E+6	5.14000000E+3	5.34100000E+3	1.05053792E+0	1.03482560E+0	4.96702053E+3	5.16122307E+3	5.08406208E+3
9.28800000E+3	7.06062137E+1	-1.29695000E+6	1.30682500E+6	5.07300000E+3	5.27900000E+3	1.05057440E+0	1.02838816E+0	4.93296228E+3	5.13311751E+3	5.02487020E+3
9.28900000E+3	7.05885768E+1	-1.29834000E+6	1.30821000E+6	5.13500000E+3	5.32400000E+3	1.05087456E+0	1.03420544E+0	4.96516437E+3	5.14777566E+3	5.06625643E+3
9.29000000E+3	7.05709591E+1	-1.29972800E+6	1.30959300E+6	5.03200000E+3	5.21900000E+3	1.05075168E+0	1.03126144E+0	4.87946102E+3	5.06072257E+3	4.96692044E+3
9.29100000E+3	7.05533607E+1	-1.30111300E+6	1.31097300E+6	5.13800000E+3	5.34200000E+3	1.05097696E+0	1.03297184E+0	4.97399813E+3	5.17135201E+3	5.08288973E+3
9.29200000E+3	7.05357815E+1	-1.30249600E+6	1.31235200E+6	5.01800000E+3	5.21400000E+3	1.05028256E+0	1.03385952E+0	4.85365749E+3	5.04318469E+3	4.96437835E+3
9.29300000E+3	7.05182214E+1	-1.30387700E+6	1.31372800E+6	5.07800000E+3	5.29900000E+3	1.05072928E+0	1.03179200E+0	4.92153457E+3	5.13560749E+3	5.04316393E+3
9.29400000E+3	7.05006803E+1	-1.30525600E+6	1.31510200E+6	5.01800000E+3	5.22000000E+3	1.05006368E+0	1.03153888E+0	4.86457670E+3	5.06027091E+3	4.97112708E+3
9.29500000E+3	7.04831583E+1	-1.30663300E+6	1.31647400E+6	4.92600000E+3	5.12700000E+3	1.05019360E+0	1.03418912E+0	4.76315202E+3	4.95747499E+3	4.88195700E+3
9.29600000E+3	7.04656553E+1	-1.30800700E+6	1.31784300E+6	5.08100000E+3	5.29200000E+3	1.05044384E+0	1.03462976E+0	4.91093548E+3	5.11485490E+3	5.03787047E+3
9.29700000E+3	7.04481712E+1	-1.30938000E+6	1.31921100E+6	4.91400000E+3	5.12500000E+3	1.05031424E+0	1.03090848E+0	4.76666949E+3	4.97123965E+3	4.87949207E+3
9.29800000E+3	7.04307060E+1	-1.31075000E+6	1.32057600E+6	5.09200000E+3	5.29900000E+3	1.05100768E+0	1.03519296E+0	4.91888971E+3	5.11969081E+3	5.04277952E+3
9.29900000E+3	7.04132596E+1	-1.31211800E+6	1.32193900E+6	4.98700000E+3	5.20500000E+3	1.05021024E+0	1.03277312E+0	4.82874690E+3	5.03967507E+3	4.95615049E+3
9.30000000E+3	7.03958319E+1	-1.31348400E+6	1.32330000E+6	5.06700000E+3	5.25900000E+3	1.05059168E+0	1.03085376E+0	4.91534318E+3	5.10150080E+3	5.00575066E+3
9.30100000E+3	7.03784230E+1	-1.31484800E+6	1.32465900E+6	4.96100000E+3	5.17200000E+3	1.05119360E+0	1.03054144E+0	4.81397429E+3	5.01858515E+3	4.92012128E+3
9.30200000E+3	7.03610328E+1	-1.31620900E+6	1.32601600E+6	4.92100000E+3	5.10300000E+3	1.05008608E+0	1.03399392E+0	4.75921561E+3	4.93510076E+3	4.85960161E+3
9.30300000E+3	7.03436611E+1	-1.31756900E+6	1.32737100E+6	5.02000000E+3	5.25100000E+3	1.05019840E+0	1.03057568E+0	4.87106391E+3	5.09508693E+3	5.00000762E+3
9.30400000E+3	7.03263080E+1	-1.31892600E+6	1.32872300E+6	5.02500000E+3	5.20500000E+3	1.05053984E+0	1.03185056E+0	4.86989124E+3	5.04428755E+3	4.95459553E+3
9.30500000E+3	7.03089735E+1	-1.32028200E+6	1.33007400E+6	4.95200000E+3	5.15200000E+3	1.05098592E+0	1.03634144E+0	4.77834795E+3	4.97122123E+3	4.90206377E+3
9.30600000E+3	7.02916574E+1	-1.32163500E+6	1.33142200E+6	5.00600000E+3	5.19000000E+3	1.05050144E+0	1.03182976E+0	4.85157552E+3	5.02977950E+3	4.94049775E+3
9.30700000E+3	7.02743597E+1	-1.32298600E+6	1.33276800E+6	4.91600000E+3	5.12300000E+3	1.05079136E+0	1.03396576E+0	4.75450947E+3	4.95455721E+3	4.87537317E+3
9.30800000E+3	7.02570804E+1	-1.32433500E+6	1.33411300E+6	5.08000000E+3	5.28200000E+3	1.05022848E+0	1.02997024E+0	4.93218134E+3	5.12828824E+3	5.02938180E+3
9.30900000E+3	7.02398194E+1	-1.32568200E+6	1.33545500E+6	4.92100000E+3	5.14200000E+3	1.05043680E+0	1.03108992E+0	4.77261964E+3	4.98687910E+3	4.89510649E+3
9.31000000E+3	7.02225766E+1	-1.32702700E+6	1.33679500E+6	4.79300000E+3	5.01100000E+3	1.04996960E+0	1.03304800E+0	4.63966824E+3	4.85062627E+3	4.77251913E+3
9.31100000E+3	7.02053521E+1	-1.32836900E+6	1.33813300E+6	4.98300000E+3	5.17800000E+3	1.05081984E+0	1.03174464E+0	4.82968344E+3	5.01861825E+3	4.92758112E+3
9.31200000E+3	7.01881458E+1	-1.32971000E+6	1.33946800E+6	4.92500000E+3	5.14300000E+3	1.05026848E+0	1.03295072E+0	4.76789445E+3	4.97889756E+3	4.89684314E+3
9.31300000E+3	7.01709575E+1	-1.33104900E+6	1.34080200E+6	4.78800000E+3	4.98000000E+3	1.05083616E+0	1.02800992E+0	4.65754260E+3	4.84420636E+3	4.73908321E+3
9.31400000E+3	7.01537874E+1	-1.33238500E+6	1.34213400E+6	4.77900000E+3	4.97900000E+3	1.05084288E+0	1.02673056E+0	4.65458046E+3	4.84930975E+3	4.73810128E+3
9.31500000E+3	7.01366353E+1	-1.33371900E+6	1.34346300E+6	4.87100000E+3	5.05400000E+3	1.05063296E+0	1.03340992E+0	4.71352162E+3	4.89056571E+3	4.81043351E+3
9.31600000E+3	7.01195011E+1	-1.33505200E+6	1.34479100E+6	4.88600000E+3	5.10100000E+3	1.05058144E+0	1.02965568E+0	4.74527562E+3	4.95397465E+3	4.85540655E+3
9.31700000E+3	7.01023849E+1	-1.33638200E+6	1.34611600E+6	5.00400000E+3	5.18400000E+3	1.05064480E+0	1.03000448E+0	4.85823130E+3	5.03295365E+3	4.93411284E+3
9.31800000E+3	7.00852865E+1	-1.33771000E+6	1.34744000E+6	4.86300000E+3	5.08000000E+3	1.05018176E+0	1.03166496E+0	4.71373962E+3	4.92392817E+3	4.83725789E+3
9.31900000E+3	7.00682060E+1	-1.33903700E+6	1.34876100E+6	4.89100000E+3	5.10000000E+3	1.05076096E+0	1.02987712E+0	4.74911026E+3	4.95195649E+3	4.85362532E+3
9.32000000E+3	7.00511433E+1	-1.34036100E+6	1.35008100E+6	4.76500000E+3	4.96100000E+3	1.05035552E+0	1.03259200E+0	4.61460093E+3	4.80429812E+3	4.72316269E+3
9.32100000E+3	7.00340983E+1	-1.34168300E+6	1.35139800E+6	4.92100000E+3	5.12800000E+3	1.05040288E+0	1.03010272E+0	4.77719348E+3	4.97811991E+3	4.88193635E+3
9.32200000E+3	7.00170710E+1	-1.34300300E+6	1.35271300E+6	4.80200000E+3	5.01800000E+3	1.05062112E+0	1.03209184E+0	4.65268672E+3	4.86184543E+3	4.77622228E+3
9.32300000E+3	7.00000614E+1	-1.34432100E+6	1.35402700E+6	4.89300000E+3	5.09700000E+3	1.05055552E+0	1.03501696E+0	4.72745877E+3	4.92454533E+3	4.85171883E+3
9.32400000E+3	6.99830694E+1	-1.34563800E+6	1.35533800E+6	4.87200000E+3	5.05800000E+3	1.05014496E+0	1.03277056E+0	4.71740790E+3	4.89745104E+3	4.81647791E+3
9.32500000E+3	6.99660949E+1	-1.34695200E+6	1.35664700E+6	4.80700000E+3	5.00500000E+3	1.05019936E+0	1.03055936E+0	4.66445717E+3	4.85646157E+3	4.76576181E+3
9.32600000E+3	6.99491379E+1	-1.34826400E+6	1.35795500E+6	4.86000000E+3	5.06700000E+3	1.05049184E+0	1.03008032E+0	4.71807868E+3	4.91900540E+3	4.82345489E+3
9.32700000E+3	6.99321984E+1	-1.34957400E+6	1.35926000E+6	4.81300000E+3	4.99400000E+3	1.05042016E+0	1.03309856E+0	4.65880041E+3	4.83393457E+3	4.75428804E+3
9.32800000E+3	6.99152763E+1	-1.35088200E+6	1.36056300E+6	4.84400000E+3	5.06100000E+3	1.05075488E+0	1.03536032E+0	4.67856446E+3	4.88806754E+3	4.81653723E+3
9.32900000E+3	6.98983716E+1	-1.35218800E+6	1.36186500E+6	4.82100000E+3	5.03000000E+3	1.05055520E+0	1.02735584E+0	4.69262919E+3	4.89595411E+3	4.78794451E+3
9.33000000E+3	6.98814842E+1	-1.35349200E+6	1.36316400E+6	4.84300000E+3	5.02700000E+3	1.05032352E+0	1.03178816E+0	4.69379296E+3	4.87205419E+3	4.78614437E+3
9.33100000E+3	6.98646141E+1	-1.35479500E+6	1.36446100E+6	4.85900000E+3	5.05700000E+3	1.05036704E+0	1.03168224E+0	4.70978351E+3	4.90161157E+3	4.81450751E+3
9.33200000E+3	6.98477613E+1	-1.35609500E+6	1.36575700E+6	4.77400000E+3	4.97400000E+3	1.05087680E+0	1.02989824E+0	4.63540942E+3	4.82947062E+3	4.73319042E+3
9.33300000E+3	6.98309256E+1	-1.35739300E+6	1.36705000E+6	4.82200000E+3	5.01700000E+3	1.05096576E+0	1.03117920E+0	4.67619983E+3	4.86517612E+3	4.77370452E+3
9.33400000E+3	6.98141071E+1	-1.35868900E+6	1.36834200E+6	4.78100000E+3	4.98100000E+3	1.05017664E+0	1.03234656E+0	4.63119672E+3	4.82486908E+3	4.74301161E+3
9.33500000E+3	6.97973057E+1	-1.35998400E+6	1.36963100E+6	4.80700000E+3	4.99900000E+3	1.05049248E+0	1.03639328E+0	4.63820066E+3	4.82337213E+3	4.75872041E+3
9.33600000E+3	6.97805213E+1	-1.36127600E+6	1.37091900E+6	4.62500000E+3	4.80500000E+3	1.05041600E+0	1.03433984E+0	4.47145109E+3	4.64536805E+3	4.57437815E+3
9.33700000E+3	6.97637540E+1	-1.36256600E+6	1.37220400E+6	4.74800000E+3	4.95400000E+3	1.05070272E+0	1.02801728E+0	4.61859941E+3	4.81884351E+3	4.71493973E+3
9.33800000E+3	6.97470037E+1	-1.36385500E+6	1.37348800E+6	4.77200000E+3	4.98000000E+3	1.05042720E+0	1.03228576E+0	4.62275097E+3	4.82410659E+3	4.74092826E+3
9.33900000E+3	6.97302703E+1	-1.36514100E+6	1.37477000E+6	4.80800000E+3	5.00100000E+3	1.04987232E+0	1.02985504E+0	4.66861822E+3	4.85591468E+3	4.76343638E+3
9.34000000E+3	6.97135538E+1	-1.36642600E+6	1.37605000E+6	4.81900000E+3	5.04100000E+3	1.05100736E+0	1.02988736E+0	4.67915249E+3	4.89461252E+3	4.79635081E+3
9.34100000E+3	6.96968541E+1	-1.36770900E+6	1.37732800E+6	4.67800000E+3	4.87600000E+3	1.05066624E+0	1.03415232E+0	4.52351158E+3	4.71486854E+3	4.64086483E+3
9.34200000E+3	6.96801712E+1	-1.36898900E+6	1.37860400E+6	4.83600000E+3	5.03900000E+3	1.05002688E+0	1.03155264E+0	4.68807874E+3	4.88486743E+3	4.79892477E+3
9.34300000E+3	6.96635051E+1	-1.37026800E+6	1.37987800E+6	4.63000000E+3	4.85400000E+3	1.05044352E+0	1.03198240E+0	4.48651062E+3	4.70346547E+3	4.62090527E+3
9.34400000E+3	6.96468557E+1	-1.37154500E+6	1.38115000E+6	4.71700000E+3	4.90500000E+3	1.05087392E+0	1.03158784E+0	4.57256262E+3	4.75468349E+3	4.66754375E+3
9.34500000E+3	6.96302230E+1	-1.37282000E+6	1.38242000E+6	4.66000000E+3	4.83800000E+3	1.04956320E+0	1.03269280E+0	4.51247457E+3	4.68470549E+3	4.60953661E+3
9.34600000E+3	6.96136070E+1	-1.37409300E+6	1.38368800E+6	4.78700000E+3	4.97600000E+3	1.05083936E+0	1.03400544E+0	4.62956945E+3	4.81222819E+3	4.73526230E+3
9.34700000E+3	6.95970075E+1	-1.37536400E+6	1.38495500E+6	4.65100000E+3	4.85400000E+3	1.05050848E+0	1.03095360E+0	4.51135725E+3	4.70818121E+3	4.62061953E+3
9.34800000E+3	6.95804246E+1	-1.37663400E+6	1.38621900E+6	4.79300000E+3	4.99800000E+3	1.05030784E+0	1.03168064E+0	4.64581753E+3	4.84441283E+3	4.75860487E+3
9.34900000E+3	6.95638582E+1	-1.37790100E+6	1.38748200E+6	4.61500000E+3	4.81700000E+3	1.05036544E+0	1.03344672E+0	4.46563902E+3	4.66098102E+3	4.58602294E+3
9.35000000E+3	6.95473083E+1	-1.37916600E+6	1.38874200E+6	4.60200000E+3	4.79300000E+3	1.05045664E+0	1.03158336E+0	4.46110337E+3	4.64619236E+3	4.56277757E+3
9.35100000E+3	6.95307748E+1	-1.38043000E+6	1.39000100E+6	4.68000000E+3	4.86200000E+3	1.05023392E+0	1.03010720E+0	4.54321647E+3	4.71975612E+3	4.62944484E+3
9.35200000E+3	6.95142576E+1	-1.38169200E+6	1.39125800E+6	4.67300000E+3	4.83700000E+3	1.05014624E+0	1.03189504E+0	4.52856135E+3	4.68743039E+3	4.60602516E+3
9.35300000E+3	6.94977569E+1	-1.38295200E+6	1.39251300E+6	4.60400000E+3	4.82600000E+3	1.05008256E+0	1.03108384E+0	4.46520430E+3	4.68043358E+3	4.59582911E+3
9.35400000E+3	6.94812724E+1	-1.38421000E+6	1.39376700E+6	4.74800000E+3	4.92000000E+3	1.05043584E+0	1.03335488E+0	4.59474290E+3	4.76112391E+3	4.68377012E+3
9.35500000E+3	6.94648042E+1	-1.38546600E+6	1.39501800E+6	4.52900000E+3	4.71500000E+3	1.05030176E+0	1.02643840E+0	4.41234467E+3	4.59343514E+3	4.48918604E+3
9.35600000E+3	6.94483523E+1	-1.38672000E+6	1.39626800E+6	4.71300000E+3	4.92800000E+3	1.05038272E+0	1.03320768E+0	4.56152242E+3	4.76949761E+3	4.69162326E+3
9.35700000E+3	6.94319165E+1	-1.38797300E+6	1.39751500E+6	4.74200000E+3	4.94500000E+3	1.04970112E+0	1.03278912E+0	4.59145038E+3	4.78787510E+3	4.71086475E+3
9.35800000E+3	6.94154969E+1	-1.38922300E+6	1.39876100E+6	4.50200000E+3	4.68000000E+3	1.05025760E+0	1.03123328E+0	4.36564654E+3	4.53821559E+3	4.45604964E+3
9.35900000E+3	6.93990933E+1	-1.39047200E+6	1.40000500E+6	4.62500000E+3	4.80700000E+3	1.05067648E+0	1.03014848E+0	4.48964406E+3	4.66626734E+3	4.57514762E+3
9.36000000E+3	6.93827059E+1	-1.39171900E+6	1.40124700E+6	4.57800000E+3	4.74600000E+3	1.05014528E+0	1.03406784E+0	4.42717569E+3	4.58962113E+3	4.51937469E+3
9.36100000E+3	6.93663345E+1	-1.39296400E+6	1.40248700E+6	4.55200000E+3	4.75900000E+3	1.05001536E+0	1.03315968E+0	4.40590171E+3	4.60616744E+3	4.53231465E+3
9.36200000E+3	6.93499790E+1	-1.39420700E+6	1.40372600E+6	4.60500000E+3	4.79700000E+3	1.05078944E+0	1.03464640E+0	4.45079594E+3	4.63622422E+3	4.56513914E+3
9.36300000E+3	6.93336396E+1	-1.39544800E+6	1.40496200E+6	4.60200000E+3	4.77100000E+3	1.05023424E+0	1.03383104E+0	4.45140436E+3	4.61475140E+3	4.54279609E+3
9.36400000E+3	6.93173160E+1	-1.39668800E+6	1.40619700E+6	4.60800000E+3	4.78100000E+3	1.05080640E+0	1.03336896E+0	4.45920110E+3	4.62653504E+3	4.54983906E+3
9.36500000E+3	6.93010083E+1	-1.39792600E+6	1.40743000E+6	4.56900000E+3	4.74300000E+3	1.05013472E+0	1.02981376E+0	4.43672456E+3	4.60557652E+3	4.51656336E+3
9.36600000E+3	6.92847164E+1	-1.39916200E+6	1.40866100E+6	4.60000000E+3	4.80600000E+3	1.05100352E+0	1.02959392E+0	4.46778085E+3	4.66772149E+3	4.57277251E+3
9.36700000E+3	6.92684404E+1	-1.40039600E+6	1.40989100E+6	4.52600000E+3	4.71700000E+3	1.05057504E+0	1.03215008E+0	4.38502122E+3	4.57003690E+3	4.48992201E+3
9.36800000E+3	6.92521801E+1	-1.40162800E+6	1.41111800E+6	4.51700000E+3	4.70500000E+3	1.05060416E+0	1.03119712E+0	4.38034583E+3	4.56255862E+3	4.47837557E+3
9.36900000E+3	6.92359355E+1	-1.40285800E+6	1.41234400E+6	4.60900000E+3	4.78600000E+3	1.05008480E+0	1.03437824E+0	4.45581686E+3	4.62684570E+3	4.55772715E+3
9.37000000E+3	6.92197066E+1	-1.40408700E+6	1.41356800E+6	4.51400000E+3	4.70200000E+3	1.05026752E+0	1.02893888E+0	4.38704386E+3	4.56973217E+3	4.47695460E+3
9.37100000E+3	6.92034933E+1	-1.40531400E+6	1.41479000E+6	4.47400000E+3	4.66500000E+3	1.05054464E+0	1.03385184E+0	4.32750596E+3	4.51219631E+3	4.44055381E+3
9.37200000E+3	6.91872957E+1	-1.40653900E+6	1.41601100E+6	4.58600000E+3	4.78200000E+3	1.05050880E+0	1.03332416E+0	4.43810392E+3	4.62773878E+3	4.55207991E+3
9.37300000E+3	6.91711136E+1	-1.40776200E+6	1.41722900E+6	4.53300000E+3	4.72600000E+3	1.05096320E+0	1.03298176E+0	4.38826722E+3	4.57600246E+3	4.49777880E+3
9.37400000E+3	6.91549471E+1	-1.40898400E+6	1.41844600E+6	4.48500000E+3	4.66200000E+3	1.05046048E+0	1.03200800E+0	4.34589654E+3	4.51732441E+3	4.43805368E+3
9.37500000E+3	6.91387960E+1	-1.41020400E+6	1.41966100E+6	4.48500000E+3	4.66400000E+3	1.05075392E+0	1.03324736E+0	4.34068373E+3	4.51391991E+3	4.43871768E+3
9.37600000E+3	6.91226604E+1	-1.41142200E+6	1.42087400E+6	4.58700000E+3	4.77100000E+3	1.05105440E+0	1.02958624E+0	4.45518775E+3	4.63383130E+3	4.53925125E+3
9.37700000E+3	6.91065402E+1	-1.41263800E+6	1.42208600E+6	4.60300000E+3	4.79100000E+3	1.05039136E+0	1.03385504E+0	4.45226828E+3	4.63409258E+3	4.56115709E+3
9.37800000E+3	6.90904355E+1	-1.41385200E+6	1.42329500E+6	4.57600000E+3	4.75500000E+3	1.05042528E+0	1.03191168E+0	4.43448804E+3	4.60788201E+3	4.52673797E+3
9.37900000E+3	6.90743460E+1	-1.41506500E+6	1.42450300E+6	4.32400000E+3	4.51900000E+3	1.04984704E+0	1.03140832E+0	4.19232608E+3	4.38138338E+3	4.30443658E+3
9.38000000E+3	6.90582719E+1	-1.41627600E+6	1.42571000E+6	4.60600000E+3	4.79500000E+3	1.05063552E+0	1.03483104E+0	4.45096815E+3	4.63354192E+3	4.56390433E+3
9.38100000E+3	6.90422130E+1	-1.41748500E+6	1.42691400E+6	4.51300000E+3	4.73000000E+3	1.05026368E+0	1.03033056E+0	4.38014767E+3	4.59068237E+3	4.50363094E+3
9.38200000E+3	6.90261694E+1	-1.41869300E+6	1.42811700E+6	4.54300000E+3	4.76300000E+3	1.05056160E+0	1.03527808E+0	4.38819298E+3	4.60061865E+3	4.53376556E+3
9.38300000E+3	6.90101410E+1	-1.41989800E+6	1.42931800E+6	4.56200000E+3	4.74500000E+3	1.05031392E+0	1.03063232E+0	4.42640883E+3	4.60396834E+3	4.51769696E+3
9.38400000E+3	6.89941278E+1	-1.42110200E+6	1.43051700E+6	4.52900000E+3	4.71900000E+3	1.05068128E+0	1.03113824E+0	4.39223358E+3	4.57640728E+3	4.49137154E+3
9.38500000E+3	6.89781297E+1	-1.42230400E+6	1.43171400E+6	4.52600000E+3	4.70300000E+3	1.05038944E+0	1.03376096E+0	4.37818816E+3	4.54937887E+3	4.47738698E+3
9.38600000E+3	6.89621467E+1	-1.42350500E+6	1.43291000E+6	4.48300000E+3	4.67900000E+3	1.05090848E+0	1.03101632E+0	4.34813680E+3	4.53819122E+3	4.45233823E+3
9.38700000E+3	6.89461787E+1	-1.42470400E+6	1.43410400E+6	4.42400000E+3	4.58200000E+3	1.05077024E+0	1.03273600E+0	4.28376662E+3	4.43671869E+3	4.36061075E+3
9.38800000E+3	6.89302258E+1	-1.42590100E+6	1.43529600E+6	4.57700000E+3	4.78600000E+3	1.05095680E+0	1.03305280E+0	4.43055766E+3	4.63275639E+3	4.55394551E+3
9.38900000E+3	6.89142879E+1	-1.42709600E+6	1.43648700E+6	4.46300000E+3	4.65900000E+3	1.05060640E+0	1.03568576E+0	4.30922213E+3	4.49839674E+3	4.43458178E+3
9.39000000E+3	6.88983649E+1	-1.42828900E+6	1.43767600E+6	4.42400000E+3	4.62300000E+3	1.05067808E+0	1.03584608E+0	4.27090480E+3	4.46299505E+3	4.40001565E+3
9.39100000E+3	6.88824568E+1	-1.42948100E+6	1.43886300E+6	4.48700000E+3	4.67100000E+3	1.05020480E+0	1.03366720E+0	4.34085555E+3	4.51872284E+3	4.44770391E+3
9.39200000E+3	6.88665637E+1	-1.43067100E+6	1.44004900E+6	4.50100000E+3	4.67200000E+3	1.05041472E+0	1.03093312E+0	4.36594762E+3	4.53181293E+3	4.44776707E+3
9.39300000E+3	6.88506853E+1	-1.43186000E+6	1.44123200E+6	4.40000000E+3	4.59900000E+3	1.05018048E+0	1.03483904E+0	4.25186897E+3	4.44414313E+3	4.37924727E+3
9.39400000E+3	6.88348218E+1	-1.43304700E+6	1.44241400E+6	4.40100000E+3	4.59000000E+3	1.05069888E+0	1.03105824E+0	4.26843007E+3	4.45161446E+3	4.36852088E+3
9.39500000E+3	6.88189731E+1	-1.43423200E+6	1.44359500E+6	4.42300000E+3	4.60900000E+3	1.05058048E+0	1.03148064E+0	4.28801068E+3	4.46822073E+3	4.38709845E+3
9.39600000E+3	6.88031392E+1	-1.43541500E+6	1.44477300E+6	4.53100000E+3	4.70800000E+3	1.05061056E+0	1.03534208E+0	4.37633135E+3	4.54724499E+3	4.48120377E+3
9.39700000E+3	6.87873199E+1	-1.43659700E+6	1.44595000E+6	4.38900000E+3	4.55300000E+3	1.05056352E+0	1.03373184E+0	4.24578196E+3	4.40432013E+3	4.33386455E+3
9.39800000E+3	6.87715153E+1	-1.43777700E+6	1.44712600E+6	4.44900000E+3	4.66700000E+3	1.05068864E+0	1.03289504E+0	4.30731084E+3	4.51826423E+3	4.44184873E+3
9.39900000E+3	6.87557254E+1	-1.43895500E+6	1.44829900E+6	4.41300000E+3	4.62100000E+3	1.05091776E+0	1.03251872E+0	4.27401452E+3	4.47535193E+3	4.39710906E+3
9.40000000E+3	6.87399501E+1	-1.44013200E+6	1.44947100E+6	4.38900000E+3	4.60900000E+3	1.04981216E+0	1.03419552E+0	4.24387837E+3	4.45657312E+3	4.39030921E+3
