8920.0,11695.216602
8921.0,11705.510478
8922.0,11713.4892273
8923.0,11445.0201177
8924.0,11284.3137135
8925.0,11237.0072614
8926.0,11072.5854145
8927.0,10997.0906661
8928.0,11107.6171651
8929.0,10841.0936169
8930.0,10832.9905537
8931.0,10726.3752716
8932.0,10834.668811
8933.0,10861.5110164
8934.0,10819.6236739
8935.0,10768.5125537
8936.0,10748.2489209
8937.0,10477.8014871
8938.0,10549.894003
8939.0,10604.7004529
8940.0,10780.3237634
8941.0,10522.6087261
8942.0,10583.8938115
8943.0,10544.1231709
8944.0,10567.04242
8945.0,10510.2039788
8946.0,10414.5233625
8947.0,10383.3683209
8948.0,10347.4575295
8949.0,10173.4918593
8950.0,9916.16787392
8951.0,10277.5057862
8952.0,10354.4249135
8953.0,10298.0739192
8954.0,10306.8912227
8955.0,10355.3099526
8956.0,10282.7685168
8957.0,10359.4504224
8958.0,10341.7294095
8959.0,10392.3012064
8960.0,10367.503092
8961.0,10214.0412499
8962.0,10333.927743
8963.0,10397.0316271
8964.0,10081.7785297
8965.0,10417.281878
8966.0,10112.0439543
8967.0,10025.0849279
8968.0,10241.6146292
8969.0,10197.6514122
8970.0,10119.8672296
8970.5,10075.9768441
8971.0,10136.263455
8971.5,10112.4533631
8972.0,10027.8021692
8972.5,10094.563334
8973.0,10180.1262347
8973.5,10031.4998353
8974.0,10153.3152601
8974.5,10158.9266402
8975.0,10067.9128303
8975.5,9906.80358818
8976.0,9791.85010887
8976.5,9663.36790665
8977.0,9430.62605106
8977.5,8824.37315938
8978.0,8258.9826486
8978.5,7372.67226933
8979.0,6243.47927301
8979.5,5267.88753165
8980.0,4630.87141239
8980.5,4264.87138683
8981.0,4034.70852257
8981.5,4100.27112257
8982.0,4108.96276739
8982.5,4117.09856018
8983.0,4198.97848965
8983.5,4133.60971052
8984.0,4052.88850588
8984.5,3896.32726271
8985.0,3711.98122759
8985.5,3574.35837025
8986.0,3384.8036201
8986.5,3344.04573473
8987.0,3178.39282808
8987.5,2974.54740512
8988.0,2805.51724699
8988.5,2624.96954173
8989.0,2402.42418921
8989.5,2198.41834083
8990.0,2033.22926831
8990.5,1836.97403039
8991.0,1691.60431644
8991.5,1622.75159682
8992.0,1502.56224248
8992.5,1428.59872484
8993.0,1390.38017594
8993.5,1350.10581686
8994.0,1341.34589584
8994.5,1378.17610631
8995.0,1426.81508756
8995.5,1476.62609737
8996.0,1505.16203251
8996.5,1557.70495591
8997.0,1594.51949282
8997.5,1619.20991357
8998.0,1627.83000325
8998.5,1584.49062447
8999.0,1597.39176171
8999.5,1562.30288407
9000.0,1512.16314846
9000.5,1438.11649686
9001.0,1399.10976093
9001.5,1323.24316515
9002.0,1294.21714348
9002.5,1307.52871688
9003.0,1301.25368469
9003.5,1294.87351681
9004.0,1350.85150827
9004.5,1381.8046616
9005.0,1430.13777917
9005.5,1460.4500791
9006.0,1481.67567906
9006.5,1521.89990474
9007.0,1571.73882892
9007.5,1587.19523623
9008.0,1601.03416111
9008.5,1660.535377
9009.0,1693.82912152
9009.5,1717.33237794
9010.0,1726.44248977
9010.5,1738.60879557
9011.0,1752.23295734
9011.5,1730.54387072
9012.0,1715.90448945
9012.5,1728.6385043
9013.0,1675.18606825
9013.5,1696.96044621
9014.0,1687.42588855
9014.5,1644.41011051
9015.0,1650.43377754
9015.5,1617.12605509
9016.0,1597.62759666
9016.5,1579.60121648
9017.0,1544.05268239
9017.5,1529.08621317
9018.0,1488.00040283
9018.5,1451.23581419
9019.0,1450.49550887
9019.5,1430.15737406
9020.0,1383.24818331
9020.5,1376.45686444
9021.0,1355.37104026
9021.5,1327.61976409
9022.0,1298.39582742
9022.5,1259.63778566
9023.0,1291.0439016
9023.5,1259.65228089
9024.0,1250.09094821
9024.5,1239.11937201
9025.0,1222.47963804
9025.5,1204.96363596
9026.0,1224.44441183
9026.5,1211.97294478
9027.0,1264.42131379
9027.5,1277.20899319
9028.0,1304.62289134
9028.5,1286.82364096
9029.0,1345.53446683
9029.5,1360.78412727
9030.0,1377.81988536
9030.5,1417.37668353
9031.0,1412.39526082
9031.5,1426.94774154
9032.0,1438.15159751
9032.5,1474.53021455
9033.0,1490.6745675
9033.5,1512.82334399
9034.0,1515.24425359
9034.5,1521.58791068
9035.0,1520.80720793
9035.5,1548.36793448
9036.0,1553.28347948
9036.5,1575.48564663
9037.0,1554.07721411
9037.5,1551.78973724
9038.0,1537.33483037
9038.5,1501.91253792
9039.0,1503.32461555
9039.5,1542.66743364
9040.0,1505.72432861
9040.5,1493.34427373
9041.0,1492.83709199
9041.5,1455.64213715
9042.0,1477.03201714
9042.5,1477.87099164
9043.0,1491.85564678
9043.5,1469.2963941
9044.0,1469.28489996
9044.5,1490.24001389
9045.0,1515.95534842
9045.5,1507.49056437
9046.0,1492.30589647
9046.5,1479.6535373
9047.0,1436.94075023
9047.5,1479.94292944
9048.0,1415.86487478
9048.5,1448.32776092
9049.0,1427.99642015
9049.5,1426.26433393
9050.0,1402.4546364
9050.5,1391.28102262
9051.0,1388.29995481
9051.5,1405.74023166
9052.0,1396.33865848
9052.5,1381.43102433
9053.0,1422.66353451
9053.5,1408.30592196
9054.0,1373.1389609
9054.5,1409.66123786
9055.0,1380.14194031
9055.5,1398.21177395
9056.0,1388.49362188
9056.5,1368.33778733
9057.0,1373.25086255
9057.5,1331.72580182
9058.0,1343.18832496
9058.5,1309.42007379
9059.0,1349.63057253
9059.5,1346.01204098
9060.0,1317.95803659
9060.5,1319.21566165
9061.0,1264.56282532
9061.5,1267.1518265
9062.0,1292.93326828
9062.5,1282.4775772
9063.0,1238.85203136
9063.5,1280.09926361
9064.0,1251.25124753
9064.5,1221.92411929
9065.0,1232.85632135
9065.5,1230.91156399
9066.0,1239.58781029
9066.5,1250.88919646
9067.0,1205.8759301
9067.5,1203.06788631
9068.0,1190.40243667
9068.5,1193.8776897
9069.0,1173.74627077
9069.5,1155.31743984
9070.0,1166.94913561
9070.5,1182.77187772
9071.0,1150.63442023
9071.5,1157.41073906
9072.0,1166.09501186
9072.5,1146.29579027
9073.0,1161.68884805
9073.5,1168.7478148
9074.0,1155.13329709
9074.5,1188.58447586
9075.0,1182.0468197
9075.5,1194.12517211
9076.0,1210.87256247
9076.5,1223.48459535
9077.0,1207.63723011
9077.5,1226.62564371
9078.0,1247.71583385
9078.5,1241.18914445
9079.0,1253.07319023
9079.5,1256.83758634
9080.0,1217.50253102
9081.0,1316.12064543
9082.0,1314.98374805
9083.0,1232.54857352
9084.0,1353.26636434
9085.0,1395.07556301
9086.0,1361.00755387
9087.0,1323.32840434
9088.0,1416.15033248
9089.0,1352.34187562
9090.0,1462.7639868
9091.0,1380.58844762
9092.0,1389.930692
9093.0,1424.93668365
9094.0,1417.92251759
9095.0,1450.59709896
9096.0,1464.27599972
9097.0,1472.86517815
9098.0,1461.12790268
9099.0,1512.02066053
9100.0,1451.48647436
9101.0,1376.34872378
9102.0,1475.92699438
9103.0,1428.63572298
9104.0,1336.55897208
9105.0,1311.70366475
9106.0,1334.56801375
9107.0,1340.92897402
9108.0,1294.4577128
9109.0,1257.14669767
9110.0,1225.2837019
9111.0,1326.09535104
9112.0,1233.1119187
9113.0,1187.11412427
9114.0,1149.50149432
9115.0,1187.77704597
9116.0,1261.26469408
9117.0,1273.44030314
9118.0,1247.14331475
9119.0,1242.68325787
9120.0,1200.6309561
9121.0,1212.2641563
9122.0,1280.26297286
9123.0,1189.61658883
9124.0,1161.94532361
9125.0,1102.70423079
9126.0,1086.8550685
9127.0,1050.13584395
9128.0,1048.78098727
9129.0,994.392965218
9130.0,1040.09605868
9131.0,1032.72518511
9132.0,1011.11559479
9133.0,999.558456409
9134.0,923.517303939
9135.0,1083.88744929
9136.0,1001.92630972
9137.0,998.921608333
9138.0,1007.7144875
9139.0,1058.94561089
9140.0,1156.06481603
9141.0,1088.15249981
9142.0,1050.0700812
9143.0,1107.27963656
9144.0,1073.95632271
9145.0,1162.48490336
9146.0,1124.02387899
9147.0,1152.11685813
9148.0,1239.08696098
9149.0,1234.2982335
9150.0,1272.83668263
9151.0,1269.45263723
9152.0,1300.64812307
9153.0,1306.94461814
9154.0,1322.83794142
9155.0,1338.21714918
9156.0,1350.59707355
9157.0,1355.70626952
9158.0,1300.60318975
9159.0,1284.66976095
9160.0,1303.59350572
9161.0,1316.1267222
9162.0,1363.371459
9163.0,1259.53092633
9164.0,1224.76985487
9165.0,1229.317483
9166.0,1241.57881397
9167.0,1209.40918348
9168.0,1160.38875245
9169.0,1198.66561489
9170.0,1136.72741748
9171.0,1135.93529818
9172.0,1068.7474128
9173.0,1153.06107439
9174.0,1098.25639782
9175.0,1092.78913085
9176.0,1055.83914173
9177.0,1110.61191863
9178.0,1105.39362894
9179.0,1151.15691625
9180.0,1037.27319805
9181.0,1129.64979353
9182.0,1060.13970351
9183.0,1084.53421804
9184.0,1070.91747572
9185.0,1069.67946412
9186.0,1107.9759559
9187.0,1096.24459409
9188.0,1029.27881266
9189.0,1035.3886793
9190.0,1105.69574396
9191.0,1091.17304921
9192.0,1099.28278247
9193.0,1028.16459258
9194.0,1061.12477563
9195.0,1080.78355638
9196.0,1073.84065287
9197.0,1056.45506372
9198.0,989.648127348
9199.0,1016.88291708
9200.0,1064.67157662
9201.0,1052.48521111
9202.0,982.801731968
9203.0,942.858468826
9204.0,982.007405836
9205.0,923.958305618
9206.0,1025.22940908
9207.0,974.175587663
9208.0,929.844991881
9209.0,968.895131905
9210.0,939.079698101
9211.0,899.84390986
9212.0,936.830540889
9213.0,964.160708762
9214.0,942.265932701
9215.0,966.979621481
9216.0,959.787511503
9217.0,932.082096374
9218.0,921.769514767
9219.0,944.930248343
9220.0,975.41550645
9221.0,958.343957252
9222.0,942.458585414
9223.0,956.177899751
9224.0,989.249246679
9225.0,988.958955787
9226.0,1052.24905703
9227.0,1075.25674893
9228.0,1038.19205207
9229.0,1045.85730564
9230.0,1033.32498281
9231.0,1036.85421636
9232.0,1037.60780176
9233.0,1080.28899364
9234.0,1039.69338501
9235.0,1054.4373528
9236.0,1085.29936658
9237.0,1092.60621765
9238.0,1051.91820599
9239.0,1078.2110263
9240.0,1034.48310539
9241.0,1063.39079893
9242.0,1066.23132542
9243.0,1020.33562993
9244.0,1024.97384098
9245.0,1041.56145926
9246.0,976.419689214
9247.0,1053.84623427
9248.0,913.286297471
9249.0,919.967721061
9250.0,1019.61107427
9251.0,1016.76961544
9252.0,1041.32527289
9253.0,1033.15428835
9254.0,1021.50203246
9255.0,1022.74901252
9256.0,1022.54030521
9257.0,1019.63490235
9258.0,982.038401066
9259.0,977.667209458
9260.0,982.193584347
9261.0,958.168346102
9262.0,987.560789578
9263.0,1003.12355252
9264.0,964.651929243
9265.0,981.111695201
9266.0,899.390613585
9267.0,942.893406859
9268.0,977.081541972
9269.0,945.911090303
9270.0,929.313816862
9271.0,952.792432255
9272.0,905.18223379
9273.0,866.656776477
9274.0,893.329080744
9275.0,934.025772238
9276.0,969.148317498
9277.0,891.158514372
9278.0,892.533799002
9279.0,910.960941685
9280.0,881.861467091
9281.0,901.036463092
9282.0,898.244770016
9283.0,903.098480907
9284.0,875.86791322
9285.0,925.971144368
9286.0,897.200826291
9287.0,841.032262249
9288.0,838.296425026
9289.0,932.953853272
9290.0,843.046307004
9291.0,898.380453139
9292.0,761.855089567
9293.0,894.228869195
9294.0,836.197524234
9295.0,912.305538891
9296.0,841.909755519
9297.0,823.945303041
9298.0,900.302368046
9299.0,883.053366873
9300.0,864.228466697
9301.0,841.731548848
9302.0,803.631674017
9303.0,795.279119628
9304.0,832.4335034
9305.0,828.521083066
9306.0,827.456316333
9307.0,884.434157854
9308.0,894.153938921
9309.0,896.672948038
9310.0,888.685606783
9311.0,859.213245355
9312.0,801.125723411
9313.0,863.494968163
9314.0,891.710579799
9315.0,864.311778794
9316.0,841.153225885
9317.0,854.776879261
9318.0,821.922906759
9319.0,885.890640818
9320.0,897.773483671
9321.0,890.620390894
9322.0,862.164818308
9323.0,948.16391362
9324.0,924.294196834
9325.0,910.316218489
9326.0,843.102779795
9327.0,913.282686513
9328.0,885.096068969
9329.0,845.356294996
9330.0,905.333744813
9331.0,802.598189833
9332.0,806.807585086
9333.0,870.994776897
9334.0,890.736555423
9335.0,918.849753009
9336.0,904.236857752
9337.0,895.274839463
9338.0,900.983355034
9339.0,910.335659689
9340.0,901.230363638
9341.0,839.872699151
9342.0,873.790241003
9343.0,851.985978793
9344.0,907.789503389
9345.0,882.19977152
9346.0,930.696470332
9347.0,888.599696624
9348.0,884.869797176
9349.0,853.612645986
9350.0,913.684665972
9351.0,920.337116714
9352.0,877.319798879
9353.0,861.728519104
9354.0,866.306001007
9355.0,844.527566725
9356.0,879.11787334
9357.0,881.228782767
9358.0,861.98758352
9359.0,830.809928642
9360.0,828.545474012
9361.0,904.078004769
9362.0,814.188418172
9363.0,884.350179172
9364.0,859.343508316
9365.0,799.731465185
9366.0,869.173007752
9367.0,828.163483238
9368.0,838.294330379
9369.0,846.480221854
9370.0,838.739515326
9371.0,848.798430339
9372.0,855.4650987
9373.0,851.342553203
9374.0,774.788257716
9375.0,832.176151754
9376.0,947.32354941
9377.0,826.431078492
9378.0,854.352012857
9379.0,820.507507149
9380.0,830.866958761
9381.0,823.986597519
9382.0,798.803697422
9383.0,905.148454755
9384.0,834.328263328
9385.0,788.723429844
9386.0,862.544687868
9387.0,870.830037931
9388.0,795.098825328
9389.0,846.281746079
9390.0,839.630674582
9391.0,806.702833559
9392.0,844.62203674
9393.0,845.303749805
9394.0,834.66807749
9395.0,811.167698626
9396.0,819.723858042
9397.0,796.345629665
9398.0,820.251291334
9399.0,820.928764688
9400.0,763.05576056
